[ {
  "magassag" : 146,
  "ffiKorcsopEgy" : 59,
  "noKorcsopEgy" : 59,
  "ffiKorcsopKetto" : 62,
  "noKorcsopKetto" : 62,
  "ffiKorcsopHarom" : 67,
  "noKorcsopHarom" : 67,
  "ffiKorcsopNegy" : 71,
  "noKorcsopNegy" : 71,
  "minSuly" : 39
}, {
  "magassag" : 147,
  "ffiKorcsopEgy" : 59,
  "noKorcsopEgy" : 59,
  "ffiKorcsopKetto" : 62,
  "noKorcsopKetto" : 62,
  "ffiKorcsopHarom" : 67,
  "noKorcsopHarom" : 67,
  "ffiKorcsopNegy" : 71,
  "noKorcsopNegy" : 71,
  "minSuly" : 39
}, {
  "magassag" : 148,
  "ffiKorcsopEgy" : 59,
  "noKorcsopEgy" : 59,
  "ffiKorcsopKetto" : 62,
  "noKorcsopKetto" : 62,
  "ffiKorcsopHarom" : 67,
  "noKorcsopHarom" : 67,
  "ffiKorcsopNegy" : 71,
  "noKorcsopNegy" : 71,
  "minSuly" : 39
}, {
  "magassag" : 149,
  "ffiKorcsopEgy" : 62,
  "noKorcsopEgy" : 61,
  "ffiKorcsopKetto" : 65,
  "noKorcsopKetto" : 65,
  "ffiKorcsopHarom" : 69,
  "noKorcsopHarom" : 70,
  "ffiKorcsopNegy" : 74,
  "noKorcsopNegy" : 74,
  "minSuly" : 41
}, {
  "magassag" : 150,
  "ffiKorcsopEgy" : 62,
  "noKorcsopEgy" : 61,
  "ffiKorcsopKetto" : 65,
  "noKorcsopKetto" : 65,
  "ffiKorcsopHarom" : 69,
  "noKorcsopHarom" : 70,
  "ffiKorcsopNegy" : 74,
  "noKorcsopNegy" : 74,
  "minSuly" : 41
}, {
  "magassag" : 151,
  "ffiKorcsopEgy" : 62,
  "noKorcsopEgy" : 61,
  "ffiKorcsopKetto" : 65,
  "noKorcsopKetto" : 65,
  "ffiKorcsopHarom" : 69,
  "noKorcsopHarom" : 70,
  "ffiKorcsopNegy" : 74,
  "noKorcsopNegy" : 74,
  "minSuly" : 41
}, {
  "magassag" : 152,
  "ffiKorcsopEgy" : 64,
  "noKorcsopEgy" : 64,
  "ffiKorcsopKetto" : 68,
  "noKorcsopKetto" : 67,
  "ffiKorcsopHarom" : 72,
  "noKorcsopHarom" : 72,
  "ffiKorcsopNegy" : 77,
  "noKorcsopNegy" : 77,
  "minSuly" : 43
}, {
  "magassag" : 153,
  "ffiKorcsopEgy" : 64,
  "noKorcsopEgy" : 64,
  "ffiKorcsopKetto" : 68,
  "noKorcsopKetto" : 67,
  "ffiKorcsopHarom" : 72,
  "noKorcsopHarom" : 72,
  "ffiKorcsopNegy" : 77,
  "noKorcsopNegy" : 77,
  "minSuly" : 43
}, {
  "magassag" : 154,
  "ffiKorcsopEgy" : 64,
  "noKorcsopEgy" : 64,
  "ffiKorcsopKetto" : 68,
  "noKorcsopKetto" : 67,
  "ffiKorcsopHarom" : 72,
  "noKorcsopHarom" : 72,
  "ffiKorcsopNegy" : 77,
  "noKorcsopNegy" : 77,
  "minSuly" : 43
}, {
  "magassag" : 155,
  "ffiKorcsopEgy" : 67,
  "noKorcsopEgy" : 66,
  "ffiKorcsopKetto" : 71,
  "noKorcsopKetto" : 70,
  "ffiKorcsopHarom" : 75,
  "noKorcsopHarom" : 75,
  "ffiKorcsopNegy" : 80,
  "noKorcsopNegy" : 80,
  "minSuly" : 44
}, {
  "magassag" : 156,
  "ffiKorcsopEgy" : 67,
  "noKorcsopEgy" : 66,
  "ffiKorcsopKetto" : 71,
  "noKorcsopKetto" : 70,
  "ffiKorcsopHarom" : 75,
  "noKorcsopHarom" : 75,
  "ffiKorcsopNegy" : 80,
  "noKorcsopNegy" : 80,
  "minSuly" : 44
}, {
  "magassag" : 157,
  "ffiKorcsopEgy" : 67,
  "noKorcsopEgy" : 66,
  "ffiKorcsopKetto" : 71,
  "noKorcsopKetto" : 70,
  "ffiKorcsopHarom" : 75,
  "noKorcsopHarom" : 75,
  "ffiKorcsopNegy" : 80,
  "noKorcsopNegy" : 80,
  "minSuly" : 44
}, {
  "magassag" : 158,
  "ffiKorcsopEgy" : 70,
  "noKorcsopEgy" : 68,
  "ffiKorcsopKetto" : 73,
  "noKorcsopKetto" : 72,
  "ffiKorcsopHarom" : 78,
  "noKorcsopHarom" : 78,
  "ffiKorcsopNegy" : 83,
  "noKorcsopNegy" : 83,
  "minSuly" : 46
}, {
  "magassag" : 159,
  "ffiKorcsopEgy" : 70,
  "noKorcsopEgy" : 68,
  "ffiKorcsopKetto" : 73,
  "noKorcsopKetto" : 72,
  "ffiKorcsopHarom" : 78,
  "noKorcsopHarom" : 78,
  "ffiKorcsopNegy" : 83,
  "noKorcsopNegy" : 83,
  "minSuly" : 46
}, {
  "magassag" : 160,
  "ffiKorcsopEgy" : 70,
  "noKorcsopEgy" : 68,
  "ffiKorcsopKetto" : 73,
  "noKorcsopKetto" : 72,
  "ffiKorcsopHarom" : 78,
  "noKorcsopHarom" : 78,
  "ffiKorcsopNegy" : 83,
  "noKorcsopNegy" : 83,
  "minSuly" : 46
}, {
  "magassag" : 161,
  "ffiKorcsopEgy" : 72,
  "noKorcsopEgy" : 72,
  "ffiKorcsopKetto" : 76,
  "noKorcsopKetto" : 75,
  "ffiKorcsopHarom" : 81,
  "noKorcsopHarom" : 81,
  "ffiKorcsopNegy" : 86,
  "noKorcsopNegy" : 86,
  "minSuly" : 47
}, {
  "magassag" : 162,
  "ffiKorcsopEgy" : 72,
  "noKorcsopEgy" : 72,
  "ffiKorcsopKetto" : 76,
  "noKorcsopKetto" : 75,
  "ffiKorcsopHarom" : 81,
  "noKorcsopHarom" : 81,
  "ffiKorcsopNegy" : 86,
  "noKorcsopNegy" : 86,
  "minSuly" : 47
}, {
  "magassag" : 163,
  "ffiKorcsopEgy" : 72,
  "noKorcsopEgy" : 72,
  "ffiKorcsopKetto" : 76,
  "noKorcsopKetto" : 75,
  "ffiKorcsopHarom" : 81,
  "noKorcsopHarom" : 81,
  "ffiKorcsopNegy" : 86,
  "noKorcsopNegy" : 86,
  "minSuly" : 47
}, {
  "magassag" : 164,
  "ffiKorcsopEgy" : 75,
  "noKorcsopEgy" : 74,
  "ffiKorcsopKetto" : 79,
  "noKorcsopKetto" : 78,
  "ffiKorcsopHarom" : 84,
  "noKorcsopHarom" : 84,
  "ffiKorcsopNegy" : 89,
  "noKorcsopNegy" : 89,
  "minSuly" : 49
}, {
  "magassag" : 165,
  "ffiKorcsopEgy" : 75,
  "noKorcsopEgy" : 74,
  "ffiKorcsopKetto" : 79,
  "noKorcsopKetto" : 78,
  "ffiKorcsopHarom" : 84,
  "noKorcsopHarom" : 84,
  "ffiKorcsopNegy" : 89,
  "noKorcsopNegy" : 89,
  "minSuly" : 49
}, {
  "magassag" : 166,
  "ffiKorcsopEgy" : 75,
  "noKorcsopEgy" : 74,
  "ffiKorcsopKetto" : 79,
  "noKorcsopKetto" : 78,
  "ffiKorcsopHarom" : 84,
  "noKorcsopHarom" : 84,
  "ffiKorcsopNegy" : 89,
  "noKorcsopNegy" : 89,
  "minSuly" : 49
}, {
  "magassag" : 167,
  "ffiKorcsopEgy" : 78,
  "noKorcsopEgy" : 77,
  "ffiKorcsopKetto" : 82,
  "noKorcsopKetto" : 81,
  "ffiKorcsopHarom" : 87,
  "noKorcsopHarom" : 87,
  "ffiKorcsopNegy" : 92,
  "noKorcsopNegy" : 93,
  "minSuly" : 51
}, {
  "magassag" : 168,
  "ffiKorcsopEgy" : 78,
  "noKorcsopEgy" : 77,
  "ffiKorcsopKetto" : 82,
  "noKorcsopKetto" : 81,
  "ffiKorcsopHarom" : 87,
  "noKorcsopHarom" : 87,
  "ffiKorcsopNegy" : 92,
  "noKorcsopNegy" : 93,
  "minSuly" : 51
}, {
  "magassag" : 169,
  "ffiKorcsopEgy" : 78,
  "noKorcsopEgy" : 77,
  "ffiKorcsopKetto" : 82,
  "noKorcsopKetto" : 81,
  "ffiKorcsopHarom" : 87,
  "noKorcsopHarom" : 87,
  "ffiKorcsopNegy" : 92,
  "noKorcsopNegy" : 93,
  "minSuly" : 51
}, {
  "magassag" : 170,
  "ffiKorcsopEgy" : 80,
  "noKorcsopEgy" : 80,
  "ffiKorcsopKetto" : 85,
  "noKorcsopKetto" : 84,
  "ffiKorcsopHarom" : 90,
  "noKorcsopHarom" : 90,
  "ffiKorcsopNegy" : 96,
  "noKorcsopNegy" : 96,
  "minSuly" : 53
}, {
  "magassag" : 171,
  "ffiKorcsopEgy" : 80,
  "noKorcsopEgy" : 80,
  "ffiKorcsopKetto" : 85,
  "noKorcsopKetto" : 84,
  "ffiKorcsopHarom" : 90,
  "noKorcsopHarom" : 90,
  "ffiKorcsopNegy" : 96,
  "noKorcsopNegy" : 96,
  "minSuly" : 53
}, {
  "magassag" : 172,
  "ffiKorcsopEgy" : 80,
  "noKorcsopEgy" : 80,
  "ffiKorcsopKetto" : 85,
  "noKorcsopKetto" : 84,
  "ffiKorcsopHarom" : 90,
  "noKorcsopHarom" : 90,
  "ffiKorcsopNegy" : 96,
  "noKorcsopNegy" : 96,
  "minSuly" : 53
}, {
  "magassag" : 173,
  "ffiKorcsopEgy" : 83,
  "noKorcsopEgy" : 83,
  "ffiKorcsopKetto" : 88,
  "noKorcsopKetto" : 87,
  "ffiKorcsopHarom" : 93,
  "noKorcsopHarom" : 93,
  "ffiKorcsopNegy" : 99,
  "noKorcsopNegy" : 99,
  "minSuly" : 55
}, {
  "magassag" : 174,
  "ffiKorcsopEgy" : 83,
  "noKorcsopEgy" : 83,
  "ffiKorcsopKetto" : 88,
  "noKorcsopKetto" : 87,
  "ffiKorcsopHarom" : 93,
  "noKorcsopHarom" : 93,
  "ffiKorcsopNegy" : 99,
  "noKorcsopNegy" : 99,
  "minSuly" : 55
}, {
  "magassag" : 175,
  "ffiKorcsopEgy" : 83,
  "noKorcsopEgy" : 83,
  "ffiKorcsopKetto" : 88,
  "noKorcsopKetto" : 87,
  "ffiKorcsopHarom" : 93,
  "noKorcsopHarom" : 93,
  "ffiKorcsopNegy" : 99,
  "noKorcsopNegy" : 99,
  "minSuly" : 55
}, {
  "magassag" : 176,
  "ffiKorcsopEgy" : 86,
  "noKorcsopEgy" : 86,
  "ffiKorcsopKetto" : 91,
  "noKorcsopKetto" : 90,
  "ffiKorcsopHarom" : 97,
  "noKorcsopHarom" : 97,
  "ffiKorcsopNegy" : 103,
  "noKorcsopNegy" : 103,
  "minSuly" : 57
}, {
  "magassag" : 177,
  "ffiKorcsopEgy" : 86,
  "noKorcsopEgy" : 86,
  "ffiKorcsopKetto" : 91,
  "noKorcsopKetto" : 90,
  "ffiKorcsopHarom" : 97,
  "noKorcsopHarom" : 97,
  "ffiKorcsopNegy" : 103,
  "noKorcsopNegy" : 103,
  "minSuly" : 57
}, {
  "magassag" : 178,
  "ffiKorcsopEgy" : 86,
  "noKorcsopEgy" : 86,
  "ffiKorcsopKetto" : 91,
  "noKorcsopKetto" : 90,
  "ffiKorcsopHarom" : 97,
  "noKorcsopHarom" : 97,
  "ffiKorcsopNegy" : 103,
  "noKorcsopNegy" : 103,
  "minSuly" : 57
}, {
  "magassag" : 179,
  "ffiKorcsopEgy" : 89,
  "noKorcsopEgy" : 89,
  "ffiKorcsopKetto" : 94,
  "noKorcsopKetto" : 93,
  "ffiKorcsopHarom" : 100,
  "noKorcsopHarom" : 100,
  "ffiKorcsopNegy" : 106,
  "noKorcsopNegy" : 106,
  "minSuly" : 58
}, {
  "magassag" : 180,
  "ffiKorcsopEgy" : 89,
  "noKorcsopEgy" : 89,
  "ffiKorcsopKetto" : 94,
  "noKorcsopKetto" : 93,
  "ffiKorcsopHarom" : 100,
  "noKorcsopHarom" : 100,
  "ffiKorcsopNegy" : 106,
  "noKorcsopNegy" : 106,
  "minSuly" : 58
}, {
  "magassag" : 181,
  "ffiKorcsopEgy" : 89,
  "noKorcsopEgy" : 89,
  "ffiKorcsopKetto" : 94,
  "noKorcsopKetto" : 93,
  "ffiKorcsopHarom" : 100,
  "noKorcsopHarom" : 100,
  "ffiKorcsopNegy" : 106,
  "noKorcsopNegy" : 106,
  "minSuly" : 58
}, {
  "magassag" : 182,
  "ffiKorcsopEgy" : 92,
  "noKorcsopEgy" : 92,
  "ffiKorcsopKetto" : 97,
  "noKorcsopKetto" : 96,
  "ffiKorcsopHarom" : 103,
  "noKorcsopHarom" : 103,
  "ffiKorcsopNegy" : 110,
  "noKorcsopNegy" : 110,
  "minSuly" : 60
}, {
  "magassag" : 183,
  "ffiKorcsopEgy" : 92,
  "noKorcsopEgy" : 92,
  "ffiKorcsopKetto" : 97,
  "noKorcsopKetto" : 96,
  "ffiKorcsopHarom" : 103,
  "noKorcsopHarom" : 103,
  "ffiKorcsopNegy" : 110,
  "noKorcsopNegy" : 110,
  "minSuly" : 60
}, {
  "magassag" : 184,
  "ffiKorcsopEgy" : 92,
  "noKorcsopEgy" : 92,
  "ffiKorcsopKetto" : 97,
  "noKorcsopKetto" : 96,
  "ffiKorcsopHarom" : 103,
  "noKorcsopHarom" : 103,
  "ffiKorcsopNegy" : 110,
  "noKorcsopNegy" : 110,
  "minSuly" : 60
}, {
  "magassag" : 185,
  "ffiKorcsopEgy" : 95,
  "noKorcsopEgy" : 95,
  "ffiKorcsopKetto" : 100,
  "noKorcsopKetto" : 99,
  "ffiKorcsopHarom" : 107,
  "noKorcsopHarom" : 107,
  "ffiKorcsopNegy" : 114,
  "noKorcsopNegy" : 114,
  "minSuly" : 62
}, {
  "magassag" : 186,
  "ffiKorcsopEgy" : 95,
  "noKorcsopEgy" : 95,
  "ffiKorcsopKetto" : 100,
  "noKorcsopKetto" : 99,
  "ffiKorcsopHarom" : 107,
  "noKorcsopHarom" : 107,
  "ffiKorcsopNegy" : 114,
  "noKorcsopNegy" : 114,
  "minSuly" : 62
}, {
  "magassag" : 187,
  "ffiKorcsopEgy" : 95,
  "noKorcsopEgy" : 95,
  "ffiKorcsopKetto" : 100,
  "noKorcsopKetto" : 99,
  "ffiKorcsopHarom" : 107,
  "noKorcsopHarom" : 107,
  "ffiKorcsopNegy" : 114,
  "noKorcsopNegy" : 114,
  "minSuly" : 62
}, {
  "magassag" : 188,
  "ffiKorcsopEgy" : 98,
  "noKorcsopEgy" : 98,
  "ffiKorcsopKetto" : 103,
  "noKorcsopKetto" : 103,
  "ffiKorcsopHarom" : 110,
  "noKorcsopHarom" : 111,
  "ffiKorcsopNegy" : 118,
  "noKorcsopNegy" : 117,
  "minSuly" : 64
}, {
  "magassag" : 189,
  "ffiKorcsopEgy" : 98,
  "noKorcsopEgy" : 98,
  "ffiKorcsopKetto" : 103,
  "noKorcsopKetto" : 103,
  "ffiKorcsopHarom" : 110,
  "noKorcsopHarom" : 111,
  "ffiKorcsopNegy" : 118,
  "noKorcsopNegy" : 117,
  "minSuly" : 64
}, {
  "magassag" : 190,
  "ffiKorcsopEgy" : 98,
  "noKorcsopEgy" : 98,
  "ffiKorcsopKetto" : 103,
  "noKorcsopKetto" : 103,
  "ffiKorcsopHarom" : 110,
  "noKorcsopHarom" : 111,
  "ffiKorcsopNegy" : 118,
  "noKorcsopNegy" : 117,
  "minSuly" : 64
}, {
  "magassag" : 191,
  "ffiKorcsopEgy" : 101,
  "noKorcsopEgy" : 101,
  "ffiKorcsopKetto" : 107,
  "noKorcsopKetto" : 106,
  "ffiKorcsopHarom" : 114,
  "noKorcsopHarom" : 114,
  "ffiKorcsopNegy" : 121,
  "noKorcsopNegy" : 121,
  "minSuly" : 66
}, {
  "magassag" : 192,
  "ffiKorcsopEgy" : 101,
  "noKorcsopEgy" : 101,
  "ffiKorcsopKetto" : 107,
  "noKorcsopKetto" : 106,
  "ffiKorcsopHarom" : 114,
  "noKorcsopHarom" : 114,
  "ffiKorcsopNegy" : 121,
  "noKorcsopNegy" : 121,
  "minSuly" : 66
}, {
  "magassag" : 193,
  "ffiKorcsopEgy" : 101,
  "noKorcsopEgy" : 101,
  "ffiKorcsopKetto" : 107,
  "noKorcsopKetto" : 106,
  "ffiKorcsopHarom" : 114,
  "noKorcsopHarom" : 114,
  "ffiKorcsopNegy" : 121,
  "noKorcsopNegy" : 121,
  "minSuly" : 66
}, {
  "magassag" : 194,
  "ffiKorcsopEgy" : 104,
  "noKorcsopEgy" : 104,
  "ffiKorcsopKetto" : 110,
  "noKorcsopKetto" : 109,
  "ffiKorcsopHarom" : 117,
  "noKorcsopHarom" : 118,
  "ffiKorcsopNegy" : 125,
  "noKorcsopNegy" : 125,
  "minSuly" : 68
}, {
  "magassag" : 195,
  "ffiKorcsopEgy" : 104,
  "noKorcsopEgy" : 104,
  "ffiKorcsopKetto" : 110,
  "noKorcsopKetto" : 109,
  "ffiKorcsopHarom" : 117,
  "noKorcsopHarom" : 118,
  "ffiKorcsopNegy" : 125,
  "noKorcsopNegy" : 125,
  "minSuly" : 68
}, {
  "magassag" : 196,
  "ffiKorcsopEgy" : 104,
  "noKorcsopEgy" : 104,
  "ffiKorcsopKetto" : 110,
  "noKorcsopKetto" : 109,
  "ffiKorcsopHarom" : 117,
  "noKorcsopHarom" : 118,
  "ffiKorcsopNegy" : 125,
  "noKorcsopNegy" : 125,
  "minSuly" : 68
}, {
  "magassag" : 197,
  "ffiKorcsopEgy" : 107,
  "noKorcsopEgy" : 107,
  "ffiKorcsopKetto" : 113,
  "noKorcsopKetto" : 113,
  "ffiKorcsopHarom" : 121,
  "noKorcsopHarom" : 121,
  "ffiKorcsopNegy" : 129,
  "noKorcsopNegy" : 129,
  "minSuly" : 71
}, {
  "magassag" : 198,
  "ffiKorcsopEgy" : 107,
  "noKorcsopEgy" : 107,
  "ffiKorcsopKetto" : 113,
  "noKorcsopKetto" : 113,
  "ffiKorcsopHarom" : 121,
  "noKorcsopHarom" : 121,
  "ffiKorcsopNegy" : 129,
  "noKorcsopNegy" : 129,
  "minSuly" : 71
}, {
  "magassag" : 199,
  "ffiKorcsopEgy" : 107,
  "noKorcsopEgy" : 107,
  "ffiKorcsopKetto" : 113,
  "noKorcsopKetto" : 113,
  "ffiKorcsopHarom" : 121,
  "noKorcsopHarom" : 121,
  "ffiKorcsopNegy" : 129,
  "noKorcsopNegy" : 129,
  "minSuly" : 71
}, {
  "magassag" : 200,
  "ffiKorcsopEgy" : 111,
  "noKorcsopEgy" : 111,
  "ffiKorcsopKetto" : 117,
  "noKorcsopKetto" : 116,
  "ffiKorcsopHarom" : 124,
  "noKorcsopHarom" : 124,
  "ffiKorcsopNegy" : 133,
  "noKorcsopNegy" : 133,
  "minSuly" : 73
}, {
  "magassag" : 201,
  "ffiKorcsopEgy" : 111,
  "noKorcsopEgy" : 111,
  "ffiKorcsopKetto" : 117,
  "noKorcsopKetto" : 116,
  "ffiKorcsopHarom" : 124,
  "noKorcsopHarom" : 124,
  "ffiKorcsopNegy" : 133,
  "noKorcsopNegy" : 133,
  "minSuly" : 73
}, {
  "magassag" : 202,
  "ffiKorcsopEgy" : 111,
  "noKorcsopEgy" : 111,
  "ffiKorcsopKetto" : 117,
  "noKorcsopKetto" : 116,
  "ffiKorcsopHarom" : 124,
  "noKorcsopHarom" : 124,
  "ffiKorcsopNegy" : 133,
  "noKorcsopNegy" : 133,
  "minSuly" : 73
}, {
  "magassag" : 203,
  "ffiKorcsopEgy" : 114,
  "noKorcsopEgy" : 114,
  "ffiKorcsopKetto" : 120,
  "noKorcsopKetto" : 120,
  "ffiKorcsopHarom" : 128,
  "noKorcsopHarom" : 127,
  "ffiKorcsopNegy" : 137,
  "noKorcsopNegy" : 137,
  "minSuly" : 75
}, {
  "magassag" : 204,
  "ffiKorcsopEgy" : 114,
  "noKorcsopEgy" : 114,
  "ffiKorcsopKetto" : 120,
  "noKorcsopKetto" : 120,
  "ffiKorcsopHarom" : 128,
  "noKorcsopHarom" : 127,
  "ffiKorcsopNegy" : 137,
  "noKorcsopNegy" : 137,
  "minSuly" : 75
}, {
  "magassag" : 205,
  "ffiKorcsopEgy" : 114,
  "noKorcsopEgy" : 114,
  "ffiKorcsopKetto" : 120,
  "noKorcsopKetto" : 120,
  "ffiKorcsopHarom" : 128,
  "noKorcsopHarom" : 127,
  "ffiKorcsopNegy" : 137,
  "noKorcsopNegy" : 137,
  "minSuly" : 75
} ]