[ {
  "wattKg" : 320,
  "ffiKorcsopEgy" : 160,
  "noKorcsopEgy" : 160,
  "ffiKorcsopKetto" : 160,
  "noKorcsopKetto" : 160,
  "ffiKorcsopHarom" : 160,
  "noKorcsopHarom" : 160,
  "ffiKorcsopNegy" : 160,
  "noKorcsopNegy" : 160,
  "ffiKorcsopOt" : 160,
  "noKorcsopOt" : 160,
  "ffiKorcsopHat" : 160,
  "noKorcsopHat" : 160,
  "ffiKorcsopHet" : 160,
  "noKorcsopHet" : 160
}, {
  "wattKg" : 319,
  "ffiKorcsopEgy" : 155,
  "noKorcsopEgy" : 160,
  "ffiKorcsopKetto" : 160,
  "noKorcsopKetto" : 160,
  "ffiKorcsopHarom" : 160,
  "noKorcsopHarom" : 160,
  "ffiKorcsopNegy" : 160,
  "noKorcsopNegy" : 160,
  "ffiKorcsopOt" : 160,
  "noKorcsopOt" : 160,
  "ffiKorcsopHat" : 160,
  "noKorcsopHat" : 160,
  "ffiKorcsopHet" : 160,
  "noKorcsopHet" : 160
}, {
  "wattKg" : 318,
  "ffiKorcsopEgy" : 155,
  "noKorcsopEgy" : 160,
  "ffiKorcsopKetto" : 160,
  "noKorcsopKetto" : 160,
  "ffiKorcsopHarom" : 160,
  "noKorcsopHarom" : 160,
  "ffiKorcsopNegy" : 160,
  "noKorcsopNegy" : 160,
  "ffiKorcsopOt" : 160,
  "noKorcsopOt" : 160,
  "ffiKorcsopHat" : 160,
  "noKorcsopHat" : 160,
  "ffiKorcsopHet" : 160,
  "noKorcsopHet" : 160
}, {
  "wattKg" : 317,
  "ffiKorcsopEgy" : 155,
  "noKorcsopEgy" : 160,
  "ffiKorcsopKetto" : 160,
  "noKorcsopKetto" : 160,
  "ffiKorcsopHarom" : 160,
  "noKorcsopHarom" : 160,
  "ffiKorcsopNegy" : 160,
  "noKorcsopNegy" : 160,
  "ffiKorcsopOt" : 160,
  "noKorcsopOt" : 160,
  "ffiKorcsopHat" : 160,
  "noKorcsopHat" : 160,
  "ffiKorcsopHet" : 160,
  "noKorcsopHet" : 160
}, {
  "wattKg" : 316,
  "ffiKorcsopEgy" : 155,
  "noKorcsopEgy" : 160,
  "ffiKorcsopKetto" : 160,
  "noKorcsopKetto" : 160,
  "ffiKorcsopHarom" : 160,
  "noKorcsopHarom" : 160,
  "ffiKorcsopNegy" : 160,
  "noKorcsopNegy" : 160,
  "ffiKorcsopOt" : 160,
  "noKorcsopOt" : 160,
  "ffiKorcsopHat" : 160,
  "noKorcsopHat" : 160,
  "ffiKorcsopHet" : 160,
  "noKorcsopHet" : 160
}, {
  "wattKg" : 315,
  "ffiKorcsopEgy" : 150,
  "noKorcsopEgy" : 160,
  "ffiKorcsopKetto" : 160,
  "noKorcsopKetto" : 160,
  "ffiKorcsopHarom" : 160,
  "noKorcsopHarom" : 160,
  "ffiKorcsopNegy" : 160,
  "noKorcsopNegy" : 160,
  "ffiKorcsopOt" : 160,
  "noKorcsopOt" : 160,
  "ffiKorcsopHat" : 160,
  "noKorcsopHat" : 160,
  "ffiKorcsopHet" : 160,
  "noKorcsopHet" : 160
}, {
  "wattKg" : 314,
  "ffiKorcsopEgy" : 150,
  "noKorcsopEgy" : 160,
  "ffiKorcsopKetto" : 160,
  "noKorcsopKetto" : 160,
  "ffiKorcsopHarom" : 160,
  "noKorcsopHarom" : 160,
  "ffiKorcsopNegy" : 160,
  "noKorcsopNegy" : 160,
  "ffiKorcsopOt" : 160,
  "noKorcsopOt" : 160,
  "ffiKorcsopHat" : 160,
  "noKorcsopHat" : 160,
  "ffiKorcsopHet" : 160,
  "noKorcsopHet" : 160
}, {
  "wattKg" : 313,
  "ffiKorcsopEgy" : 150,
  "noKorcsopEgy" : 160,
  "ffiKorcsopKetto" : 160,
  "noKorcsopKetto" : 160,
  "ffiKorcsopHarom" : 160,
  "noKorcsopHarom" : 160,
  "ffiKorcsopNegy" : 160,
  "noKorcsopNegy" : 160,
  "ffiKorcsopOt" : 160,
  "noKorcsopOt" : 160,
  "ffiKorcsopHat" : 160,
  "noKorcsopHat" : 160,
  "ffiKorcsopHet" : 160,
  "noKorcsopHet" : 160
}, {
  "wattKg" : 312,
  "ffiKorcsopEgy" : 150,
  "noKorcsopEgy" : 160,
  "ffiKorcsopKetto" : 160,
  "noKorcsopKetto" : 160,
  "ffiKorcsopHarom" : 160,
  "noKorcsopHarom" : 160,
  "ffiKorcsopNegy" : 160,
  "noKorcsopNegy" : 160,
  "ffiKorcsopOt" : 160,
  "noKorcsopOt" : 160,
  "ffiKorcsopHat" : 160,
  "noKorcsopHat" : 160,
  "ffiKorcsopHet" : 160,
  "noKorcsopHet" : 160
}, {
  "wattKg" : 311,
  "ffiKorcsopEgy" : 150,
  "noKorcsopEgy" : 160,
  "ffiKorcsopKetto" : 160,
  "noKorcsopKetto" : 160,
  "ffiKorcsopHarom" : 160,
  "noKorcsopHarom" : 160,
  "ffiKorcsopNegy" : 160,
  "noKorcsopNegy" : 160,
  "ffiKorcsopOt" : 160,
  "noKorcsopOt" : 160,
  "ffiKorcsopHat" : 160,
  "noKorcsopHat" : 160,
  "ffiKorcsopHet" : 160,
  "noKorcsopHet" : 160
}, {
  "wattKg" : 310,
  "ffiKorcsopEgy" : 145,
  "noKorcsopEgy" : 160,
  "ffiKorcsopKetto" : 160,
  "noKorcsopKetto" : 160,
  "ffiKorcsopHarom" : 160,
  "noKorcsopHarom" : 160,
  "ffiKorcsopNegy" : 160,
  "noKorcsopNegy" : 160,
  "ffiKorcsopOt" : 160,
  "noKorcsopOt" : 160,
  "ffiKorcsopHat" : 160,
  "noKorcsopHat" : 160,
  "ffiKorcsopHet" : 160,
  "noKorcsopHet" : 160
}, {
  "wattKg" : 309,
  "ffiKorcsopEgy" : 145,
  "noKorcsopEgy" : 160,
  "ffiKorcsopKetto" : 160,
  "noKorcsopKetto" : 160,
  "ffiKorcsopHarom" : 160,
  "noKorcsopHarom" : 160,
  "ffiKorcsopNegy" : 160,
  "noKorcsopNegy" : 160,
  "ffiKorcsopOt" : 160,
  "noKorcsopOt" : 160,
  "ffiKorcsopHat" : 160,
  "noKorcsopHat" : 160,
  "ffiKorcsopHet" : 160,
  "noKorcsopHet" : 160
}, {
  "wattKg" : 308,
  "ffiKorcsopEgy" : 145,
  "noKorcsopEgy" : 160,
  "ffiKorcsopKetto" : 160,
  "noKorcsopKetto" : 160,
  "ffiKorcsopHarom" : 160,
  "noKorcsopHarom" : 160,
  "ffiKorcsopNegy" : 160,
  "noKorcsopNegy" : 160,
  "ffiKorcsopOt" : 160,
  "noKorcsopOt" : 160,
  "ffiKorcsopHat" : 160,
  "noKorcsopHat" : 160,
  "ffiKorcsopHet" : 160,
  "noKorcsopHet" : 160
}, {
  "wattKg" : 307,
  "ffiKorcsopEgy" : 145,
  "noKorcsopEgy" : 160,
  "ffiKorcsopKetto" : 160,
  "noKorcsopKetto" : 160,
  "ffiKorcsopHarom" : 160,
  "noKorcsopHarom" : 160,
  "ffiKorcsopNegy" : 160,
  "noKorcsopNegy" : 160,
  "ffiKorcsopOt" : 160,
  "noKorcsopOt" : 160,
  "ffiKorcsopHat" : 160,
  "noKorcsopHat" : 160,
  "ffiKorcsopHet" : 160,
  "noKorcsopHet" : 160
}, {
  "wattKg" : 306,
  "ffiKorcsopEgy" : 145,
  "noKorcsopEgy" : 160,
  "ffiKorcsopKetto" : 160,
  "noKorcsopKetto" : 160,
  "ffiKorcsopHarom" : 160,
  "noKorcsopHarom" : 160,
  "ffiKorcsopNegy" : 160,
  "noKorcsopNegy" : 160,
  "ffiKorcsopOt" : 160,
  "noKorcsopOt" : 160,
  "ffiKorcsopHat" : 160,
  "noKorcsopHat" : 160,
  "ffiKorcsopHet" : 160,
  "noKorcsopHet" : 160
}, {
  "wattKg" : 305,
  "ffiKorcsopEgy" : 140,
  "noKorcsopEgy" : 160,
  "ffiKorcsopKetto" : 155,
  "noKorcsopKetto" : 160,
  "ffiKorcsopHarom" : 160,
  "noKorcsopHarom" : 160,
  "ffiKorcsopNegy" : 160,
  "noKorcsopNegy" : 160,
  "ffiKorcsopOt" : 160,
  "noKorcsopOt" : 160,
  "ffiKorcsopHat" : 160,
  "noKorcsopHat" : 160,
  "ffiKorcsopHet" : 160,
  "noKorcsopHet" : 160
}, {
  "wattKg" : 304,
  "ffiKorcsopEgy" : 140,
  "noKorcsopEgy" : 160,
  "ffiKorcsopKetto" : 155,
  "noKorcsopKetto" : 160,
  "ffiKorcsopHarom" : 160,
  "noKorcsopHarom" : 160,
  "ffiKorcsopNegy" : 160,
  "noKorcsopNegy" : 160,
  "ffiKorcsopOt" : 160,
  "noKorcsopOt" : 160,
  "ffiKorcsopHat" : 160,
  "noKorcsopHat" : 160,
  "ffiKorcsopHet" : 160,
  "noKorcsopHet" : 160
}, {
  "wattKg" : 303,
  "ffiKorcsopEgy" : 140,
  "noKorcsopEgy" : 160,
  "ffiKorcsopKetto" : 155,
  "noKorcsopKetto" : 160,
  "ffiKorcsopHarom" : 160,
  "noKorcsopHarom" : 160,
  "ffiKorcsopNegy" : 160,
  "noKorcsopNegy" : 160,
  "ffiKorcsopOt" : 160,
  "noKorcsopOt" : 160,
  "ffiKorcsopHat" : 160,
  "noKorcsopHat" : 160,
  "ffiKorcsopHet" : 160,
  "noKorcsopHet" : 160
}, {
  "wattKg" : 302,
  "ffiKorcsopEgy" : 140,
  "noKorcsopEgy" : 160,
  "ffiKorcsopKetto" : 155,
  "noKorcsopKetto" : 160,
  "ffiKorcsopHarom" : 160,
  "noKorcsopHarom" : 160,
  "ffiKorcsopNegy" : 160,
  "noKorcsopNegy" : 160,
  "ffiKorcsopOt" : 160,
  "noKorcsopOt" : 160,
  "ffiKorcsopHat" : 160,
  "noKorcsopHat" : 160,
  "ffiKorcsopHet" : 160,
  "noKorcsopHet" : 160
}, {
  "wattKg" : 301,
  "ffiKorcsopEgy" : 140,
  "noKorcsopEgy" : 160,
  "ffiKorcsopKetto" : 150,
  "noKorcsopKetto" : 160,
  "ffiKorcsopHarom" : 160,
  "noKorcsopHarom" : 160,
  "ffiKorcsopNegy" : 160,
  "noKorcsopNegy" : 160,
  "ffiKorcsopOt" : 160,
  "noKorcsopOt" : 160,
  "ffiKorcsopHat" : 160,
  "noKorcsopHat" : 160,
  "ffiKorcsopHet" : 160,
  "noKorcsopHet" : 160
}, {
  "wattKg" : 300,
  "ffiKorcsopEgy" : 135,
  "noKorcsopEgy" : 160,
  "ffiKorcsopKetto" : 150,
  "noKorcsopKetto" : 160,
  "ffiKorcsopHarom" : 160,
  "noKorcsopHarom" : 160,
  "ffiKorcsopNegy" : 160,
  "noKorcsopNegy" : 160,
  "ffiKorcsopOt" : 160,
  "noKorcsopOt" : 160,
  "ffiKorcsopHat" : 160,
  "noKorcsopHat" : 160,
  "ffiKorcsopHet" : 160,
  "noKorcsopHet" : 160
}, {
  "wattKg" : 299,
  "ffiKorcsopEgy" : 135,
  "noKorcsopEgy" : 160,
  "ffiKorcsopKetto" : 150,
  "noKorcsopKetto" : 160,
  "ffiKorcsopHarom" : 160,
  "noKorcsopHarom" : 160,
  "ffiKorcsopNegy" : 160,
  "noKorcsopNegy" : 160,
  "ffiKorcsopOt" : 160,
  "noKorcsopOt" : 160,
  "ffiKorcsopHat" : 160,
  "noKorcsopHat" : 160,
  "ffiKorcsopHet" : 160,
  "noKorcsopHet" : 160
}, {
  "wattKg" : 298,
  "ffiKorcsopEgy" : 135,
  "noKorcsopEgy" : 160,
  "ffiKorcsopKetto" : 150,
  "noKorcsopKetto" : 160,
  "ffiKorcsopHarom" : 160,
  "noKorcsopHarom" : 160,
  "ffiKorcsopNegy" : 160,
  "noKorcsopNegy" : 160,
  "ffiKorcsopOt" : 160,
  "noKorcsopOt" : 160,
  "ffiKorcsopHat" : 160,
  "noKorcsopHat" : 160,
  "ffiKorcsopHet" : 160,
  "noKorcsopHet" : 160
}, {
  "wattKg" : 297,
  "ffiKorcsopEgy" : 135,
  "noKorcsopEgy" : 160,
  "ffiKorcsopKetto" : 150,
  "noKorcsopKetto" : 160,
  "ffiKorcsopHarom" : 160,
  "noKorcsopHarom" : 160,
  "ffiKorcsopNegy" : 160,
  "noKorcsopNegy" : 160,
  "ffiKorcsopOt" : 160,
  "noKorcsopOt" : 160,
  "ffiKorcsopHat" : 160,
  "noKorcsopHat" : 160,
  "ffiKorcsopHet" : 160,
  "noKorcsopHet" : 160
}, {
  "wattKg" : 296,
  "ffiKorcsopEgy" : 135,
  "noKorcsopEgy" : 160,
  "ffiKorcsopKetto" : 145,
  "noKorcsopKetto" : 160,
  "ffiKorcsopHarom" : 160,
  "noKorcsopHarom" : 160,
  "ffiKorcsopNegy" : 160,
  "noKorcsopNegy" : 160,
  "ffiKorcsopOt" : 160,
  "noKorcsopOt" : 160,
  "ffiKorcsopHat" : 160,
  "noKorcsopHat" : 160,
  "ffiKorcsopHet" : 160,
  "noKorcsopHet" : 160
}, {
  "wattKg" : 295,
  "ffiKorcsopEgy" : 130,
  "noKorcsopEgy" : 160,
  "ffiKorcsopKetto" : 145,
  "noKorcsopKetto" : 160,
  "ffiKorcsopHarom" : 160,
  "noKorcsopHarom" : 160,
  "ffiKorcsopNegy" : 160,
  "noKorcsopNegy" : 160,
  "ffiKorcsopOt" : 160,
  "noKorcsopOt" : 160,
  "ffiKorcsopHat" : 160,
  "noKorcsopHat" : 160,
  "ffiKorcsopHet" : 160,
  "noKorcsopHet" : 160
}, {
  "wattKg" : 294,
  "ffiKorcsopEgy" : 130,
  "noKorcsopEgy" : 160,
  "ffiKorcsopKetto" : 145,
  "noKorcsopKetto" : 160,
  "ffiKorcsopHarom" : 160,
  "noKorcsopHarom" : 160,
  "ffiKorcsopNegy" : 160,
  "noKorcsopNegy" : 160,
  "ffiKorcsopOt" : 160,
  "noKorcsopOt" : 160,
  "ffiKorcsopHat" : 160,
  "noKorcsopHat" : 160,
  "ffiKorcsopHet" : 160,
  "noKorcsopHet" : 160
}, {
  "wattKg" : 293,
  "ffiKorcsopEgy" : 130,
  "noKorcsopEgy" : 160,
  "ffiKorcsopKetto" : 145,
  "noKorcsopKetto" : 160,
  "ffiKorcsopHarom" : 160,
  "noKorcsopHarom" : 160,
  "ffiKorcsopNegy" : 160,
  "noKorcsopNegy" : 160,
  "ffiKorcsopOt" : 160,
  "noKorcsopOt" : 160,
  "ffiKorcsopHat" : 160,
  "noKorcsopHat" : 160,
  "ffiKorcsopHet" : 160,
  "noKorcsopHet" : 160
}, {
  "wattKg" : 292,
  "ffiKorcsopEgy" : 130,
  "noKorcsopEgy" : 160,
  "ffiKorcsopKetto" : 140,
  "noKorcsopKetto" : 160,
  "ffiKorcsopHarom" : 160,
  "noKorcsopHarom" : 160,
  "ffiKorcsopNegy" : 160,
  "noKorcsopNegy" : 160,
  "ffiKorcsopOt" : 160,
  "noKorcsopOt" : 160,
  "ffiKorcsopHat" : 160,
  "noKorcsopHat" : 160,
  "ffiKorcsopHet" : 160,
  "noKorcsopHet" : 160
}, {
  "wattKg" : 291,
  "ffiKorcsopEgy" : 130,
  "noKorcsopEgy" : 160,
  "ffiKorcsopKetto" : 140,
  "noKorcsopKetto" : 160,
  "ffiKorcsopHarom" : 160,
  "noKorcsopHarom" : 160,
  "ffiKorcsopNegy" : 160,
  "noKorcsopNegy" : 160,
  "ffiKorcsopOt" : 160,
  "noKorcsopOt" : 160,
  "ffiKorcsopHat" : 160,
  "noKorcsopHat" : 160,
  "ffiKorcsopHet" : 160,
  "noKorcsopHet" : 160
}, {
  "wattKg" : 290,
  "ffiKorcsopEgy" : 125,
  "noKorcsopEgy" : 160,
  "ffiKorcsopKetto" : 140,
  "noKorcsopKetto" : 160,
  "ffiKorcsopHarom" : 160,
  "noKorcsopHarom" : 160,
  "ffiKorcsopNegy" : 160,
  "noKorcsopNegy" : 160,
  "ffiKorcsopOt" : 160,
  "noKorcsopOt" : 160,
  "ffiKorcsopHat" : 160,
  "noKorcsopHat" : 160,
  "ffiKorcsopHet" : 160,
  "noKorcsopHet" : 160
}, {
  "wattKg" : 289,
  "ffiKorcsopEgy" : 125,
  "noKorcsopEgy" : 160,
  "ffiKorcsopKetto" : 140,
  "noKorcsopKetto" : 160,
  "ffiKorcsopHarom" : 155,
  "noKorcsopHarom" : 160,
  "ffiKorcsopNegy" : 160,
  "noKorcsopNegy" : 160,
  "ffiKorcsopOt" : 160,
  "noKorcsopOt" : 160,
  "ffiKorcsopHat" : 160,
  "noKorcsopHat" : 160,
  "ffiKorcsopHet" : 160,
  "noKorcsopHet" : 160
}, {
  "wattKg" : 288,
  "ffiKorcsopEgy" : 125,
  "noKorcsopEgy" : 160,
  "ffiKorcsopKetto" : 140,
  "noKorcsopKetto" : 160,
  "ffiKorcsopHarom" : 155,
  "noKorcsopHarom" : 160,
  "ffiKorcsopNegy" : 160,
  "noKorcsopNegy" : 160,
  "ffiKorcsopOt" : 160,
  "noKorcsopOt" : 160,
  "ffiKorcsopHat" : 160,
  "noKorcsopHat" : 160,
  "ffiKorcsopHet" : 160,
  "noKorcsopHet" : 160
}, {
  "wattKg" : 287,
  "ffiKorcsopEgy" : 125,
  "noKorcsopEgy" : 160,
  "ffiKorcsopKetto" : 135,
  "noKorcsopKetto" : 160,
  "ffiKorcsopHarom" : 155,
  "noKorcsopHarom" : 160,
  "ffiKorcsopNegy" : 160,
  "noKorcsopNegy" : 160,
  "ffiKorcsopOt" : 160,
  "noKorcsopOt" : 160,
  "ffiKorcsopHat" : 160,
  "noKorcsopHat" : 160,
  "ffiKorcsopHet" : 160,
  "noKorcsopHet" : 160
}, {
  "wattKg" : 286,
  "ffiKorcsopEgy" : 125,
  "noKorcsopEgy" : 160,
  "ffiKorcsopKetto" : 135,
  "noKorcsopKetto" : 160,
  "ffiKorcsopHarom" : 155,
  "noKorcsopHarom" : 160,
  "ffiKorcsopNegy" : 160,
  "noKorcsopNegy" : 160,
  "ffiKorcsopOt" : 160,
  "noKorcsopOt" : 160,
  "ffiKorcsopHat" : 160,
  "noKorcsopHat" : 160,
  "ffiKorcsopHet" : 160,
  "noKorcsopHet" : 160
}, {
  "wattKg" : 285,
  "ffiKorcsopEgy" : 120,
  "noKorcsopEgy" : 160,
  "ffiKorcsopKetto" : 135,
  "noKorcsopKetto" : 160,
  "ffiKorcsopHarom" : 150,
  "noKorcsopHarom" : 160,
  "ffiKorcsopNegy" : 160,
  "noKorcsopNegy" : 160,
  "ffiKorcsopOt" : 160,
  "noKorcsopOt" : 160,
  "ffiKorcsopHat" : 160,
  "noKorcsopHat" : 160,
  "ffiKorcsopHet" : 160,
  "noKorcsopHet" : 160
}, {
  "wattKg" : 284,
  "ffiKorcsopEgy" : 120,
  "noKorcsopEgy" : 160,
  "ffiKorcsopKetto" : 135,
  "noKorcsopKetto" : 160,
  "ffiKorcsopHarom" : 150,
  "noKorcsopHarom" : 160,
  "ffiKorcsopNegy" : 160,
  "noKorcsopNegy" : 160,
  "ffiKorcsopOt" : 160,
  "noKorcsopOt" : 160,
  "ffiKorcsopHat" : 160,
  "noKorcsopHat" : 160,
  "ffiKorcsopHet" : 160,
  "noKorcsopHet" : 160
}, {
  "wattKg" : 283,
  "ffiKorcsopEgy" : 120,
  "noKorcsopEgy" : 160,
  "ffiKorcsopKetto" : 135,
  "noKorcsopKetto" : 160,
  "ffiKorcsopHarom" : 150,
  "noKorcsopHarom" : 160,
  "ffiKorcsopNegy" : 160,
  "noKorcsopNegy" : 160,
  "ffiKorcsopOt" : 160,
  "noKorcsopOt" : 160,
  "ffiKorcsopHat" : 160,
  "noKorcsopHat" : 160,
  "ffiKorcsopHet" : 160,
  "noKorcsopHet" : 160
}, {
  "wattKg" : 282,
  "ffiKorcsopEgy" : 120,
  "noKorcsopEgy" : 160,
  "ffiKorcsopKetto" : 130,
  "noKorcsopKetto" : 160,
  "ffiKorcsopHarom" : 150,
  "noKorcsopHarom" : 160,
  "ffiKorcsopNegy" : 160,
  "noKorcsopNegy" : 160,
  "ffiKorcsopOt" : 160,
  "noKorcsopOt" : 160,
  "ffiKorcsopHat" : 160,
  "noKorcsopHat" : 160,
  "ffiKorcsopHet" : 160,
  "noKorcsopHet" : 160
}, {
  "wattKg" : 281,
  "ffiKorcsopEgy" : 120,
  "noKorcsopEgy" : 160,
  "ffiKorcsopKetto" : 130,
  "noKorcsopKetto" : 160,
  "ffiKorcsopHarom" : 145,
  "noKorcsopHarom" : 160,
  "ffiKorcsopNegy" : 160,
  "noKorcsopNegy" : 160,
  "ffiKorcsopOt" : 160,
  "noKorcsopOt" : 160,
  "ffiKorcsopHat" : 160,
  "noKorcsopHat" : 160,
  "ffiKorcsopHet" : 160,
  "noKorcsopHet" : 160
}, {
  "wattKg" : 280,
  "ffiKorcsopEgy" : 120,
  "noKorcsopEgy" : 160,
  "ffiKorcsopKetto" : 130,
  "noKorcsopKetto" : 160,
  "ffiKorcsopHarom" : 145,
  "noKorcsopHarom" : 160,
  "ffiKorcsopNegy" : 160,
  "noKorcsopNegy" : 160,
  "ffiKorcsopOt" : 160,
  "noKorcsopOt" : 160,
  "ffiKorcsopHat" : 160,
  "noKorcsopHat" : 160,
  "ffiKorcsopHet" : 160,
  "noKorcsopHet" : 160
}, {
  "wattKg" : 279,
  "ffiKorcsopEgy" : 115,
  "noKorcsopEgy" : 155,
  "ffiKorcsopKetto" : 130,
  "noKorcsopKetto" : 160,
  "ffiKorcsopHarom" : 145,
  "noKorcsopHarom" : 160,
  "ffiKorcsopNegy" : 160,
  "noKorcsopNegy" : 160,
  "ffiKorcsopOt" : 160,
  "noKorcsopOt" : 160,
  "ffiKorcsopHat" : 160,
  "noKorcsopHat" : 160,
  "ffiKorcsopHet" : 160,
  "noKorcsopHet" : 160
}, {
  "wattKg" : 278,
  "ffiKorcsopEgy" : 115,
  "noKorcsopEgy" : 155,
  "ffiKorcsopKetto" : 130,
  "noKorcsopKetto" : 160,
  "ffiKorcsopHarom" : 145,
  "noKorcsopHarom" : 160,
  "ffiKorcsopNegy" : 160,
  "noKorcsopNegy" : 160,
  "ffiKorcsopOt" : 160,
  "noKorcsopOt" : 160,
  "ffiKorcsopHat" : 160,
  "noKorcsopHat" : 160,
  "ffiKorcsopHet" : 160,
  "noKorcsopHet" : 160
}, {
  "wattKg" : 277,
  "ffiKorcsopEgy" : 115,
  "noKorcsopEgy" : 155,
  "ffiKorcsopKetto" : 125,
  "noKorcsopKetto" : 160,
  "ffiKorcsopHarom" : 145,
  "noKorcsopHarom" : 160,
  "ffiKorcsopNegy" : 160,
  "noKorcsopNegy" : 160,
  "ffiKorcsopOt" : 160,
  "noKorcsopOt" : 160,
  "ffiKorcsopHat" : 160,
  "noKorcsopHat" : 160,
  "ffiKorcsopHet" : 160,
  "noKorcsopHet" : 160
}, {
  "wattKg" : 276,
  "ffiKorcsopEgy" : 115,
  "noKorcsopEgy" : 155,
  "ffiKorcsopKetto" : 125,
  "noKorcsopKetto" : 160,
  "ffiKorcsopHarom" : 140,
  "noKorcsopHarom" : 160,
  "ffiKorcsopNegy" : 160,
  "noKorcsopNegy" : 160,
  "ffiKorcsopOt" : 160,
  "noKorcsopOt" : 160,
  "ffiKorcsopHat" : 160,
  "noKorcsopHat" : 160,
  "ffiKorcsopHet" : 160,
  "noKorcsopHet" : 160
}, {
  "wattKg" : 275,
  "ffiKorcsopEgy" : 115,
  "noKorcsopEgy" : 155,
  "ffiKorcsopKetto" : 125,
  "noKorcsopKetto" : 160,
  "ffiKorcsopHarom" : 140,
  "noKorcsopHarom" : 160,
  "ffiKorcsopNegy" : 155,
  "noKorcsopNegy" : 160,
  "ffiKorcsopOt" : 160,
  "noKorcsopOt" : 160,
  "ffiKorcsopHat" : 160,
  "noKorcsopHat" : 160,
  "ffiKorcsopHet" : 160,
  "noKorcsopHet" : 160
}, {
  "wattKg" : 274,
  "ffiKorcsopEgy" : 110,
  "noKorcsopEgy" : 155,
  "ffiKorcsopKetto" : 125,
  "noKorcsopKetto" : 160,
  "ffiKorcsopHarom" : 140,
  "noKorcsopHarom" : 160,
  "ffiKorcsopNegy" : 155,
  "noKorcsopNegy" : 160,
  "ffiKorcsopOt" : 160,
  "noKorcsopOt" : 160,
  "ffiKorcsopHat" : 160,
  "noKorcsopHat" : 160,
  "ffiKorcsopHet" : 160,
  "noKorcsopHet" : 160
}, {
  "wattKg" : 273,
  "ffiKorcsopEgy" : 110,
  "noKorcsopEgy" : 150,
  "ffiKorcsopKetto" : 125,
  "noKorcsopKetto" : 160,
  "ffiKorcsopHarom" : 140,
  "noKorcsopHarom" : 160,
  "ffiKorcsopNegy" : 155,
  "noKorcsopNegy" : 160,
  "ffiKorcsopOt" : 160,
  "noKorcsopOt" : 160,
  "ffiKorcsopHat" : 160,
  "noKorcsopHat" : 160,
  "ffiKorcsopHet" : 160,
  "noKorcsopHet" : 160
}, {
  "wattKg" : 272,
  "ffiKorcsopEgy" : 110,
  "noKorcsopEgy" : 150,
  "ffiKorcsopKetto" : 120,
  "noKorcsopKetto" : 160,
  "ffiKorcsopHarom" : 135,
  "noKorcsopHarom" : 160,
  "ffiKorcsopNegy" : 155,
  "noKorcsopNegy" : 160,
  "ffiKorcsopOt" : 160,
  "noKorcsopOt" : 160,
  "ffiKorcsopHat" : 160,
  "noKorcsopHat" : 160,
  "ffiKorcsopHet" : 160,
  "noKorcsopHet" : 160
}, {
  "wattKg" : 271,
  "ffiKorcsopEgy" : 110,
  "noKorcsopEgy" : 150,
  "ffiKorcsopKetto" : 120,
  "noKorcsopKetto" : 160,
  "ffiKorcsopHarom" : 135,
  "noKorcsopHarom" : 160,
  "ffiKorcsopNegy" : 150,
  "noKorcsopNegy" : 160,
  "ffiKorcsopOt" : 160,
  "noKorcsopOt" : 160,
  "ffiKorcsopHat" : 160,
  "noKorcsopHat" : 160,
  "ffiKorcsopHet" : 160,
  "noKorcsopHet" : 160
}, {
  "wattKg" : 270,
  "ffiKorcsopEgy" : 110,
  "noKorcsopEgy" : 150,
  "ffiKorcsopKetto" : 120,
  "noKorcsopKetto" : 160,
  "ffiKorcsopHarom" : 135,
  "noKorcsopHarom" : 160,
  "ffiKorcsopNegy" : 150,
  "noKorcsopNegy" : 160,
  "ffiKorcsopOt" : 160,
  "noKorcsopOt" : 160,
  "ffiKorcsopHat" : 160,
  "noKorcsopHat" : 160,
  "ffiKorcsopHet" : 160,
  "noKorcsopHet" : 160
}, {
  "wattKg" : 269,
  "ffiKorcsopEgy" : 110,
  "noKorcsopEgy" : 150,
  "ffiKorcsopKetto" : 120,
  "noKorcsopKetto" : 160,
  "ffiKorcsopHarom" : 135,
  "noKorcsopHarom" : 160,
  "ffiKorcsopNegy" : 150,
  "noKorcsopNegy" : 160,
  "ffiKorcsopOt" : 160,
  "noKorcsopOt" : 160,
  "ffiKorcsopHat" : 160,
  "noKorcsopHat" : 160,
  "ffiKorcsopHet" : 160,
  "noKorcsopHet" : 160
}, {
  "wattKg" : 268,
  "ffiKorcsopEgy" : 105,
  "noKorcsopEgy" : 145,
  "ffiKorcsopKetto" : 120,
  "noKorcsopKetto" : 160,
  "ffiKorcsopHarom" : 135,
  "noKorcsopHarom" : 160,
  "ffiKorcsopNegy" : 150,
  "noKorcsopNegy" : 160,
  "ffiKorcsopOt" : 160,
  "noKorcsopOt" : 160,
  "ffiKorcsopHat" : 160,
  "noKorcsopHat" : 160,
  "ffiKorcsopHet" : 160,
  "noKorcsopHet" : 160
}, {
  "wattKg" : 267,
  "ffiKorcsopEgy" : 105,
  "noKorcsopEgy" : 145,
  "ffiKorcsopKetto" : 120,
  "noKorcsopKetto" : 160,
  "ffiKorcsopHarom" : 130,
  "noKorcsopHarom" : 160,
  "ffiKorcsopNegy" : 150,
  "noKorcsopNegy" : 160,
  "ffiKorcsopOt" : 160,
  "noKorcsopOt" : 160,
  "ffiKorcsopHat" : 160,
  "noKorcsopHat" : 160,
  "ffiKorcsopHet" : 160,
  "noKorcsopHet" : 160
}, {
  "wattKg" : 266,
  "ffiKorcsopEgy" : 105,
  "noKorcsopEgy" : 145,
  "ffiKorcsopKetto" : 115,
  "noKorcsopKetto" : 160,
  "ffiKorcsopHarom" : 130,
  "noKorcsopHarom" : 160,
  "ffiKorcsopNegy" : 145,
  "noKorcsopNegy" : 160,
  "ffiKorcsopOt" : 160,
  "noKorcsopOt" : 160,
  "ffiKorcsopHat" : 160,
  "noKorcsopHat" : 160,
  "ffiKorcsopHet" : 160,
  "noKorcsopHet" : 160
}, {
  "wattKg" : 265,
  "ffiKorcsopEgy" : 105,
  "noKorcsopEgy" : 145,
  "ffiKorcsopKetto" : 115,
  "noKorcsopKetto" : 160,
  "ffiKorcsopHarom" : 130,
  "noKorcsopHarom" : 160,
  "ffiKorcsopNegy" : 145,
  "noKorcsopNegy" : 160,
  "ffiKorcsopOt" : 160,
  "noKorcsopOt" : 160,
  "ffiKorcsopHat" : 160,
  "noKorcsopHat" : 160,
  "ffiKorcsopHet" : 160,
  "noKorcsopHet" : 160
}, {
  "wattKg" : 264,
  "ffiKorcsopEgy" : 105,
  "noKorcsopEgy" : 145,
  "ffiKorcsopKetto" : 115,
  "noKorcsopKetto" : 155,
  "ffiKorcsopHarom" : 130,
  "noKorcsopHarom" : 160,
  "ffiKorcsopNegy" : 145,
  "noKorcsopNegy" : 160,
  "ffiKorcsopOt" : 160,
  "noKorcsopOt" : 160,
  "ffiKorcsopHat" : 160,
  "noKorcsopHat" : 160,
  "ffiKorcsopHet" : 160,
  "noKorcsopHet" : 160
}, {
  "wattKg" : 263,
  "ffiKorcsopEgy" : 105,
  "noKorcsopEgy" : 145,
  "ffiKorcsopKetto" : 115,
  "noKorcsopKetto" : 155,
  "ffiKorcsopHarom" : 125,
  "noKorcsopHarom" : 160,
  "ffiKorcsopNegy" : 145,
  "noKorcsopNegy" : 160,
  "ffiKorcsopOt" : 160,
  "noKorcsopOt" : 160,
  "ffiKorcsopHat" : 160,
  "noKorcsopHat" : 160,
  "ffiKorcsopHet" : 160,
  "noKorcsopHet" : 160
}, {
  "wattKg" : 262,
  "ffiKorcsopEgy" : 100,
  "noKorcsopEgy" : 140,
  "ffiKorcsopKetto" : 115,
  "noKorcsopKetto" : 155,
  "ffiKorcsopHarom" : 125,
  "noKorcsopHarom" : 160,
  "ffiKorcsopNegy" : 140,
  "noKorcsopNegy" : 160,
  "ffiKorcsopOt" : 155,
  "noKorcsopOt" : 160,
  "ffiKorcsopHat" : 160,
  "noKorcsopHat" : 160,
  "ffiKorcsopHet" : 160,
  "noKorcsopHet" : 160
}, {
  "wattKg" : 261,
  "ffiKorcsopEgy" : 100,
  "noKorcsopEgy" : 140,
  "ffiKorcsopKetto" : 110,
  "noKorcsopKetto" : 155,
  "ffiKorcsopHarom" : 125,
  "noKorcsopHarom" : 160,
  "ffiKorcsopNegy" : 140,
  "noKorcsopNegy" : 160,
  "ffiKorcsopOt" : 155,
  "noKorcsopOt" : 160,
  "ffiKorcsopHat" : 160,
  "noKorcsopHat" : 160,
  "ffiKorcsopHet" : 160,
  "noKorcsopHet" : 160
}, {
  "wattKg" : 260,
  "ffiKorcsopEgy" : 100,
  "noKorcsopEgy" : 140,
  "ffiKorcsopKetto" : 110,
  "noKorcsopKetto" : 155,
  "ffiKorcsopHarom" : 125,
  "noKorcsopHarom" : 160,
  "ffiKorcsopNegy" : 140,
  "noKorcsopNegy" : 160,
  "ffiKorcsopOt" : 155,
  "noKorcsopOt" : 160,
  "ffiKorcsopHat" : 160,
  "noKorcsopHat" : 160,
  "ffiKorcsopHet" : 160,
  "noKorcsopHet" : 160
}, {
  "wattKg" : 259,
  "ffiKorcsopEgy" : 100,
  "noKorcsopEgy" : 140,
  "ffiKorcsopKetto" : 110,
  "noKorcsopKetto" : 150,
  "ffiKorcsopHarom" : 125,
  "noKorcsopHarom" : 160,
  "ffiKorcsopNegy" : 140,
  "noKorcsopNegy" : 160,
  "ffiKorcsopOt" : 155,
  "noKorcsopOt" : 160,
  "ffiKorcsopHat" : 160,
  "noKorcsopHat" : 160,
  "ffiKorcsopHet" : 160,
  "noKorcsopHet" : 160
}, {
  "wattKg" : 258,
  "ffiKorcsopEgy" : 100,
  "noKorcsopEgy" : 140,
  "ffiKorcsopKetto" : 110,
  "noKorcsopKetto" : 150,
  "ffiKorcsopHarom" : 120,
  "noKorcsopHarom" : 160,
  "ffiKorcsopNegy" : 135,
  "noKorcsopNegy" : 160,
  "ffiKorcsopOt" : 150,
  "noKorcsopOt" : 160,
  "ffiKorcsopHat" : 160,
  "noKorcsopHat" : 160,
  "ffiKorcsopHet" : 160,
  "noKorcsopHet" : 160
}, {
  "wattKg" : 257,
  "ffiKorcsopEgy" : 100,
  "noKorcsopEgy" : 135,
  "ffiKorcsopKetto" : 110,
  "noKorcsopKetto" : 150,
  "ffiKorcsopHarom" : 120,
  "noKorcsopHarom" : 160,
  "ffiKorcsopNegy" : 135,
  "noKorcsopNegy" : 160,
  "ffiKorcsopOt" : 150,
  "noKorcsopOt" : 160,
  "ffiKorcsopHat" : 160,
  "noKorcsopHat" : 160,
  "ffiKorcsopHet" : 160,
  "noKorcsopHet" : 160
}, {
  "wattKg" : 256,
  "ffiKorcsopEgy" : 95,
  "noKorcsopEgy" : 135,
  "ffiKorcsopKetto" : 110,
  "noKorcsopKetto" : 150,
  "ffiKorcsopHarom" : 120,
  "noKorcsopHarom" : 160,
  "ffiKorcsopNegy" : 135,
  "noKorcsopNegy" : 160,
  "ffiKorcsopOt" : 150,
  "noKorcsopOt" : 160,
  "ffiKorcsopHat" : 160,
  "noKorcsopHat" : 160,
  "ffiKorcsopHet" : 160,
  "noKorcsopHet" : 160
}, {
  "wattKg" : 255,
  "ffiKorcsopEgy" : 95,
  "noKorcsopEgy" : 135,
  "ffiKorcsopKetto" : 105,
  "noKorcsopKetto" : 150,
  "ffiKorcsopHarom" : 120,
  "noKorcsopHarom" : 160,
  "ffiKorcsopNegy" : 135,
  "noKorcsopNegy" : 160,
  "ffiKorcsopOt" : 150,
  "noKorcsopOt" : 160,
  "ffiKorcsopHat" : 160,
  "noKorcsopHat" : 160,
  "ffiKorcsopHet" : 160,
  "noKorcsopHet" : 160
}, {
  "wattKg" : 254,
  "ffiKorcsopEgy" : 95,
  "noKorcsopEgy" : 135,
  "ffiKorcsopKetto" : 105,
  "noKorcsopKetto" : 145,
  "ffiKorcsopHarom" : 120,
  "noKorcsopHarom" : 160,
  "ffiKorcsopNegy" : 135,
  "noKorcsopNegy" : 160,
  "ffiKorcsopOt" : 145,
  "noKorcsopOt" : 160,
  "ffiKorcsopHat" : 160,
  "noKorcsopHat" : 160,
  "ffiKorcsopHet" : 160,
  "noKorcsopHet" : 160
}, {
  "wattKg" : 253,
  "ffiKorcsopEgy" : 95,
  "noKorcsopEgy" : 135,
  "ffiKorcsopKetto" : 105,
  "noKorcsopKetto" : 145,
  "ffiKorcsopHarom" : 115,
  "noKorcsopHarom" : 160,
  "ffiKorcsopNegy" : 130,
  "noKorcsopNegy" : 160,
  "ffiKorcsopOt" : 145,
  "noKorcsopOt" : 160,
  "ffiKorcsopHat" : 160,
  "noKorcsopHat" : 160,
  "ffiKorcsopHet" : 160,
  "noKorcsopHet" : 160
}, {
  "wattKg" : 252,
  "ffiKorcsopEgy" : 95,
  "noKorcsopEgy" : 135,
  "ffiKorcsopKetto" : 105,
  "noKorcsopKetto" : 145,
  "ffiKorcsopHarom" : 115,
  "noKorcsopHarom" : 160,
  "ffiKorcsopNegy" : 130,
  "noKorcsopNegy" : 160,
  "ffiKorcsopOt" : 145,
  "noKorcsopOt" : 160,
  "ffiKorcsopHat" : 160,
  "noKorcsopHat" : 160,
  "ffiKorcsopHet" : 160,
  "noKorcsopHet" : 160
}, {
  "wattKg" : 251,
  "ffiKorcsopEgy" : 95,
  "noKorcsopEgy" : 130,
  "ffiKorcsopKetto" : 105,
  "noKorcsopKetto" : 145,
  "ffiKorcsopHarom" : 115,
  "noKorcsopHarom" : 155,
  "ffiKorcsopNegy" : 130,
  "noKorcsopNegy" : 160,
  "ffiKorcsopOt" : 145,
  "noKorcsopOt" : 160,
  "ffiKorcsopHat" : 160,
  "noKorcsopHat" : 160,
  "ffiKorcsopHet" : 160,
  "noKorcsopHet" : 160
}, {
  "wattKg" : 250,
  "ffiKorcsopEgy" : 90,
  "noKorcsopEgy" : 130,
  "ffiKorcsopKetto" : 100,
  "noKorcsopKetto" : 145,
  "ffiKorcsopHarom" : 115,
  "noKorcsopHarom" : 155,
  "ffiKorcsopNegy" : 130,
  "noKorcsopNegy" : 160,
  "ffiKorcsopOt" : 145,
  "noKorcsopOt" : 160,
  "ffiKorcsopHat" : 160,
  "noKorcsopHat" : 160,
  "ffiKorcsopHet" : 160,
  "noKorcsopHet" : 160
}, {
  "wattKg" : 249,
  "ffiKorcsopEgy" : 90,
  "noKorcsopEgy" : 130,
  "ffiKorcsopKetto" : 100,
  "noKorcsopKetto" : 145,
  "ffiKorcsopHarom" : 115,
  "noKorcsopHarom" : 155,
  "ffiKorcsopNegy" : 130,
  "noKorcsopNegy" : 160,
  "ffiKorcsopOt" : 140,
  "noKorcsopOt" : 160,
  "ffiKorcsopHat" : 155,
  "noKorcsopHat" : 160,
  "ffiKorcsopHet" : 160,
  "noKorcsopHet" : 160
}, {
  "wattKg" : 248,
  "ffiKorcsopEgy" : 90,
  "noKorcsopEgy" : 130,
  "ffiKorcsopKetto" : 100,
  "noKorcsopKetto" : 140,
  "ffiKorcsopHarom" : 110,
  "noKorcsopHarom" : 155,
  "ffiKorcsopNegy" : 125,
  "noKorcsopNegy" : 160,
  "ffiKorcsopOt" : 140,
  "noKorcsopOt" : 160,
  "ffiKorcsopHat" : 155,
  "noKorcsopHat" : 160,
  "ffiKorcsopHet" : 160,
  "noKorcsopHet" : 160
}, {
  "wattKg" : 247,
  "ffiKorcsopEgy" : 90,
  "noKorcsopEgy" : 130,
  "ffiKorcsopKetto" : 100,
  "noKorcsopKetto" : 140,
  "ffiKorcsopHarom" : 110,
  "noKorcsopHarom" : 155,
  "ffiKorcsopNegy" : 125,
  "noKorcsopNegy" : 160,
  "ffiKorcsopOt" : 140,
  "noKorcsopOt" : 160,
  "ffiKorcsopHat" : 155,
  "noKorcsopHat" : 160,
  "ffiKorcsopHet" : 160,
  "noKorcsopHet" : 160
}, {
  "wattKg" : 246,
  "ffiKorcsopEgy" : 90,
  "noKorcsopEgy" : 130,
  "ffiKorcsopKetto" : 100,
  "noKorcsopKetto" : 140,
  "ffiKorcsopHarom" : 110,
  "noKorcsopHarom" : 150,
  "ffiKorcsopNegy" : 125,
  "noKorcsopNegy" : 160,
  "ffiKorcsopOt" : 140,
  "noKorcsopOt" : 160,
  "ffiKorcsopHat" : 155,
  "noKorcsopHat" : 160,
  "ffiKorcsopHet" : 160,
  "noKorcsopHet" : 160
}, {
  "wattKg" : 245,
  "ffiKorcsopEgy" : 90,
  "noKorcsopEgy" : 125,
  "ffiKorcsopKetto" : 100,
  "noKorcsopKetto" : 140,
  "ffiKorcsopHarom" : 110,
  "noKorcsopHarom" : 150,
  "ffiKorcsopNegy" : 125,
  "noKorcsopNegy" : 160,
  "ffiKorcsopOt" : 135,
  "noKorcsopOt" : 160,
  "ffiKorcsopHat" : 150,
  "noKorcsopHat" : 160,
  "ffiKorcsopHet" : 160,
  "noKorcsopHet" : 160
}, {
  "wattKg" : 244,
  "ffiKorcsopEgy" : 85,
  "noKorcsopEgy" : 125,
  "ffiKorcsopKetto" : 95,
  "noKorcsopKetto" : 140,
  "ffiKorcsopHarom" : 110,
  "noKorcsopHarom" : 150,
  "ffiKorcsopNegy" : 120,
  "noKorcsopNegy" : 160,
  "ffiKorcsopOt" : 135,
  "noKorcsopOt" : 160,
  "ffiKorcsopHat" : 150,
  "noKorcsopHat" : 160,
  "ffiKorcsopHet" : 160,
  "noKorcsopHet" : 160
}, {
  "wattKg" : 243,
  "ffiKorcsopEgy" : 85,
  "noKorcsopEgy" : 125,
  "ffiKorcsopKetto" : 95,
  "noKorcsopKetto" : 135,
  "ffiKorcsopHarom" : 105,
  "noKorcsopHarom" : 150,
  "ffiKorcsopNegy" : 120,
  "noKorcsopNegy" : 160,
  "ffiKorcsopOt" : 135,
  "noKorcsopOt" : 160,
  "ffiKorcsopHat" : 150,
  "noKorcsopHat" : 160,
  "ffiKorcsopHet" : 160,
  "noKorcsopHet" : 160
}, {
  "wattKg" : 242,
  "ffiKorcsopEgy" : 85,
  "noKorcsopEgy" : 125,
  "ffiKorcsopKetto" : 95,
  "noKorcsopKetto" : 135,
  "ffiKorcsopHarom" : 105,
  "noKorcsopHarom" : 150,
  "ffiKorcsopNegy" : 120,
  "noKorcsopNegy" : 160,
  "ffiKorcsopOt" : 135,
  "noKorcsopOt" : 160,
  "ffiKorcsopHat" : 150,
  "noKorcsopHat" : 160,
  "ffiKorcsopHet" : 160,
  "noKorcsopHet" : 160
}, {
  "wattKg" : 241,
  "ffiKorcsopEgy" : 85,
  "noKorcsopEgy" : 125,
  "ffiKorcsopKetto" : 95,
  "noKorcsopKetto" : 135,
  "ffiKorcsopHarom" : 105,
  "noKorcsopHarom" : 145,
  "ffiKorcsopNegy" : 120,
  "noKorcsopNegy" : 160,
  "ffiKorcsopOt" : 130,
  "noKorcsopOt" : 160,
  "ffiKorcsopHat" : 150,
  "noKorcsopHat" : 160,
  "ffiKorcsopHet" : 160,
  "noKorcsopHet" : 160
}, {
  "wattKg" : 240,
  "ffiKorcsopEgy" : 85,
  "noKorcsopEgy" : 125,
  "ffiKorcsopKetto" : 95,
  "noKorcsopKetto" : 135,
  "ffiKorcsopHarom" : 105,
  "noKorcsopHarom" : 145,
  "ffiKorcsopNegy" : 120,
  "noKorcsopNegy" : 160,
  "ffiKorcsopOt" : 130,
  "noKorcsopOt" : 160,
  "ffiKorcsopHat" : 145,
  "noKorcsopHat" : 160,
  "ffiKorcsopHet" : 160,
  "noKorcsopHet" : 160
}, {
  "wattKg" : 239,
  "ffiKorcsopEgy" : 85,
  "noKorcsopEgy" : 120,
  "ffiKorcsopKetto" : 95,
  "noKorcsopKetto" : 135,
  "ffiKorcsopHarom" : 105,
  "noKorcsopHarom" : 145,
  "ffiKorcsopNegy" : 115,
  "noKorcsopNegy" : 155,
  "ffiKorcsopOt" : 130,
  "noKorcsopOt" : 160,
  "ffiKorcsopHat" : 145,
  "noKorcsopHat" : 160,
  "ffiKorcsopHet" : 160,
  "noKorcsopHet" : 160
}, {
  "wattKg" : 238,
  "ffiKorcsopEgy" : 85,
  "noKorcsopEgy" : 120,
  "ffiKorcsopKetto" : 90,
  "noKorcsopKetto" : 130,
  "ffiKorcsopHarom" : 105,
  "noKorcsopHarom" : 145,
  "ffiKorcsopNegy" : 115,
  "noKorcsopNegy" : 155,
  "ffiKorcsopOt" : 130,
  "noKorcsopOt" : 160,
  "ffiKorcsopHat" : 145,
  "noKorcsopHat" : 160,
  "ffiKorcsopHet" : 160,
  "noKorcsopHet" : 160
}, {
  "wattKg" : 237,
  "ffiKorcsopEgy" : 80,
  "noKorcsopEgy" : 120,
  "ffiKorcsopKetto" : 90,
  "noKorcsopKetto" : 130,
  "ffiKorcsopHarom" : 100,
  "noKorcsopHarom" : 145,
  "ffiKorcsopNegy" : 115,
  "noKorcsopNegy" : 155,
  "ffiKorcsopOt" : 130,
  "noKorcsopOt" : 160,
  "ffiKorcsopHat" : 145,
  "noKorcsopHat" : 160,
  "ffiKorcsopHet" : 160,
  "noKorcsopHet" : 160
}, {
  "wattKg" : 236,
  "ffiKorcsopEgy" : 80,
  "noKorcsopEgy" : 120,
  "ffiKorcsopKetto" : 90,
  "noKorcsopKetto" : 130,
  "ffiKorcsopHarom" : 100,
  "noKorcsopHarom" : 145,
  "ffiKorcsopNegy" : 115,
  "noKorcsopNegy" : 155,
  "ffiKorcsopOt" : 125,
  "noKorcsopOt" : 160,
  "ffiKorcsopHat" : 140,
  "noKorcsopHat" : 160,
  "ffiKorcsopHet" : 160,
  "noKorcsopHet" : 160
}, {
  "wattKg" : 235,
  "ffiKorcsopEgy" : 80,
  "noKorcsopEgy" : 120,
  "ffiKorcsopKetto" : 90,
  "noKorcsopKetto" : 130,
  "ffiKorcsopHarom" : 100,
  "noKorcsopHarom" : 140,
  "ffiKorcsopNegy" : 115,
  "noKorcsopNegy" : 155,
  "ffiKorcsopOt" : 125,
  "noKorcsopOt" : 160,
  "ffiKorcsopHat" : 140,
  "noKorcsopHat" : 160,
  "ffiKorcsopHet" : 160,
  "noKorcsopHet" : 160
}, {
  "wattKg" : 234,
  "ffiKorcsopEgy" : 80,
  "noKorcsopEgy" : 120,
  "ffiKorcsopKetto" : 90,
  "noKorcsopKetto" : 130,
  "ffiKorcsopHarom" : 100,
  "noKorcsopHarom" : 140,
  "ffiKorcsopNegy" : 110,
  "noKorcsopNegy" : 150,
  "ffiKorcsopOt" : 125,
  "noKorcsopOt" : 160,
  "ffiKorcsopHat" : 140,
  "noKorcsopHat" : 160,
  "ffiKorcsopHet" : 155,
  "noKorcsopHet" : 160
}, {
  "wattKg" : 233,
  "ffiKorcsopEgy" : 80,
  "noKorcsopEgy" : 115,
  "ffiKorcsopKetto" : 90,
  "noKorcsopKetto" : 130,
  "ffiKorcsopHarom" : 100,
  "noKorcsopHarom" : 140,
  "ffiKorcsopNegy" : 110,
  "noKorcsopNegy" : 150,
  "ffiKorcsopOt" : 125,
  "noKorcsopOt" : 160,
  "ffiKorcsopHat" : 140,
  "noKorcsopHat" : 160,
  "ffiKorcsopHet" : 155,
  "noKorcsopHet" : 160
}, {
  "wattKg" : 232,
  "ffiKorcsopEgy" : 80,
  "noKorcsopEgy" : 115,
  "ffiKorcsopKetto" : 85,
  "noKorcsopKetto" : 125,
  "ffiKorcsopHarom" : 95,
  "noKorcsopHarom" : 140,
  "ffiKorcsopNegy" : 110,
  "noKorcsopNegy" : 150,
  "ffiKorcsopOt" : 125,
  "noKorcsopOt" : 160,
  "ffiKorcsopHat" : 135,
  "noKorcsopHat" : 160,
  "ffiKorcsopHet" : 155,
  "noKorcsopHet" : 160
}, {
  "wattKg" : 231,
  "ffiKorcsopEgy" : 75,
  "noKorcsopEgy" : 115,
  "ffiKorcsopKetto" : 85,
  "noKorcsopKetto" : 125,
  "ffiKorcsopHarom" : 95,
  "noKorcsopHarom" : 140,
  "ffiKorcsopNegy" : 110,
  "noKorcsopNegy" : 150,
  "ffiKorcsopOt" : 120,
  "noKorcsopOt" : 160,
  "ffiKorcsopHat" : 135,
  "noKorcsopHat" : 160,
  "ffiKorcsopHet" : 155,
  "noKorcsopHet" : 160
}, {
  "wattKg" : 230,
  "ffiKorcsopEgy" : 75,
  "noKorcsopEgy" : 115,
  "ffiKorcsopKetto" : 85,
  "noKorcsopKetto" : 125,
  "ffiKorcsopHarom" : 95,
  "noKorcsopHarom" : 135,
  "ffiKorcsopNegy" : 110,
  "noKorcsopNegy" : 150,
  "ffiKorcsopOt" : 120,
  "noKorcsopOt" : 160,
  "ffiKorcsopHat" : 135,
  "noKorcsopHat" : 160,
  "ffiKorcsopHet" : 150,
  "noKorcsopHet" : 160
}, {
  "wattKg" : 229,
  "ffiKorcsopEgy" : 75,
  "noKorcsopEgy" : 115,
  "ffiKorcsopKetto" : 85,
  "noKorcsopKetto" : 125,
  "ffiKorcsopHarom" : 95,
  "noKorcsopHarom" : 135,
  "ffiKorcsopNegy" : 105,
  "noKorcsopNegy" : 145,
  "ffiKorcsopOt" : 120,
  "noKorcsopOt" : 160,
  "ffiKorcsopHat" : 135,
  "noKorcsopHat" : 160,
  "ffiKorcsopHet" : 150,
  "noKorcsopHet" : 160
}, {
  "wattKg" : 228,
  "ffiKorcsopEgy" : 75,
  "noKorcsopEgy" : 115,
  "ffiKorcsopKetto" : 85,
  "noKorcsopKetto" : 125,
  "ffiKorcsopHarom" : 95,
  "noKorcsopHarom" : 135,
  "ffiKorcsopNegy" : 105,
  "noKorcsopNegy" : 145,
  "ffiKorcsopOt" : 120,
  "noKorcsopOt" : 160,
  "ffiKorcsopHat" : 130,
  "noKorcsopHat" : 160,
  "ffiKorcsopHet" : 150,
  "noKorcsopHet" : 160
}, {
  "wattKg" : 227,
  "ffiKorcsopEgy" : 75,
  "noKorcsopEgy" : 110,
  "ffiKorcsopKetto" : 85,
  "noKorcsopKetto" : 120,
  "ffiKorcsopHarom" : 95,
  "noKorcsopHarom" : 135,
  "ffiKorcsopNegy" : 105,
  "noKorcsopNegy" : 145,
  "ffiKorcsopOt" : 115,
  "noKorcsopOt" : 160,
  "ffiKorcsopHat" : 130,
  "noKorcsopHat" : 160,
  "ffiKorcsopHet" : 150,
  "noKorcsopHet" : 160
}, {
  "wattKg" : 226,
  "ffiKorcsopEgy" : 75,
  "noKorcsopEgy" : 110,
  "ffiKorcsopKetto" : 85,
  "noKorcsopKetto" : 120,
  "ffiKorcsopHarom" : 90,
  "noKorcsopHarom" : 135,
  "ffiKorcsopNegy" : 105,
  "noKorcsopNegy" : 145,
  "ffiKorcsopOt" : 115,
  "noKorcsopOt" : 155,
  "ffiKorcsopHat" : 130,
  "noKorcsopHat" : 160,
  "ffiKorcsopHet" : 145,
  "noKorcsopHet" : 160
}, {
  "wattKg" : 225,
  "ffiKorcsopEgy" : 75,
  "noKorcsopEgy" : 110,
  "ffiKorcsopKetto" : 80,
  "noKorcsopKetto" : 120,
  "ffiKorcsopHarom" : 90,
  "noKorcsopHarom" : 130,
  "ffiKorcsopNegy" : 105,
  "noKorcsopNegy" : 145,
  "ffiKorcsopOt" : 115,
  "noKorcsopOt" : 155,
  "ffiKorcsopHat" : 130,
  "noKorcsopHat" : 160,
  "ffiKorcsopHet" : 145,
  "noKorcsopHet" : 160
}, {
  "wattKg" : 224,
  "ffiKorcsopEgy" : 70,
  "noKorcsopEgy" : 110,
  "ffiKorcsopKetto" : 80,
  "noKorcsopKetto" : 120,
  "ffiKorcsopHarom" : 90,
  "noKorcsopHarom" : 130,
  "ffiKorcsopNegy" : 105,
  "noKorcsopNegy" : 140,
  "ffiKorcsopOt" : 115,
  "noKorcsopOt" : 155,
  "ffiKorcsopHat" : 130,
  "noKorcsopHat" : 160,
  "ffiKorcsopHet" : 145,
  "noKorcsopHet" : 160
}, {
  "wattKg" : 223,
  "ffiKorcsopEgy" : 70,
  "noKorcsopEgy" : 110,
  "ffiKorcsopKetto" : 80,
  "noKorcsopKetto" : 120,
  "ffiKorcsopHarom" : 90,
  "noKorcsopHarom" : 130,
  "ffiKorcsopNegy" : 100,
  "noKorcsopNegy" : 140,
  "ffiKorcsopOt" : 115,
  "noKorcsopOt" : 155,
  "ffiKorcsopHat" : 125,
  "noKorcsopHat" : 160,
  "ffiKorcsopHet" : 145,
  "noKorcsopHet" : 160
}, {
  "wattKg" : 222,
  "ffiKorcsopEgy" : 70,
  "noKorcsopEgy" : 110,
  "ffiKorcsopKetto" : 80,
  "noKorcsopKetto" : 120,
  "ffiKorcsopHarom" : 90,
  "noKorcsopHarom" : 130,
  "ffiKorcsopNegy" : 100,
  "noKorcsopNegy" : 140,
  "ffiKorcsopOt" : 110,
  "noKorcsopOt" : 150,
  "ffiKorcsopHat" : 125,
  "noKorcsopHat" : 160,
  "ffiKorcsopHet" : 140,
  "noKorcsopHet" : 160
}, {
  "wattKg" : 221,
  "ffiKorcsopEgy" : 70,
  "noKorcsopEgy" : 105,
  "ffiKorcsopKetto" : 80,
  "noKorcsopKetto" : 115,
  "ffiKorcsopHarom" : 90,
  "noKorcsopHarom" : 130,
  "ffiKorcsopNegy" : 100,
  "noKorcsopNegy" : 140,
  "ffiKorcsopOt" : 110,
  "noKorcsopOt" : 150,
  "ffiKorcsopHat" : 125,
  "noKorcsopHat" : 160,
  "ffiKorcsopHet" : 140,
  "noKorcsopHet" : 160
}, {
  "wattKg" : 220,
  "ffiKorcsopEgy" : 70,
  "noKorcsopEgy" : 105,
  "ffiKorcsopKetto" : 80,
  "noKorcsopKetto" : 115,
  "ffiKorcsopHarom" : 85,
  "noKorcsopHarom" : 130,
  "ffiKorcsopNegy" : 100,
  "noKorcsopNegy" : 140,
  "ffiKorcsopOt" : 110,
  "noKorcsopOt" : 150,
  "ffiKorcsopHat" : 125,
  "noKorcsopHat" : 160,
  "ffiKorcsopHet" : 140,
  "noKorcsopHet" : 160
}, {
  "wattKg" : 219,
  "ffiKorcsopEgy" : 70,
  "noKorcsopEgy" : 105,
  "ffiKorcsopKetto" : 75,
  "noKorcsopKetto" : 115,
  "ffiKorcsopHarom" : 85,
  "noKorcsopHarom" : 125,
  "ffiKorcsopNegy" : 100,
  "noKorcsopNegy" : 135,
  "ffiKorcsopOt" : 110,
  "noKorcsopOt" : 150,
  "ffiKorcsopHat" : 120,
  "noKorcsopHat" : 160,
  "ffiKorcsopHet" : 140,
  "noKorcsopHet" : 160
}, {
  "wattKg" : 218,
  "ffiKorcsopEgy" : 70,
  "noKorcsopEgy" : 105,
  "ffiKorcsopKetto" : 75,
  "noKorcsopKetto" : 115,
  "ffiKorcsopHarom" : 85,
  "noKorcsopHarom" : 125,
  "ffiKorcsopNegy" : 95,
  "noKorcsopNegy" : 135,
  "ffiKorcsopOt" : 110,
  "noKorcsopOt" : 150,
  "ffiKorcsopHat" : 120,
  "noKorcsopHat" : 160,
  "ffiKorcsopHet" : 135,
  "noKorcsopHet" : 160
}, {
  "wattKg" : 217,
  "ffiKorcsopEgy" : 70,
  "noKorcsopEgy" : 105,
  "ffiKorcsopKetto" : 75,
  "noKorcsopKetto" : 115,
  "ffiKorcsopHarom" : 85,
  "noKorcsopHarom" : 125,
  "ffiKorcsopNegy" : 95,
  "noKorcsopNegy" : 135,
  "ffiKorcsopOt" : 105,
  "noKorcsopOt" : 145,
  "ffiKorcsopHat" : 120,
  "noKorcsopHat" : 160,
  "ffiKorcsopHet" : 135,
  "noKorcsopHet" : 160
}, {
  "wattKg" : 216,
  "ffiKorcsopEgy" : 65,
  "noKorcsopEgy" : 105,
  "ffiKorcsopKetto" : 75,
  "noKorcsopKetto" : 115,
  "ffiKorcsopHarom" : 85,
  "noKorcsopHarom" : 125,
  "ffiKorcsopNegy" : 95,
  "noKorcsopNegy" : 135,
  "ffiKorcsopOt" : 105,
  "noKorcsopOt" : 145,
  "ffiKorcsopHat" : 120,
  "noKorcsopHat" : 160,
  "ffiKorcsopHet" : 135,
  "noKorcsopHet" : 160
}, {
  "wattKg" : 215,
  "ffiKorcsopEgy" : 65,
  "noKorcsopEgy" : 100,
  "ffiKorcsopKetto" : 75,
  "noKorcsopKetto" : 110,
  "ffiKorcsopHarom" : 85,
  "noKorcsopHarom" : 125,
  "ffiKorcsopNegy" : 95,
  "noKorcsopNegy" : 135,
  "ffiKorcsopOt" : 105,
  "noKorcsopOt" : 145,
  "ffiKorcsopHat" : 120,
  "noKorcsopHat" : 160,
  "ffiKorcsopHet" : 135,
  "noKorcsopHet" : 160
}, {
  "wattKg" : 214,
  "ffiKorcsopEgy" : 65,
  "noKorcsopEgy" : 100,
  "ffiKorcsopKetto" : 75,
  "noKorcsopKetto" : 110,
  "ffiKorcsopHarom" : 80,
  "noKorcsopHarom" : 120,
  "ffiKorcsopNegy" : 95,
  "noKorcsopNegy" : 130,
  "ffiKorcsopOt" : 105,
  "noKorcsopOt" : 145,
  "ffiKorcsopHat" : 115,
  "noKorcsopHat" : 160,
  "ffiKorcsopHet" : 130,
  "noKorcsopHet" : 160
}, {
  "wattKg" : 213,
  "ffiKorcsopEgy" : 65,
  "noKorcsopEgy" : 100,
  "ffiKorcsopKetto" : 75,
  "noKorcsopKetto" : 110,
  "ffiKorcsopHarom" : 80,
  "noKorcsopHarom" : 120,
  "ffiKorcsopNegy" : 90,
  "noKorcsopNegy" : 130,
  "ffiKorcsopOt" : 105,
  "noKorcsopOt" : 145,
  "ffiKorcsopHat" : 115,
  "noKorcsopHat" : 160,
  "ffiKorcsopHet" : 130,
  "noKorcsopHet" : 160
}, {
  "wattKg" : 212,
  "ffiKorcsopEgy" : 65,
  "noKorcsopEgy" : 100,
  "ffiKorcsopKetto" : 70,
  "noKorcsopKetto" : 110,
  "ffiKorcsopHarom" : 80,
  "noKorcsopHarom" : 120,
  "ffiKorcsopNegy" : 90,
  "noKorcsopNegy" : 130,
  "ffiKorcsopOt" : 100,
  "noKorcsopOt" : 140,
  "ffiKorcsopHat" : 115,
  "noKorcsopHat" : 160,
  "ffiKorcsopHet" : 130,
  "noKorcsopHet" : 160
}, {
  "wattKg" : 211,
  "ffiKorcsopEgy" : 65,
  "noKorcsopEgy" : 100,
  "ffiKorcsopKetto" : 70,
  "noKorcsopKetto" : 110,
  "ffiKorcsopHarom" : 80,
  "noKorcsopHarom" : 120,
  "ffiKorcsopNegy" : 90,
  "noKorcsopNegy" : 130,
  "ffiKorcsopOt" : 100,
  "noKorcsopOt" : 140,
  "ffiKorcsopHat" : 115,
  "noKorcsopHat" : 160,
  "ffiKorcsopHet" : 130,
  "noKorcsopHet" : 160
}, {
  "wattKg" : 210,
  "ffiKorcsopEgy" : 65,
  "noKorcsopEgy" : 100,
  "ffiKorcsopKetto" : 70,
  "noKorcsopKetto" : 110,
  "ffiKorcsopHarom" : 80,
  "noKorcsopHarom" : 120,
  "ffiKorcsopNegy" : 90,
  "noKorcsopNegy" : 130,
  "ffiKorcsopOt" : 100,
  "noKorcsopOt" : 140,
  "ffiKorcsopHat" : 115,
  "noKorcsopHat" : 160,
  "ffiKorcsopHet" : 125,
  "noKorcsopHet" : 160
}, {
  "wattKg" : 209,
  "ffiKorcsopEgy" : 60,
  "noKorcsopEgy" : 100,
  "ffiKorcsopKetto" : 70,
  "noKorcsopKetto" : 105,
  "ffiKorcsopHarom" : 80,
  "noKorcsopHarom" : 120,
  "ffiKorcsopNegy" : 90,
  "noKorcsopNegy" : 125,
  "ffiKorcsopOt" : 100,
  "noKorcsopOt" : 140,
  "ffiKorcsopHat" : 110,
  "noKorcsopHat" : 155,
  "ffiKorcsopHet" : 125,
  "noKorcsopHet" : 160
}, {
  "wattKg" : 208,
  "ffiKorcsopEgy" : 0,
  "noKorcsopEgy" : 95,
  "ffiKorcsopKetto" : 70,
  "noKorcsopKetto" : 105,
  "ffiKorcsopHarom" : 75,
  "noKorcsopHarom" : 115,
  "ffiKorcsopNegy" : 90,
  "noKorcsopNegy" : 125,
  "ffiKorcsopOt" : 100,
  "noKorcsopOt" : 140,
  "ffiKorcsopHat" : 110,
  "noKorcsopHat" : 155,
  "ffiKorcsopHet" : 125,
  "noKorcsopHet" : 160
}, {
  "wattKg" : 207,
  "ffiKorcsopEgy" : 0,
  "noKorcsopEgy" : 95,
  "ffiKorcsopKetto" : 70,
  "noKorcsopKetto" : 105,
  "ffiKorcsopHarom" : 75,
  "noKorcsopHarom" : 115,
  "ffiKorcsopNegy" : 85,
  "noKorcsopNegy" : 125,
  "ffiKorcsopOt" : 100,
  "noKorcsopOt" : 135,
  "ffiKorcsopHat" : 110,
  "noKorcsopHat" : 155,
  "ffiKorcsopHet" : 125,
  "noKorcsopHet" : 160
}, {
  "wattKg" : 206,
  "ffiKorcsopEgy" : 0,
  "noKorcsopEgy" : 95,
  "ffiKorcsopKetto" : 70,
  "noKorcsopKetto" : 105,
  "ffiKorcsopHarom" : 75,
  "noKorcsopHarom" : 115,
  "ffiKorcsopNegy" : 85,
  "noKorcsopNegy" : 125,
  "ffiKorcsopOt" : 95,
  "noKorcsopOt" : 135,
  "ffiKorcsopHat" : 110,
  "noKorcsopHat" : 155,
  "ffiKorcsopHet" : 125,
  "noKorcsopHet" : 160
}, {
  "wattKg" : 205,
  "ffiKorcsopEgy" : 0,
  "noKorcsopEgy" : 95,
  "ffiKorcsopKetto" : 65,
  "noKorcsopKetto" : 105,
  "ffiKorcsopHarom" : 75,
  "noKorcsopHarom" : 115,
  "ffiKorcsopNegy" : 85,
  "noKorcsopNegy" : 125,
  "ffiKorcsopOt" : 95,
  "noKorcsopOt" : 135,
  "ffiKorcsopHat" : 105,
  "noKorcsopHat" : 155,
  "ffiKorcsopHet" : 120,
  "noKorcsopHet" : 160
}, {
  "wattKg" : 204,
  "ffiKorcsopEgy" : 0,
  "noKorcsopEgy" : 95,
  "ffiKorcsopKetto" : 65,
  "noKorcsopKetto" : 105,
  "ffiKorcsopHarom" : 75,
  "noKorcsopHarom" : 115,
  "ffiKorcsopNegy" : 85,
  "noKorcsopNegy" : 125,
  "ffiKorcsopOt" : 95,
  "noKorcsopOt" : 135,
  "ffiKorcsopHat" : 105,
  "noKorcsopHat" : 150,
  "ffiKorcsopHet" : 120,
  "noKorcsopHet" : 160
}, {
  "wattKg" : 203,
  "ffiKorcsopEgy" : 0,
  "noKorcsopEgy" : 95,
  "ffiKorcsopKetto" : 65,
  "noKorcsopKetto" : 100,
  "ffiKorcsopHarom" : 75,
  "noKorcsopHarom" : 110,
  "ffiKorcsopNegy" : 85,
  "noKorcsopNegy" : 120,
  "ffiKorcsopOt" : 95,
  "noKorcsopOt" : 135,
  "ffiKorcsopHat" : 105,
  "noKorcsopHat" : 150,
  "ffiKorcsopHet" : 120,
  "noKorcsopHet" : 160
}, {
  "wattKg" : 202,
  "ffiKorcsopEgy" : 0,
  "noKorcsopEgy" : 90,
  "ffiKorcsopKetto" : 65,
  "noKorcsopKetto" : 100,
  "ffiKorcsopHarom" : 70,
  "noKorcsopHarom" : 110,
  "ffiKorcsopNegy" : 85,
  "noKorcsopNegy" : 120,
  "ffiKorcsopOt" : 95,
  "noKorcsopOt" : 130,
  "ffiKorcsopHat" : 105,
  "noKorcsopHat" : 150,
  "ffiKorcsopHet" : 120,
  "noKorcsopHet" : 160
}, {
  "wattKg" : 201,
  "ffiKorcsopEgy" : 0,
  "noKorcsopEgy" : 90,
  "ffiKorcsopKetto" : 65,
  "noKorcsopKetto" : 100,
  "ffiKorcsopHarom" : 70,
  "noKorcsopHarom" : 110,
  "ffiKorcsopNegy" : 80,
  "noKorcsopNegy" : 120,
  "ffiKorcsopOt" : 90,
  "noKorcsopOt" : 130,
  "ffiKorcsopHat" : 105,
  "noKorcsopHat" : 150,
  "ffiKorcsopHet" : 115,
  "noKorcsopHet" : 160
}, {
  "wattKg" : 200,
  "ffiKorcsopEgy" : 0,
  "noKorcsopEgy" : 90,
  "ffiKorcsopKetto" : 65,
  "noKorcsopKetto" : 100,
  "ffiKorcsopHarom" : 70,
  "noKorcsopHarom" : 110,
  "ffiKorcsopNegy" : 80,
  "noKorcsopNegy" : 120,
  "ffiKorcsopOt" : 90,
  "noKorcsopOt" : 130,
  "ffiKorcsopHat" : 100,
  "noKorcsopHat" : 145,
  "ffiKorcsopHet" : 115,
  "noKorcsopHet" : 160
}, {
  "wattKg" : 199,
  "ffiKorcsopEgy" : 0,
  "noKorcsopEgy" : 90,
  "ffiKorcsopKetto" : 65,
  "noKorcsopKetto" : 100,
  "ffiKorcsopHarom" : 70,
  "noKorcsopHarom" : 110,
  "ffiKorcsopNegy" : 80,
  "noKorcsopNegy" : 120,
  "ffiKorcsopOt" : 90,
  "noKorcsopOt" : 130,
  "ffiKorcsopHat" : 100,
  "noKorcsopHat" : 145,
  "ffiKorcsopHet" : 115,
  "noKorcsopHet" : 160
}, {
  "wattKg" : 198,
  "ffiKorcsopEgy" : 0,
  "noKorcsopEgy" : 90,
  "ffiKorcsopKetto" : 60,
  "noKorcsopKetto" : 100,
  "ffiKorcsopHarom" : 70,
  "noKorcsopHarom" : 110,
  "ffiKorcsopNegy" : 80,
  "noKorcsopNegy" : 115,
  "ffiKorcsopOt" : 90,
  "noKorcsopOt" : 130,
  "ffiKorcsopHat" : 100,
  "noKorcsopHat" : 145,
  "ffiKorcsopHet" : 115,
  "noKorcsopHet" : 160
}, {
  "wattKg" : 197,
  "ffiKorcsopEgy" : 0,
  "noKorcsopEgy" : 90,
  "ffiKorcsopKetto" : 0,
  "noKorcsopKetto" : 95,
  "ffiKorcsopHarom" : 70,
  "noKorcsopHarom" : 105,
  "ffiKorcsopNegy" : 80,
  "noKorcsopNegy" : 115,
  "ffiKorcsopOt" : 90,
  "noKorcsopOt" : 125,
  "ffiKorcsopHat" : 100,
  "noKorcsopHat" : 145,
  "ffiKorcsopHet" : 115,
  "noKorcsopHet" : 160
}, {
  "wattKg" : 196,
  "ffiKorcsopEgy" : 0,
  "noKorcsopEgy" : 90,
  "ffiKorcsopKetto" : 0,
  "noKorcsopKetto" : 95,
  "ffiKorcsopHarom" : 70,
  "noKorcsopHarom" : 105,
  "ffiKorcsopNegy" : 80,
  "noKorcsopNegy" : 115,
  "ffiKorcsopOt" : 85,
  "noKorcsopOt" : 125,
  "ffiKorcsopHat" : 100,
  "noKorcsopHat" : 145,
  "ffiKorcsopHet" : 110,
  "noKorcsopHet" : 155
}, {
  "wattKg" : 195,
  "ffiKorcsopEgy" : 0,
  "noKorcsopEgy" : 85,
  "ffiKorcsopKetto" : 0,
  "noKorcsopKetto" : 95,
  "ffiKorcsopHarom" : 65,
  "noKorcsopHarom" : 105,
  "ffiKorcsopNegy" : 75,
  "noKorcsopNegy" : 115,
  "ffiKorcsopOt" : 85,
  "noKorcsopOt" : 125,
  "ffiKorcsopHat" : 95,
  "noKorcsopHat" : 140,
  "ffiKorcsopHet" : 110,
  "noKorcsopHet" : 155
}, {
  "wattKg" : 194,
  "ffiKorcsopEgy" : 0,
  "noKorcsopEgy" : 85,
  "ffiKorcsopKetto" : 0,
  "noKorcsopKetto" : 95,
  "ffiKorcsopHarom" : 65,
  "noKorcsopHarom" : 105,
  "ffiKorcsopNegy" : 75,
  "noKorcsopNegy" : 115,
  "ffiKorcsopOt" : 85,
  "noKorcsopOt" : 125,
  "ffiKorcsopHat" : 95,
  "noKorcsopHat" : 140,
  "ffiKorcsopHet" : 110,
  "noKorcsopHet" : 155
}, {
  "wattKg" : 193,
  "ffiKorcsopEgy" : 0,
  "noKorcsopEgy" : 85,
  "ffiKorcsopKetto" : 0,
  "noKorcsopKetto" : 95,
  "ffiKorcsopHarom" : 65,
  "noKorcsopHarom" : 105,
  "ffiKorcsopNegy" : 75,
  "noKorcsopNegy" : 110,
  "ffiKorcsopOt" : 85,
  "noKorcsopOt" : 125,
  "ffiKorcsopHat" : 95,
  "noKorcsopHat" : 140,
  "ffiKorcsopHet" : 110,
  "noKorcsopHet" : 155
}, {
  "wattKg" : 192,
  "ffiKorcsopEgy" : 0,
  "noKorcsopEgy" : 85,
  "ffiKorcsopKetto" : 0,
  "noKorcsopKetto" : 95,
  "ffiKorcsopHarom" : 65,
  "noKorcsopHarom" : 105,
  "ffiKorcsopNegy" : 75,
  "noKorcsopNegy" : 110,
  "ffiKorcsopOt" : 85,
  "noKorcsopOt" : 120,
  "ffiKorcsopHat" : 95,
  "noKorcsopHat" : 140,
  "ffiKorcsopHet" : 105,
  "noKorcsopHet" : 155
}, {
  "wattKg" : 191,
  "ffiKorcsopEgy" : 0,
  "noKorcsopEgy" : 85,
  "ffiKorcsopKetto" : 0,
  "noKorcsopKetto" : 90,
  "ffiKorcsopHarom" : 65,
  "noKorcsopHarom" : 100,
  "ffiKorcsopNegy" : 75,
  "noKorcsopNegy" : 110,
  "ffiKorcsopOt" : 85,
  "noKorcsopOt" : 120,
  "ffiKorcsopHat" : 95,
  "noKorcsopHat" : 140,
  "ffiKorcsopHet" : 105,
  "noKorcsopHet" : 150
}, {
  "wattKg" : 190,
  "ffiKorcsopEgy" : 0,
  "noKorcsopEgy" : 85,
  "ffiKorcsopKetto" : 0,
  "noKorcsopKetto" : 90,
  "ffiKorcsopHarom" : 65,
  "noKorcsopHarom" : 100,
  "ffiKorcsopNegy" : 75,
  "noKorcsopNegy" : 110,
  "ffiKorcsopOt" : 80,
  "noKorcsopOt" : 120,
  "ffiKorcsopHat" : 95,
  "noKorcsopHat" : 135,
  "ffiKorcsopHet" : 105,
  "noKorcsopHet" : 150
}, {
  "wattKg" : 189,
  "ffiKorcsopEgy" : 0,
  "noKorcsopEgy" : 85,
  "ffiKorcsopKetto" : 0,
  "noKorcsopKetto" : 90,
  "ffiKorcsopHarom" : 65,
  "noKorcsopHarom" : 100,
  "ffiKorcsopNegy" : 70,
  "noKorcsopNegy" : 110,
  "ffiKorcsopOt" : 80,
  "noKorcsopOt" : 120,
  "ffiKorcsopHat" : 90,
  "noKorcsopHat" : 135,
  "ffiKorcsopHet" : 105,
  "noKorcsopHet" : 150
}, {
  "wattKg" : 188,
  "ffiKorcsopEgy" : 0,
  "noKorcsopEgy" : 80,
  "ffiKorcsopKetto" : 0,
  "noKorcsopKetto" : 90,
  "ffiKorcsopHarom" : 60,
  "noKorcsopHarom" : 100,
  "ffiKorcsopNegy" : 70,
  "noKorcsopNegy" : 110,
  "ffiKorcsopOt" : 80,
  "noKorcsopOt" : 120,
  "ffiKorcsopHat" : 90,
  "noKorcsopHat" : 135,
  "ffiKorcsopHet" : 105,
  "noKorcsopHet" : 150
}, {
  "wattKg" : 187,
  "ffiKorcsopEgy" : 0,
  "noKorcsopEgy" : 80,
  "ffiKorcsopKetto" : 0,
  "noKorcsopKetto" : 90,
  "ffiKorcsopHarom" : 0,
  "noKorcsopHarom" : 100,
  "ffiKorcsopNegy" : 70,
  "noKorcsopNegy" : 105,
  "ffiKorcsopOt" : 80,
  "noKorcsopOt" : 115,
  "ffiKorcsopHat" : 90,
  "noKorcsopHat" : 135,
  "ffiKorcsopHet" : 100,
  "noKorcsopHet" : 145
}, {
  "wattKg" : 186,
  "ffiKorcsopEgy" : 0,
  "noKorcsopEgy" : 80,
  "ffiKorcsopKetto" : 0,
  "noKorcsopKetto" : 90,
  "ffiKorcsopHarom" : 0,
  "noKorcsopHarom" : 100,
  "ffiKorcsopNegy" : 70,
  "noKorcsopNegy" : 105,
  "ffiKorcsopOt" : 80,
  "noKorcsopOt" : 115,
  "ffiKorcsopHat" : 90,
  "noKorcsopHat" : 130,
  "ffiKorcsopHet" : 100,
  "noKorcsopHet" : 145
}, {
  "wattKg" : 185,
  "ffiKorcsopEgy" : 0,
  "noKorcsopEgy" : 80,
  "ffiKorcsopKetto" : 0,
  "noKorcsopKetto" : 85,
  "ffiKorcsopHarom" : 0,
  "noKorcsopHarom" : 95,
  "ffiKorcsopNegy" : 70,
  "noKorcsopNegy" : 105,
  "ffiKorcsopOt" : 80,
  "noKorcsopOt" : 115,
  "ffiKorcsopHat" : 90,
  "noKorcsopHat" : 130,
  "ffiKorcsopHet" : 100,
  "noKorcsopHet" : 145
}, {
  "wattKg" : 184,
  "ffiKorcsopEgy" : 0,
  "noKorcsopEgy" : 80,
  "ffiKorcsopKetto" : 0,
  "noKorcsopKetto" : 85,
  "ffiKorcsopHarom" : 0,
  "noKorcsopHarom" : 95,
  "ffiKorcsopNegy" : 70,
  "noKorcsopNegy" : 105,
  "ffiKorcsopOt" : 75,
  "noKorcsopOt" : 115,
  "ffiKorcsopHat" : 85,
  "noKorcsopHat" : 130,
  "ffiKorcsopHet" : 100,
  "noKorcsopHet" : 145
}, {
  "wattKg" : 183,
  "ffiKorcsopEgy" : 0,
  "noKorcsopEgy" : 80,
  "ffiKorcsopKetto" : 0,
  "noKorcsopKetto" : 85,
  "ffiKorcsopHarom" : 0,
  "noKorcsopHarom" : 95,
  "ffiKorcsopNegy" : 70,
  "noKorcsopNegy" : 105,
  "ffiKorcsopOt" : 75,
  "noKorcsopOt" : 115,
  "ffiKorcsopHat" : 85,
  "noKorcsopHat" : 130,
  "ffiKorcsopHet" : 100,
  "noKorcsopHet" : 145
}, {
  "wattKg" : 182,
  "ffiKorcsopEgy" : 0,
  "noKorcsopEgy" : 80,
  "ffiKorcsopKetto" : 0,
  "noKorcsopKetto" : 85,
  "ffiKorcsopHarom" : 0,
  "noKorcsopHarom" : 95,
  "ffiKorcsopNegy" : 65,
  "noKorcsopNegy" : 100,
  "ffiKorcsopOt" : 75,
  "noKorcsopOt" : 110,
  "ffiKorcsopHat" : 85,
  "noKorcsopHat" : 130,
  "ffiKorcsopHet" : 95,
  "noKorcsopHet" : 140
}, {
  "wattKg" : 181,
  "ffiKorcsopEgy" : 0,
  "noKorcsopEgy" : 75,
  "ffiKorcsopKetto" : 0,
  "noKorcsopKetto" : 85,
  "ffiKorcsopHarom" : 0,
  "noKorcsopHarom" : 95,
  "ffiKorcsopNegy" : 65,
  "noKorcsopNegy" : 100,
  "ffiKorcsopOt" : 75,
  "noKorcsopOt" : 110,
  "ffiKorcsopHat" : 85,
  "noKorcsopHat" : 125,
  "ffiKorcsopHet" : 95,
  "noKorcsopHet" : 140
}, {
  "wattKg" : 180,
  "ffiKorcsopEgy" : 0,
  "noKorcsopEgy" : 75,
  "ffiKorcsopKetto" : 0,
  "noKorcsopKetto" : 85,
  "ffiKorcsopHarom" : 0,
  "noKorcsopHarom" : 95,
  "ffiKorcsopNegy" : 65,
  "noKorcsopNegy" : 100,
  "ffiKorcsopOt" : 75,
  "noKorcsopOt" : 110,
  "ffiKorcsopHat" : 85,
  "noKorcsopHat" : 125,
  "ffiKorcsopHet" : 95,
  "noKorcsopHet" : 140
}, {
  "wattKg" : 179,
  "ffiKorcsopEgy" : 0,
  "noKorcsopEgy" : 75,
  "ffiKorcsopKetto" : 0,
  "noKorcsopKetto" : 85,
  "ffiKorcsopHarom" : 0,
  "noKorcsopHarom" : 90,
  "ffiKorcsopNegy" : 65,
  "noKorcsopNegy" : 100,
  "ffiKorcsopOt" : 75,
  "noKorcsopOt" : 110,
  "ffiKorcsopHat" : 85,
  "noKorcsopHat" : 125,
  "ffiKorcsopHet" : 95,
  "noKorcsopHet" : 140
}, {
  "wattKg" : 178,
  "ffiKorcsopEgy" : 0,
  "noKorcsopEgy" : 75,
  "ffiKorcsopKetto" : 0,
  "noKorcsopKetto" : 80,
  "ffiKorcsopHarom" : 0,
  "noKorcsopHarom" : 90,
  "ffiKorcsopNegy" : 65,
  "noKorcsopNegy" : 100,
  "ffiKorcsopOt" : 70,
  "noKorcsopOt" : 110,
  "ffiKorcsopHat" : 80,
  "noKorcsopHat" : 125,
  "ffiKorcsopHet" : 95,
  "noKorcsopHet" : 135
}, {
  "wattKg" : 177,
  "ffiKorcsopEgy" : 0,
  "noKorcsopEgy" : 75,
  "ffiKorcsopKetto" : 0,
  "noKorcsopKetto" : 80,
  "ffiKorcsopHarom" : 0,
  "noKorcsopHarom" : 90,
  "ffiKorcsopNegy" : 65,
  "noKorcsopNegy" : 100,
  "ffiKorcsopOt" : 70,
  "noKorcsopOt" : 110,
  "ffiKorcsopHat" : 80,
  "noKorcsopHat" : 125,
  "ffiKorcsopHet" : 90,
  "noKorcsopHet" : 135
}, {
  "wattKg" : 176,
  "ffiKorcsopEgy" : 0,
  "noKorcsopEgy" : 75,
  "ffiKorcsopKetto" : 0,
  "noKorcsopKetto" : 80,
  "ffiKorcsopHarom" : 0,
  "noKorcsopHarom" : 90,
  "ffiKorcsopNegy" : 60,
  "noKorcsopNegy" : 95,
  "ffiKorcsopOt" : 70,
  "noKorcsopOt" : 105,
  "ffiKorcsopHat" : 80,
  "noKorcsopHat" : 120,
  "ffiKorcsopHet" : 90,
  "noKorcsopHet" : 135
}, {
  "wattKg" : 175,
  "ffiKorcsopEgy" : 0,
  "noKorcsopEgy" : 75,
  "ffiKorcsopKetto" : 0,
  "noKorcsopKetto" : 80,
  "ffiKorcsopHarom" : 0,
  "noKorcsopHarom" : 90,
  "ffiKorcsopNegy" : 0,
  "noKorcsopNegy" : 95,
  "ffiKorcsopOt" : 70,
  "noKorcsopOt" : 105,
  "ffiKorcsopHat" : 80,
  "noKorcsopHat" : 120,
  "ffiKorcsopHet" : 90,
  "noKorcsopHet" : 135
}, {
  "wattKg" : 174,
  "ffiKorcsopEgy" : 0,
  "noKorcsopEgy" : 75,
  "ffiKorcsopKetto" : 0,
  "noKorcsopKetto" : 80,
  "ffiKorcsopHarom" : 0,
  "noKorcsopHarom" : 90,
  "ffiKorcsopNegy" : 0,
  "noKorcsopNegy" : 95,
  "ffiKorcsopOt" : 70,
  "noKorcsopOt" : 105,
  "ffiKorcsopHat" : 80,
  "noKorcsopHat" : 120,
  "ffiKorcsopHet" : 90,
  "noKorcsopHet" : 135
}, {
  "wattKg" : 173,
  "ffiKorcsopEgy" : 0,
  "noKorcsopEgy" : 70,
  "ffiKorcsopKetto" : 0,
  "noKorcsopKetto" : 80,
  "ffiKorcsopHarom" : 0,
  "noKorcsopHarom" : 85,
  "ffiKorcsopNegy" : 0,
  "noKorcsopNegy" : 95,
  "ffiKorcsopOt" : 70,
  "noKorcsopOt" : 105,
  "ffiKorcsopHat" : 75,
  "noKorcsopHat" : 120,
  "ffiKorcsopHet" : 90,
  "noKorcsopHet" : 130
}, {
  "wattKg" : 172,
  "ffiKorcsopEgy" : 0,
  "noKorcsopEgy" : 70,
  "ffiKorcsopKetto" : 0,
  "noKorcsopKetto" : 80,
  "ffiKorcsopHarom" : 0,
  "noKorcsopHarom" : 85,
  "ffiKorcsopNegy" : 0,
  "noKorcsopNegy" : 95,
  "ffiKorcsopOt" : 70,
  "noKorcsopOt" : 105,
  "ffiKorcsopHat" : 75,
  "noKorcsopHat" : 120,
  "ffiKorcsopHet" : 85,
  "noKorcsopHet" : 130
}, {
  "wattKg" : 171,
  "ffiKorcsopEgy" : 0,
  "noKorcsopEgy" : 70,
  "ffiKorcsopKetto" : 0,
  "noKorcsopKetto" : 75,
  "ffiKorcsopHarom" : 0,
  "noKorcsopHarom" : 85,
  "ffiKorcsopNegy" : 0,
  "noKorcsopNegy" : 95,
  "ffiKorcsopOt" : 65,
  "noKorcsopOt" : 100,
  "ffiKorcsopHat" : 75,
  "noKorcsopHat" : 115,
  "ffiKorcsopHet" : 85,
  "noKorcsopHet" : 130
}, {
  "wattKg" : 170,
  "ffiKorcsopEgy" : 0,
  "noKorcsopEgy" : 70,
  "ffiKorcsopKetto" : 0,
  "noKorcsopKetto" : 75,
  "ffiKorcsopHarom" : 0,
  "noKorcsopHarom" : 85,
  "ffiKorcsopNegy" : 0,
  "noKorcsopNegy" : 90,
  "ffiKorcsopOt" : 65,
  "noKorcsopOt" : 100,
  "ffiKorcsopHat" : 75,
  "noKorcsopHat" : 115,
  "ffiKorcsopHet" : 85,
  "noKorcsopHet" : 130
}, {
  "wattKg" : 169,
  "ffiKorcsopEgy" : 0,
  "noKorcsopEgy" : 70,
  "ffiKorcsopKetto" : 0,
  "noKorcsopKetto" : 75,
  "ffiKorcsopHarom" : 0,
  "noKorcsopHarom" : 85,
  "ffiKorcsopNegy" : 0,
  "noKorcsopNegy" : 90,
  "ffiKorcsopOt" : 65,
  "noKorcsopOt" : 100,
  "ffiKorcsopHat" : 75,
  "noKorcsopHat" : 115,
  "ffiKorcsopHet" : 85,
  "noKorcsopHet" : 130
}, {
  "wattKg" : 168,
  "ffiKorcsopEgy" : 0,
  "noKorcsopEgy" : 70,
  "ffiKorcsopKetto" : 0,
  "noKorcsopKetto" : 75,
  "ffiKorcsopHarom" : 0,
  "noKorcsopHarom" : 85,
  "ffiKorcsopNegy" : 0,
  "noKorcsopNegy" : 90,
  "ffiKorcsopOt" : 65,
  "noKorcsopOt" : 100,
  "ffiKorcsopHat" : 75,
  "noKorcsopHat" : 115,
  "ffiKorcsopHet" : 85,
  "noKorcsopHet" : 125
}, {
  "wattKg" : 167,
  "ffiKorcsopEgy" : 0,
  "noKorcsopEgy" : 70,
  "ffiKorcsopKetto" : 0,
  "noKorcsopKetto" : 75,
  "ffiKorcsopHarom" : 0,
  "noKorcsopHarom" : 85,
  "ffiKorcsopNegy" : 0,
  "noKorcsopNegy" : 90,
  "ffiKorcsopOt" : 65,
  "noKorcsopOt" : 100,
  "ffiKorcsopHat" : 70,
  "noKorcsopHat" : 115,
  "ffiKorcsopHet" : 80,
  "noKorcsopHet" : 125
}, {
  "wattKg" : 166,
  "ffiKorcsopEgy" : 0,
  "noKorcsopEgy" : 65,
  "ffiKorcsopKetto" : 0,
  "noKorcsopKetto" : 75,
  "ffiKorcsopHarom" : 0,
  "noKorcsopHarom" : 80,
  "ffiKorcsopNegy" : 0,
  "noKorcsopNegy" : 90,
  "ffiKorcsopOt" : 65,
  "noKorcsopOt" : 100,
  "ffiKorcsopHat" : 70,
  "noKorcsopHat" : 110,
  "ffiKorcsopHet" : 80,
  "noKorcsopHet" : 125
}, {
  "wattKg" : 165,
  "ffiKorcsopEgy" : 0,
  "noKorcsopEgy" : 65,
  "ffiKorcsopKetto" : 0,
  "noKorcsopKetto" : 75,
  "ffiKorcsopHarom" : 0,
  "noKorcsopHarom" : 80,
  "ffiKorcsopNegy" : 0,
  "noKorcsopNegy" : 90,
  "ffiKorcsopOt" : 60,
  "noKorcsopOt" : 95,
  "ffiKorcsopHat" : 70,
  "noKorcsopHat" : 110,
  "ffiKorcsopHet" : 80,
  "noKorcsopHet" : 125
}, {
  "wattKg" : 164,
  "ffiKorcsopEgy" : 0,
  "noKorcsopEgy" : 65,
  "ffiKorcsopKetto" : 0,
  "noKorcsopKetto" : 70,
  "ffiKorcsopHarom" : 0,
  "noKorcsopHarom" : 80,
  "ffiKorcsopNegy" : 0,
  "noKorcsopNegy" : 85,
  "ffiKorcsopOt" : 0,
  "noKorcsopOt" : 95,
  "ffiKorcsopHat" : 70,
  "noKorcsopHat" : 110,
  "ffiKorcsopHet" : 80,
  "noKorcsopHet" : 125
}, {
  "wattKg" : 163,
  "ffiKorcsopEgy" : 0,
  "noKorcsopEgy" : 65,
  "ffiKorcsopKetto" : 0,
  "noKorcsopKetto" : 70,
  "ffiKorcsopHarom" : 0,
  "noKorcsopHarom" : 80,
  "ffiKorcsopNegy" : 0,
  "noKorcsopNegy" : 85,
  "ffiKorcsopOt" : 0,
  "noKorcsopOt" : 95,
  "ffiKorcsopHat" : 70,
  "noKorcsopHat" : 110,
  "ffiKorcsopHet" : 80,
  "noKorcsopHet" : 120
}, {
  "wattKg" : 162,
  "ffiKorcsopEgy" : 0,
  "noKorcsopEgy" : 65,
  "ffiKorcsopKetto" : 0,
  "noKorcsopKetto" : 70,
  "ffiKorcsopHarom" : 0,
  "noKorcsopHarom" : 80,
  "ffiKorcsopNegy" : 0,
  "noKorcsopNegy" : 85,
  "ffiKorcsopOt" : 0,
  "noKorcsopOt" : 95,
  "ffiKorcsopHat" : 70,
  "noKorcsopHat" : 110,
  "ffiKorcsopHet" : 80,
  "noKorcsopHet" : 120
}, {
  "wattKg" : 161,
  "ffiKorcsopEgy" : 0,
  "noKorcsopEgy" : 65,
  "ffiKorcsopKetto" : 0,
  "noKorcsopKetto" : 70,
  "ffiKorcsopHarom" : 0,
  "noKorcsopHarom" : 80,
  "ffiKorcsopNegy" : 0,
  "noKorcsopNegy" : 85,
  "ffiKorcsopOt" : 0,
  "noKorcsopOt" : 95,
  "ffiKorcsopHat" : 65,
  "noKorcsopHat" : 105,
  "ffiKorcsopHet" : 75,
  "noKorcsopHet" : 120
}, {
  "wattKg" : 160,
  "ffiKorcsopEgy" : 0,
  "noKorcsopEgy" : 65,
  "ffiKorcsopKetto" : 0,
  "noKorcsopKetto" : 70,
  "ffiKorcsopHarom" : 0,
  "noKorcsopHarom" : 75,
  "ffiKorcsopNegy" : 0,
  "noKorcsopNegy" : 85,
  "ffiKorcsopOt" : 0,
  "noKorcsopOt" : 95,
  "ffiKorcsopHat" : 65,
  "noKorcsopHat" : 105,
  "ffiKorcsopHet" : 75,
  "noKorcsopHet" : 120
}, {
  "wattKg" : 159,
  "ffiKorcsopEgy" : 0,
  "noKorcsopEgy" : 60,
  "ffiKorcsopKetto" : 0,
  "noKorcsopKetto" : 70,
  "ffiKorcsopHarom" : 0,
  "noKorcsopHarom" : 75,
  "ffiKorcsopNegy" : 0,
  "noKorcsopNegy" : 85,
  "ffiKorcsopOt" : 0,
  "noKorcsopOt" : 90,
  "ffiKorcsopHat" : 65,
  "noKorcsopHat" : 105,
  "ffiKorcsopHet" : 75,
  "noKorcsopHet" : 115
}, {
  "wattKg" : 158,
  "ffiKorcsopEgy" : 0,
  "noKorcsopEgy" : 0,
  "ffiKorcsopKetto" : 0,
  "noKorcsopKetto" : 70,
  "ffiKorcsopHarom" : 0,
  "noKorcsopHarom" : 75,
  "ffiKorcsopNegy" : 0,
  "noKorcsopNegy" : 80,
  "ffiKorcsopOt" : 0,
  "noKorcsopOt" : 90,
  "ffiKorcsopHat" : 65,
  "noKorcsopHat" : 105,
  "ffiKorcsopHet" : 75,
  "noKorcsopHet" : 115
}, {
  "wattKg" : 157,
  "ffiKorcsopEgy" : 0,
  "noKorcsopEgy" : 0,
  "ffiKorcsopKetto" : 0,
  "noKorcsopKetto" : 65,
  "ffiKorcsopHarom" : 0,
  "noKorcsopHarom" : 75,
  "ffiKorcsopNegy" : 0,
  "noKorcsopNegy" : 80,
  "ffiKorcsopOt" : 0,
  "noKorcsopOt" : 90,
  "ffiKorcsopHat" : 65,
  "noKorcsopHat" : 105,
  "ffiKorcsopHet" : 75,
  "noKorcsopHet" : 115
}, {
  "wattKg" : 156,
  "ffiKorcsopEgy" : 0,
  "noKorcsopEgy" : 0,
  "ffiKorcsopKetto" : 0,
  "noKorcsopKetto" : 65,
  "ffiKorcsopHarom" : 0,
  "noKorcsopHarom" : 75,
  "ffiKorcsopNegy" : 0,
  "noKorcsopNegy" : 80,
  "ffiKorcsopOt" : 0,
  "noKorcsopOt" : 90,
  "ffiKorcsopHat" : 65,
  "noKorcsopHat" : 100,
  "ffiKorcsopHet" : 75,
  "noKorcsopHet" : 115
}, {
  "wattKg" : 155,
  "ffiKorcsopEgy" : 0,
  "noKorcsopEgy" : 0,
  "ffiKorcsopKetto" : 0,
  "noKorcsopKetto" : 65,
  "ffiKorcsopHarom" : 0,
  "noKorcsopHarom" : 75,
  "ffiKorcsopNegy" : 0,
  "noKorcsopNegy" : 80,
  "ffiKorcsopOt" : 0,
  "noKorcsopOt" : 90,
  "ffiKorcsopHat" : 65,
  "noKorcsopHat" : 100,
  "ffiKorcsopHet" : 70,
  "noKorcsopHet" : 115
}, {
  "wattKg" : 154,
  "ffiKorcsopEgy" : 0,
  "noKorcsopEgy" : 0,
  "ffiKorcsopKetto" : 0,
  "noKorcsopKetto" : 65,
  "ffiKorcsopHarom" : 0,
  "noKorcsopHarom" : 75,
  "ffiKorcsopNegy" : 0,
  "noKorcsopNegy" : 80,
  "ffiKorcsopOt" : 0,
  "noKorcsopOt" : 85,
  "ffiKorcsopHat" : 60,
  "noKorcsopHat" : 100,
  "ffiKorcsopHet" : 70,
  "noKorcsopHet" : 110
}, {
  "wattKg" : 153,
  "ffiKorcsopEgy" : 0,
  "noKorcsopEgy" : 0,
  "ffiKorcsopKetto" : 0,
  "noKorcsopKetto" : 65,
  "ffiKorcsopHarom" : 0,
  "noKorcsopHarom" : 70,
  "ffiKorcsopNegy" : 0,
  "noKorcsopNegy" : 80,
  "ffiKorcsopOt" : 0,
  "noKorcsopOt" : 85,
  "ffiKorcsopHat" : 0,
  "noKorcsopHat" : 100,
  "ffiKorcsopHet" : 70,
  "noKorcsopHet" : 110
}, {
  "wattKg" : 152,
  "ffiKorcsopEgy" : 0,
  "noKorcsopEgy" : 0,
  "ffiKorcsopKetto" : 0,
  "noKorcsopKetto" : 65,
  "ffiKorcsopHarom" : 0,
  "noKorcsopHarom" : 70,
  "ffiKorcsopNegy" : 0,
  "noKorcsopNegy" : 75,
  "ffiKorcsopOt" : 0,
  "noKorcsopOt" : 85,
  "ffiKorcsopHat" : 0,
  "noKorcsopHat" : 100,
  "ffiKorcsopHet" : 70,
  "noKorcsopHet" : 110
}, {
  "wattKg" : 151,
  "ffiKorcsopEgy" : 0,
  "noKorcsopEgy" : 0,
  "ffiKorcsopKetto" : 0,
  "noKorcsopKetto" : 65,
  "ffiKorcsopHarom" : 0,
  "noKorcsopHarom" : 70,
  "ffiKorcsopNegy" : 0,
  "noKorcsopNegy" : 75,
  "ffiKorcsopOt" : 0,
  "noKorcsopOt" : 85,
  "ffiKorcsopHat" : 0,
  "noKorcsopHat" : 95,
  "ffiKorcsopHet" : 70,
  "noKorcsopHet" : 110
}, {
  "wattKg" : 150,
  "ffiKorcsopEgy" : 0,
  "noKorcsopEgy" : 0,
  "ffiKorcsopKetto" : 0,
  "noKorcsopKetto" : 60,
  "ffiKorcsopHarom" : 0,
  "noKorcsopHarom" : 70,
  "ffiKorcsopNegy" : 0,
  "noKorcsopNegy" : 75,
  "ffiKorcsopOt" : 0,
  "noKorcsopOt" : 85,
  "ffiKorcsopHat" : 0,
  "noKorcsopHat" : 95,
  "ffiKorcsopHet" : 65,
  "noKorcsopHet" : 110
}, {
  "wattKg" : 149,
  "ffiKorcsopEgy" : 0,
  "noKorcsopEgy" : 0,
  "ffiKorcsopKetto" : 0,
  "noKorcsopKetto" : 0,
  "ffiKorcsopHarom" : 0,
  "noKorcsopHarom" : 70,
  "ffiKorcsopNegy" : 0,
  "noKorcsopNegy" : 75,
  "ffiKorcsopOt" : 0,
  "noKorcsopOt" : 85,
  "ffiKorcsopHat" : 0,
  "noKorcsopHat" : 95,
  "ffiKorcsopHet" : 65,
  "noKorcsopHet" : 105
}, {
  "wattKg" : 148,
  "ffiKorcsopEgy" : 0,
  "noKorcsopEgy" : 0,
  "ffiKorcsopKetto" : 0,
  "noKorcsopKetto" : 0,
  "ffiKorcsopHarom" : 0,
  "noKorcsopHarom" : 70,
  "ffiKorcsopNegy" : 0,
  "noKorcsopNegy" : 75,
  "ffiKorcsopOt" : 0,
  "noKorcsopOt" : 80,
  "ffiKorcsopHat" : 0,
  "noKorcsopHat" : 95,
  "ffiKorcsopHet" : 65,
  "noKorcsopHet" : 105
}, {
  "wattKg" : 147,
  "ffiKorcsopEgy" : 0,
  "noKorcsopEgy" : 0,
  "ffiKorcsopKetto" : 0,
  "noKorcsopKetto" : 0,
  "ffiKorcsopHarom" : 0,
  "noKorcsopHarom" : 70,
  "ffiKorcsopNegy" : 0,
  "noKorcsopNegy" : 75,
  "ffiKorcsopOt" : 0,
  "noKorcsopOt" : 80,
  "ffiKorcsopHat" : 0,
  "noKorcsopHat" : 95,
  "ffiKorcsopHet" : 65,
  "noKorcsopHet" : 105
}, {
  "wattKg" : 146,
  "ffiKorcsopEgy" : 0,
  "noKorcsopEgy" : 0,
  "ffiKorcsopKetto" : 0,
  "noKorcsopKetto" : 0,
  "ffiKorcsopHarom" : 0,
  "noKorcsopHarom" : 65,
  "ffiKorcsopNegy" : 0,
  "noKorcsopNegy" : 75,
  "ffiKorcsopOt" : 0,
  "noKorcsopOt" : 80,
  "ffiKorcsopHat" : 0,
  "noKorcsopHat" : 90,
  "ffiKorcsopHet" : 65,
  "noKorcsopHet" : 105
}, {
  "wattKg" : 145,
  "ffiKorcsopEgy" : 0,
  "noKorcsopEgy" : 0,
  "ffiKorcsopKetto" : 0,
  "noKorcsopKetto" : 0,
  "ffiKorcsopHarom" : 0,
  "noKorcsopHarom" : 65,
  "ffiKorcsopNegy" : 0,
  "noKorcsopNegy" : 70,
  "ffiKorcsopOt" : 0,
  "noKorcsopOt" : 80,
  "ffiKorcsopHat" : 0,
  "noKorcsopHat" : 90,
  "ffiKorcsopHet" : 65,
  "noKorcsopHet" : 105
}, {
  "wattKg" : 144,
  "ffiKorcsopEgy" : 0,
  "noKorcsopEgy" : 0,
  "ffiKorcsopKetto" : 0,
  "noKorcsopKetto" : 0,
  "ffiKorcsopHarom" : 0,
  "noKorcsopHarom" : 65,
  "ffiKorcsopNegy" : 0,
  "noKorcsopNegy" : 70,
  "ffiKorcsopOt" : 0,
  "noKorcsopOt" : 80,
  "ffiKorcsopHat" : 0,
  "noKorcsopHat" : 90,
  "ffiKorcsopHet" : 60,
  "noKorcsopHet" : 100
}, {
  "wattKg" : 143,
  "ffiKorcsopEgy" : 0,
  "noKorcsopEgy" : 0,
  "ffiKorcsopKetto" : 0,
  "noKorcsopKetto" : 0,
  "ffiKorcsopHarom" : 0,
  "noKorcsopHarom" : 65,
  "ffiKorcsopNegy" : 0,
  "noKorcsopNegy" : 70,
  "ffiKorcsopOt" : 0,
  "noKorcsopOt" : 80,
  "ffiKorcsopHat" : 0,
  "noKorcsopHat" : 90,
  "ffiKorcsopHet" : 0,
  "noKorcsopHet" : 100
}, {
  "wattKg" : 142,
  "ffiKorcsopEgy" : 0,
  "noKorcsopEgy" : 0,
  "ffiKorcsopKetto" : 0,
  "noKorcsopKetto" : 0,
  "ffiKorcsopHarom" : 0,
  "noKorcsopHarom" : 65,
  "ffiKorcsopNegy" : 0,
  "noKorcsopNegy" : 70,
  "ffiKorcsopOt" : 0,
  "noKorcsopOt" : 75,
  "ffiKorcsopHat" : 0,
  "noKorcsopHat" : 90,
  "ffiKorcsopHet" : 0,
  "noKorcsopHet" : 100
}, {
  "wattKg" : 141,
  "ffiKorcsopEgy" : 0,
  "noKorcsopEgy" : 0,
  "ffiKorcsopKetto" : 0,
  "noKorcsopKetto" : 0,
  "ffiKorcsopHarom" : 0,
  "noKorcsopHarom" : 65,
  "ffiKorcsopNegy" : 0,
  "noKorcsopNegy" : 70,
  "ffiKorcsopOt" : 0,
  "noKorcsopOt" : 75,
  "ffiKorcsopHat" : 0,
  "noKorcsopHat" : 90,
  "ffiKorcsopHet" : 0,
  "noKorcsopHet" : 100
}, {
  "wattKg" : 140,
  "ffiKorcsopEgy" : 0,
  "noKorcsopEgy" : 0,
  "ffiKorcsopKetto" : 0,
  "noKorcsopKetto" : 0,
  "ffiKorcsopHarom" : 0,
  "noKorcsopHarom" : 65,
  "ffiKorcsopNegy" : 0,
  "noKorcsopNegy" : 70,
  "ffiKorcsopOt" : 0,
  "noKorcsopOt" : 75,
  "ffiKorcsopHat" : 0,
  "noKorcsopHat" : 85,
  "ffiKorcsopHet" : 0,
  "noKorcsopHet" : 100
}, {
  "wattKg" : 139,
  "ffiKorcsopEgy" : 0,
  "noKorcsopEgy" : 0,
  "ffiKorcsopKetto" : 0,
  "noKorcsopKetto" : 0,
  "ffiKorcsopHarom" : 0,
  "noKorcsopHarom" : 60,
  "ffiKorcsopNegy" : 0,
  "noKorcsopNegy" : 65,
  "ffiKorcsopOt" : 0,
  "noKorcsopOt" : 75,
  "ffiKorcsopHat" : 0,
  "noKorcsopHat" : 85,
  "ffiKorcsopHet" : 0,
  "noKorcsopHet" : 95
}, {
  "wattKg" : 138,
  "ffiKorcsopEgy" : 0,
  "noKorcsopEgy" : 0,
  "ffiKorcsopKetto" : 0,
  "noKorcsopKetto" : 0,
  "ffiKorcsopHarom" : 0,
  "noKorcsopHarom" : 0,
  "ffiKorcsopNegy" : 0,
  "noKorcsopNegy" : 65,
  "ffiKorcsopOt" : 0,
  "noKorcsopOt" : 75,
  "ffiKorcsopHat" : 0,
  "noKorcsopHat" : 85,
  "ffiKorcsopHet" : 0,
  "noKorcsopHet" : 95
}, {
  "wattKg" : 137,
  "ffiKorcsopEgy" : 0,
  "noKorcsopEgy" : 0,
  "ffiKorcsopKetto" : 0,
  "noKorcsopKetto" : 0,
  "ffiKorcsopHarom" : 0,
  "noKorcsopHarom" : 0,
  "ffiKorcsopNegy" : 0,
  "noKorcsopNegy" : 65,
  "ffiKorcsopOt" : 0,
  "noKorcsopOt" : 75,
  "ffiKorcsopHat" : 0,
  "noKorcsopHat" : 85,
  "ffiKorcsopHet" : 0,
  "noKorcsopHet" : 95
}, {
  "wattKg" : 136,
  "ffiKorcsopEgy" : 0,
  "noKorcsopEgy" : 0,
  "ffiKorcsopKetto" : 0,
  "noKorcsopKetto" : 0,
  "ffiKorcsopHarom" : 0,
  "noKorcsopHarom" : 0,
  "ffiKorcsopNegy" : 0,
  "noKorcsopNegy" : 65,
  "ffiKorcsopOt" : 0,
  "noKorcsopOt" : 70,
  "ffiKorcsopHat" : 0,
  "noKorcsopHat" : 85,
  "ffiKorcsopHet" : 0,
  "noKorcsopHet" : 95
}, {
  "wattKg" : 135,
  "ffiKorcsopEgy" : 0,
  "noKorcsopEgy" : 0,
  "ffiKorcsopKetto" : 0,
  "noKorcsopKetto" : 0,
  "ffiKorcsopHarom" : 0,
  "noKorcsopHarom" : 0,
  "ffiKorcsopNegy" : 0,
  "noKorcsopNegy" : 65,
  "ffiKorcsopOt" : 0,
  "noKorcsopOt" : 70,
  "ffiKorcsopHat" : 0,
  "noKorcsopHat" : 80,
  "ffiKorcsopHet" : 0,
  "noKorcsopHet" : 95
}, {
  "wattKg" : 134,
  "ffiKorcsopEgy" : 0,
  "noKorcsopEgy" : 0,
  "ffiKorcsopKetto" : 0,
  "noKorcsopKetto" : 0,
  "ffiKorcsopHarom" : 0,
  "noKorcsopHarom" : 0,
  "ffiKorcsopNegy" : 0,
  "noKorcsopNegy" : 65,
  "ffiKorcsopOt" : 0,
  "noKorcsopOt" : 70,
  "ffiKorcsopHat" : 0,
  "noKorcsopHat" : 80,
  "ffiKorcsopHet" : 0,
  "noKorcsopHet" : 95
}, {
  "wattKg" : 133,
  "ffiKorcsopEgy" : 0,
  "noKorcsopEgy" : 0,
  "ffiKorcsopKetto" : 0,
  "noKorcsopKetto" : 0,
  "ffiKorcsopHarom" : 0,
  "noKorcsopHarom" : 0,
  "ffiKorcsopNegy" : 0,
  "noKorcsopNegy" : 65,
  "ffiKorcsopOt" : 0,
  "noKorcsopOt" : 70,
  "ffiKorcsopHat" : 0,
  "noKorcsopHat" : 80,
  "ffiKorcsopHet" : 0,
  "noKorcsopHet" : 90
}, {
  "wattKg" : 132,
  "ffiKorcsopEgy" : 0,
  "noKorcsopEgy" : 0,
  "ffiKorcsopKetto" : 0,
  "noKorcsopKetto" : 0,
  "ffiKorcsopHarom" : 0,
  "noKorcsopHarom" : 0,
  "ffiKorcsopNegy" : 0,
  "noKorcsopNegy" : 60,
  "ffiKorcsopOt" : 0,
  "noKorcsopOt" : 70,
  "ffiKorcsopHat" : 0,
  "noKorcsopHat" : 80,
  "ffiKorcsopHet" : 0,
  "noKorcsopHet" : 90
}, {
  "wattKg" : 131,
  "ffiKorcsopEgy" : 0,
  "noKorcsopEgy" : 0,
  "ffiKorcsopKetto" : 0,
  "noKorcsopKetto" : 0,
  "ffiKorcsopHarom" : 0,
  "noKorcsopHarom" : 0,
  "ffiKorcsopNegy" : 0,
  "noKorcsopNegy" : 0,
  "ffiKorcsopOt" : 0,
  "noKorcsopOt" : 70,
  "ffiKorcsopHat" : 0,
  "noKorcsopHat" : 80,
  "ffiKorcsopHet" : 0,
  "noKorcsopHet" : 90
}, {
  "wattKg" : 130,
  "ffiKorcsopEgy" : 0,
  "noKorcsopEgy" : 0,
  "ffiKorcsopKetto" : 0,
  "noKorcsopKetto" : 0,
  "ffiKorcsopHarom" : 0,
  "noKorcsopHarom" : 0,
  "ffiKorcsopNegy" : 0,
  "noKorcsopNegy" : 0,
  "ffiKorcsopOt" : 0,
  "noKorcsopOt" : 70,
  "ffiKorcsopHat" : 0,
  "noKorcsopHat" : 80,
  "ffiKorcsopHet" : 0,
  "noKorcsopHet" : 90
}, {
  "wattKg" : 129,
  "ffiKorcsopEgy" : 0,
  "noKorcsopEgy" : 0,
  "ffiKorcsopKetto" : 0,
  "noKorcsopKetto" : 0,
  "ffiKorcsopHarom" : 0,
  "noKorcsopHarom" : 0,
  "ffiKorcsopNegy" : 0,
  "noKorcsopNegy" : 0,
  "ffiKorcsopOt" : 0,
  "noKorcsopOt" : 65,
  "ffiKorcsopHat" : 0,
  "noKorcsopHat" : 75,
  "ffiKorcsopHet" : 0,
  "noKorcsopHet" : 90
}, {
  "wattKg" : 128,
  "ffiKorcsopEgy" : 0,
  "noKorcsopEgy" : 0,
  "ffiKorcsopKetto" : 0,
  "noKorcsopKetto" : 0,
  "ffiKorcsopHarom" : 0,
  "noKorcsopHarom" : 0,
  "ffiKorcsopNegy" : 0,
  "noKorcsopNegy" : 0,
  "ffiKorcsopOt" : 0,
  "noKorcsopOt" : 65,
  "ffiKorcsopHat" : 0,
  "noKorcsopHat" : 75,
  "ffiKorcsopHet" : 0,
  "noKorcsopHet" : 85
}, {
  "wattKg" : 127,
  "ffiKorcsopEgy" : 0,
  "noKorcsopEgy" : 0,
  "ffiKorcsopKetto" : 0,
  "noKorcsopKetto" : 0,
  "ffiKorcsopHarom" : 0,
  "noKorcsopHarom" : 0,
  "ffiKorcsopNegy" : 0,
  "noKorcsopNegy" : 0,
  "ffiKorcsopOt" : 0,
  "noKorcsopOt" : 65,
  "ffiKorcsopHat" : 0,
  "noKorcsopHat" : 75,
  "ffiKorcsopHet" : 0,
  "noKorcsopHet" : 85
}, {
  "wattKg" : 126,
  "ffiKorcsopEgy" : 0,
  "noKorcsopEgy" : 0,
  "ffiKorcsopKetto" : 0,
  "noKorcsopKetto" : 0,
  "ffiKorcsopHarom" : 0,
  "noKorcsopHarom" : 0,
  "ffiKorcsopNegy" : 0,
  "noKorcsopNegy" : 0,
  "ffiKorcsopOt" : 0,
  "noKorcsopOt" : 65,
  "ffiKorcsopHat" : 0,
  "noKorcsopHat" : 75,
  "ffiKorcsopHet" : 0,
  "noKorcsopHet" : 85
}, {
  "wattKg" : 125,
  "ffiKorcsopEgy" : 0,
  "noKorcsopEgy" : 0,
  "ffiKorcsopKetto" : 0,
  "noKorcsopKetto" : 0,
  "ffiKorcsopHarom" : 0,
  "noKorcsopHarom" : 0,
  "ffiKorcsopNegy" : 0,
  "noKorcsopNegy" : 0,
  "ffiKorcsopOt" : 0,
  "noKorcsopOt" : 65,
  "ffiKorcsopHat" : 0,
  "noKorcsopHat" : 75,
  "ffiKorcsopHet" : 0,
  "noKorcsopHet" : 85
}, {
  "wattKg" : 124,
  "ffiKorcsopEgy" : 0,
  "noKorcsopEgy" : 0,
  "ffiKorcsopKetto" : 0,
  "noKorcsopKetto" : 0,
  "ffiKorcsopHarom" : 0,
  "noKorcsopHarom" : 0,
  "ffiKorcsopNegy" : 0,
  "noKorcsopNegy" : 0,
  "ffiKorcsopOt" : 0,
  "noKorcsopOt" : 65,
  "ffiKorcsopHat" : 0,
  "noKorcsopHat" : 75,
  "ffiKorcsopHet" : 0,
  "noKorcsopHet" : 85
}, {
  "wattKg" : 123,
  "ffiKorcsopEgy" : 0,
  "noKorcsopEgy" : 0,
  "ffiKorcsopKetto" : 0,
  "noKorcsopKetto" : 0,
  "ffiKorcsopHarom" : 0,
  "noKorcsopHarom" : 0,
  "ffiKorcsopNegy" : 0,
  "noKorcsopNegy" : 0,
  "ffiKorcsopOt" : 0,
  "noKorcsopOt" : 60,
  "ffiKorcsopHat" : 0,
  "noKorcsopHat" : 70,
  "ffiKorcsopHet" : 0,
  "noKorcsopHet" : 80
}, {
  "wattKg" : 122,
  "ffiKorcsopEgy" : 0,
  "noKorcsopEgy" : 0,
  "ffiKorcsopKetto" : 0,
  "noKorcsopKetto" : 0,
  "ffiKorcsopHarom" : 0,
  "noKorcsopHarom" : 0,
  "ffiKorcsopNegy" : 0,
  "noKorcsopNegy" : 0,
  "ffiKorcsopOt" : 0,
  "noKorcsopOt" : 0,
  "ffiKorcsopHat" : 0,
  "noKorcsopHat" : 70,
  "ffiKorcsopHet" : 0,
  "noKorcsopHet" : 80
}, {
  "wattKg" : 121,
  "ffiKorcsopEgy" : 0,
  "noKorcsopEgy" : 0,
  "ffiKorcsopKetto" : 0,
  "noKorcsopKetto" : 0,
  "ffiKorcsopHarom" : 0,
  "noKorcsopHarom" : 0,
  "ffiKorcsopNegy" : 0,
  "noKorcsopNegy" : 0,
  "ffiKorcsopOt" : 0,
  "noKorcsopOt" : 0,
  "ffiKorcsopHat" : 0,
  "noKorcsopHat" : 70,
  "ffiKorcsopHet" : 0,
  "noKorcsopHet" : 80
}, {
  "wattKg" : 120,
  "ffiKorcsopEgy" : 0,
  "noKorcsopEgy" : 0,
  "ffiKorcsopKetto" : 0,
  "noKorcsopKetto" : 0,
  "ffiKorcsopHarom" : 0,
  "noKorcsopHarom" : 0,
  "ffiKorcsopNegy" : 0,
  "noKorcsopNegy" : 0,
  "ffiKorcsopOt" : 0,
  "noKorcsopOt" : 0,
  "ffiKorcsopHat" : 0,
  "noKorcsopHat" : 70,
  "ffiKorcsopHet" : 0,
  "noKorcsopHet" : 80
}, {
  "wattKg" : 119,
  "ffiKorcsopEgy" : 0,
  "noKorcsopEgy" : 0,
  "ffiKorcsopKetto" : 0,
  "noKorcsopKetto" : 0,
  "ffiKorcsopHarom" : 0,
  "noKorcsopHarom" : 0,
  "ffiKorcsopNegy" : 0,
  "noKorcsopNegy" : 0,
  "ffiKorcsopOt" : 0,
  "noKorcsopOt" : 0,
  "ffiKorcsopHat" : 0,
  "noKorcsopHat" : 70,
  "ffiKorcsopHet" : 0,
  "noKorcsopHet" : 80
}, {
  "wattKg" : 118,
  "ffiKorcsopEgy" : 0,
  "noKorcsopEgy" : 0,
  "ffiKorcsopKetto" : 0,
  "noKorcsopKetto" : 0,
  "ffiKorcsopHarom" : 0,
  "noKorcsopHarom" : 0,
  "ffiKorcsopNegy" : 0,
  "noKorcsopNegy" : 0,
  "ffiKorcsopOt" : 0,
  "noKorcsopOt" : 0,
  "ffiKorcsopHat" : 0,
  "noKorcsopHat" : 70,
  "ffiKorcsopHet" : 0,
  "noKorcsopHet" : 80
}, {
  "wattKg" : 117,
  "ffiKorcsopEgy" : 0,
  "noKorcsopEgy" : 0,
  "ffiKorcsopKetto" : 0,
  "noKorcsopKetto" : 0,
  "ffiKorcsopHarom" : 0,
  "noKorcsopHarom" : 0,
  "ffiKorcsopNegy" : 0,
  "noKorcsopNegy" : 0,
  "ffiKorcsopOt" : 0,
  "noKorcsopOt" : 0,
  "ffiKorcsopHat" : 0,
  "noKorcsopHat" : 65,
  "ffiKorcsopHet" : 0,
  "noKorcsopHet" : 75
}, {
  "wattKg" : 116,
  "ffiKorcsopEgy" : 0,
  "noKorcsopEgy" : 0,
  "ffiKorcsopKetto" : 0,
  "noKorcsopKetto" : 0,
  "ffiKorcsopHarom" : 0,
  "noKorcsopHarom" : 0,
  "ffiKorcsopNegy" : 0,
  "noKorcsopNegy" : 0,
  "ffiKorcsopOt" : 0,
  "noKorcsopOt" : 0,
  "ffiKorcsopHat" : 0,
  "noKorcsopHat" : 65,
  "ffiKorcsopHet" : 0,
  "noKorcsopHet" : 75
}, {
  "wattKg" : 115,
  "ffiKorcsopEgy" : 0,
  "noKorcsopEgy" : 0,
  "ffiKorcsopKetto" : 0,
  "noKorcsopKetto" : 0,
  "ffiKorcsopHarom" : 0,
  "noKorcsopHarom" : 0,
  "ffiKorcsopNegy" : 0,
  "noKorcsopNegy" : 0,
  "ffiKorcsopOt" : 0,
  "noKorcsopOt" : 0,
  "ffiKorcsopHat" : 0,
  "noKorcsopHat" : 65,
  "ffiKorcsopHet" : 0,
  "noKorcsopHet" : 75
}, {
  "wattKg" : 114,
  "ffiKorcsopEgy" : 0,
  "noKorcsopEgy" : 0,
  "ffiKorcsopKetto" : 0,
  "noKorcsopKetto" : 0,
  "ffiKorcsopHarom" : 0,
  "noKorcsopHarom" : 0,
  "ffiKorcsopNegy" : 0,
  "noKorcsopNegy" : 0,
  "ffiKorcsopOt" : 0,
  "noKorcsopOt" : 0,
  "ffiKorcsopHat" : 0,
  "noKorcsopHat" : 65,
  "ffiKorcsopHet" : 0,
  "noKorcsopHet" : 75
}, {
  "wattKg" : 113,
  "ffiKorcsopEgy" : 0,
  "noKorcsopEgy" : 0,
  "ffiKorcsopKetto" : 0,
  "noKorcsopKetto" : 0,
  "ffiKorcsopHarom" : 0,
  "noKorcsopHarom" : 0,
  "ffiKorcsopNegy" : 0,
  "noKorcsopNegy" : 0,
  "ffiKorcsopOt" : 0,
  "noKorcsopOt" : 0,
  "ffiKorcsopHat" : 0,
  "noKorcsopHat" : 65,
  "ffiKorcsopHet" : 0,
  "noKorcsopHet" : 75
}, {
  "wattKg" : 112,
  "ffiKorcsopEgy" : 0,
  "noKorcsopEgy" : 0,
  "ffiKorcsopKetto" : 0,
  "noKorcsopKetto" : 0,
  "ffiKorcsopHarom" : 0,
  "noKorcsopHarom" : 0,
  "ffiKorcsopNegy" : 0,
  "noKorcsopNegy" : 0,
  "ffiKorcsopOt" : 0,
  "noKorcsopOt" : 0,
  "ffiKorcsopHat" : 0,
  "noKorcsopHat" : 60,
  "ffiKorcsopHet" : 0,
  "noKorcsopHet" : 70
}, {
  "wattKg" : 111,
  "ffiKorcsopEgy" : 0,
  "noKorcsopEgy" : 0,
  "ffiKorcsopKetto" : 0,
  "noKorcsopKetto" : 0,
  "ffiKorcsopHarom" : 0,
  "noKorcsopHarom" : 0,
  "ffiKorcsopNegy" : 0,
  "noKorcsopNegy" : 0,
  "ffiKorcsopOt" : 0,
  "noKorcsopOt" : 0,
  "ffiKorcsopHat" : 0,
  "noKorcsopHat" : 0,
  "ffiKorcsopHet" : 0,
  "noKorcsopHet" : 70
}, {
  "wattKg" : 110,
  "ffiKorcsopEgy" : 0,
  "noKorcsopEgy" : 0,
  "ffiKorcsopKetto" : 0,
  "noKorcsopKetto" : 0,
  "ffiKorcsopHarom" : 0,
  "noKorcsopHarom" : 0,
  "ffiKorcsopNegy" : 0,
  "noKorcsopNegy" : 0,
  "ffiKorcsopOt" : 0,
  "noKorcsopOt" : 0,
  "ffiKorcsopHat" : 0,
  "noKorcsopHat" : 0,
  "ffiKorcsopHet" : 0,
  "noKorcsopHet" : 70
}, {
  "wattKg" : 109,
  "ffiKorcsopEgy" : 0,
  "noKorcsopEgy" : 0,
  "ffiKorcsopKetto" : 0,
  "noKorcsopKetto" : 0,
  "ffiKorcsopHarom" : 0,
  "noKorcsopHarom" : 0,
  "ffiKorcsopNegy" : 0,
  "noKorcsopNegy" : 0,
  "ffiKorcsopOt" : 0,
  "noKorcsopOt" : 0,
  "ffiKorcsopHat" : 0,
  "noKorcsopHat" : 0,
  "ffiKorcsopHet" : 0,
  "noKorcsopHet" : 70
}, {
  "wattKg" : 108,
  "ffiKorcsopEgy" : 0,
  "noKorcsopEgy" : 0,
  "ffiKorcsopKetto" : 0,
  "noKorcsopKetto" : 0,
  "ffiKorcsopHarom" : 0,
  "noKorcsopHarom" : 0,
  "ffiKorcsopNegy" : 0,
  "noKorcsopNegy" : 0,
  "ffiKorcsopOt" : 0,
  "noKorcsopOt" : 0,
  "ffiKorcsopHat" : 0,
  "noKorcsopHat" : 0,
  "ffiKorcsopHet" : 0,
  "noKorcsopHet" : 70
}, {
  "wattKg" : 107,
  "ffiKorcsopEgy" : 0,
  "noKorcsopEgy" : 0,
  "ffiKorcsopKetto" : 0,
  "noKorcsopKetto" : 0,
  "ffiKorcsopHarom" : 0,
  "noKorcsopHarom" : 0,
  "ffiKorcsopNegy" : 0,
  "noKorcsopNegy" : 0,
  "ffiKorcsopOt" : 0,
  "noKorcsopOt" : 0,
  "ffiKorcsopHat" : 0,
  "noKorcsopHat" : 0,
  "ffiKorcsopHet" : 0,
  "noKorcsopHet" : 70
}, {
  "wattKg" : 106,
  "ffiKorcsopEgy" : 0,
  "noKorcsopEgy" : 0,
  "ffiKorcsopKetto" : 0,
  "noKorcsopKetto" : 0,
  "ffiKorcsopHarom" : 0,
  "noKorcsopHarom" : 0,
  "ffiKorcsopNegy" : 0,
  "noKorcsopNegy" : 0,
  "ffiKorcsopOt" : 0,
  "noKorcsopOt" : 0,
  "ffiKorcsopHat" : 0,
  "noKorcsopHat" : 0,
  "ffiKorcsopHet" : 0,
  "noKorcsopHet" : 65
}, {
  "wattKg" : 105,
  "ffiKorcsopEgy" : 0,
  "noKorcsopEgy" : 0,
  "ffiKorcsopKetto" : 0,
  "noKorcsopKetto" : 0,
  "ffiKorcsopHarom" : 0,
  "noKorcsopHarom" : 0,
  "ffiKorcsopNegy" : 0,
  "noKorcsopNegy" : 0,
  "ffiKorcsopOt" : 0,
  "noKorcsopOt" : 0,
  "ffiKorcsopHat" : 0,
  "noKorcsopHat" : 0,
  "ffiKorcsopHet" : 0,
  "noKorcsopHet" : 65
}, {
  "wattKg" : 104,
  "ffiKorcsopEgy" : 0,
  "noKorcsopEgy" : 0,
  "ffiKorcsopKetto" : 0,
  "noKorcsopKetto" : 0,
  "ffiKorcsopHarom" : 0,
  "noKorcsopHarom" : 0,
  "ffiKorcsopNegy" : 0,
  "noKorcsopNegy" : 0,
  "ffiKorcsopOt" : 0,
  "noKorcsopOt" : 0,
  "ffiKorcsopHat" : 0,
  "noKorcsopHat" : 0,
  "ffiKorcsopHet" : 0,
  "noKorcsopHet" : 65
}, {
  "wattKg" : 103,
  "ffiKorcsopEgy" : 0,
  "noKorcsopEgy" : 0,
  "ffiKorcsopKetto" : 0,
  "noKorcsopKetto" : 0,
  "ffiKorcsopHarom" : 0,
  "noKorcsopHarom" : 0,
  "ffiKorcsopNegy" : 0,
  "noKorcsopNegy" : 0,
  "ffiKorcsopOt" : 0,
  "noKorcsopOt" : 0,
  "ffiKorcsopHat" : 0,
  "noKorcsopHat" : 0,
  "ffiKorcsopHet" : 0,
  "noKorcsopHet" : 65
}, {
  "wattKg" : 102,
  "ffiKorcsopEgy" : 0,
  "noKorcsopEgy" : 0,
  "ffiKorcsopKetto" : 0,
  "noKorcsopKetto" : 0,
  "ffiKorcsopHarom" : 0,
  "noKorcsopHarom" : 0,
  "ffiKorcsopNegy" : 0,
  "noKorcsopNegy" : 0,
  "ffiKorcsopOt" : 0,
  "noKorcsopOt" : 0,
  "ffiKorcsopHat" : 0,
  "noKorcsopHat" : 0,
  "ffiKorcsopHet" : 0,
  "noKorcsopHet" : 65
}, {
  "wattKg" : 101,
  "ffiKorcsopEgy" : 0,
  "noKorcsopEgy" : 0,
  "ffiKorcsopKetto" : 0,
  "noKorcsopKetto" : 0,
  "ffiKorcsopHarom" : 0,
  "noKorcsopHarom" : 0,
  "ffiKorcsopNegy" : 0,
  "noKorcsopNegy" : 0,
  "ffiKorcsopOt" : 0,
  "noKorcsopOt" : 0,
  "ffiKorcsopHat" : 0,
  "noKorcsopHat" : 0,
  "ffiKorcsopHet" : 0,
  "noKorcsopHet" : 65
}, {
  "wattKg" : 100,
  "ffiKorcsopEgy" : 0,
  "noKorcsopEgy" : 0,
  "ffiKorcsopKetto" : 0,
  "noKorcsopKetto" : 0,
  "ffiKorcsopHarom" : 0,
  "noKorcsopHarom" : 0,
  "ffiKorcsopNegy" : 0,
  "noKorcsopNegy" : 0,
  "ffiKorcsopOt" : 0,
  "noKorcsopOt" : 0,
  "ffiKorcsopHat" : 0,
  "noKorcsopHat" : 0,
  "ffiKorcsopHet" : 0,
  "noKorcsopHet" : 60
}, {
  "wattKg" : 99,
  "ffiKorcsopEgy" : 0,
  "noKorcsopEgy" : 0,
  "ffiKorcsopKetto" : 0,
  "noKorcsopKetto" : 0,
  "ffiKorcsopHarom" : 0,
  "noKorcsopHarom" : 0,
  "ffiKorcsopNegy" : 0,
  "noKorcsopNegy" : 0,
  "ffiKorcsopOt" : 0,
  "noKorcsopOt" : 0,
  "ffiKorcsopHat" : 0,
  "noKorcsopHat" : 0,
  "ffiKorcsopHet" : 0,
  "noKorcsopHet" : 0
} ]