[ {
  "ismetles" : 75,
  "ffiKorcsopEgy" : 100,
  "noKorcsopEgy" : 100,
  "ffiKorcsopKetto" : 100,
  "noKorcsopKetto" : 100,
  "ffiKorcsopHarom" : 100,
  "noKorcsopHarom" : 100,
  "ffiKorcsopNegy" : 100,
  "noKorcsopNegy" : 100,
  "ffiKorcsopOt" : 100,
  "noKorcsopOt" : 100,
  "ffiKorcsopHat" : 100,
  "noKorcsopHat" : 100,
  "ffiKorcsopHet" : 100,
  "noKorcsopHet" : 100,
  "ffiKorcsopNyolc" : 100,
  "noKorcsopNyolc" : 100,
  "ffiKorcsopKilenc" : 100,
  "noKorcsopKilenc" : 100
}, {
  "ismetles" : 74,
  "ffiKorcsopEgy" : 100,
  "noKorcsopEgy" : 100,
  "ffiKorcsopKetto" : 99,
  "noKorcsopKetto" : 99,
  "ffiKorcsopHarom" : 100,
  "noKorcsopHarom" : 100,
  "ffiKorcsopNegy" : 100,
  "noKorcsopNegy" : 100,
  "ffiKorcsopOt" : 100,
  "noKorcsopOt" : 100,
  "ffiKorcsopHat" : 100,
  "noKorcsopHat" : 100,
  "ffiKorcsopHet" : 100,
  "noKorcsopHet" : 100,
  "ffiKorcsopNyolc" : 100,
  "noKorcsopNyolc" : 100,
  "ffiKorcsopKilenc" : 100,
  "noKorcsopKilenc" : 100
}, {
  "ismetles" : 73,
  "ffiKorcsopEgy" : 100,
  "noKorcsopEgy" : 100,
  "ffiKorcsopKetto" : 98,
  "noKorcsopKetto" : 98,
  "ffiKorcsopHarom" : 100,
  "noKorcsopHarom" : 100,
  "ffiKorcsopNegy" : 100,
  "noKorcsopNegy" : 100,
  "ffiKorcsopOt" : 100,
  "noKorcsopOt" : 100,
  "ffiKorcsopHat" : 100,
  "noKorcsopHat" : 100,
  "ffiKorcsopHet" : 100,
  "noKorcsopHet" : 100,
  "ffiKorcsopNyolc" : 100,
  "noKorcsopNyolc" : 100,
  "ffiKorcsopKilenc" : 100,
  "noKorcsopKilenc" : 100
}, {
  "ismetles" : 72,
  "ffiKorcsopEgy" : 100,
  "noKorcsopEgy" : 100,
  "ffiKorcsopKetto" : 97,
  "noKorcsopKetto" : 97,
  "ffiKorcsopHarom" : 100,
  "noKorcsopHarom" : 100,
  "ffiKorcsopNegy" : 100,
  "noKorcsopNegy" : 100,
  "ffiKorcsopOt" : 100,
  "noKorcsopOt" : 100,
  "ffiKorcsopHat" : 100,
  "noKorcsopHat" : 100,
  "ffiKorcsopHet" : 100,
  "noKorcsopHet" : 100,
  "ffiKorcsopNyolc" : 100,
  "noKorcsopNyolc" : 100,
  "ffiKorcsopKilenc" : 100,
  "noKorcsopKilenc" : 100
}, {
  "ismetles" : 71,
  "ffiKorcsopEgy" : 100,
  "noKorcsopEgy" : 100,
  "ffiKorcsopKetto" : 96,
  "noKorcsopKetto" : 96,
  "ffiKorcsopHarom" : 100,
  "noKorcsopHarom" : 100,
  "ffiKorcsopNegy" : 100,
  "noKorcsopNegy" : 100,
  "ffiKorcsopOt" : 100,
  "noKorcsopOt" : 100,
  "ffiKorcsopHat" : 100,
  "noKorcsopHat" : 100,
  "ffiKorcsopHet" : 100,
  "noKorcsopHet" : 100,
  "ffiKorcsopNyolc" : 100,
  "noKorcsopNyolc" : 100,
  "ffiKorcsopKilenc" : 100,
  "noKorcsopKilenc" : 100
}, {
  "ismetles" : 70,
  "ffiKorcsopEgy" : 100,
  "noKorcsopEgy" : 100,
  "ffiKorcsopKetto" : 95,
  "noKorcsopKetto" : 95,
  "ffiKorcsopHarom" : 100,
  "noKorcsopHarom" : 100,
  "ffiKorcsopNegy" : 100,
  "noKorcsopNegy" : 100,
  "ffiKorcsopOt" : 100,
  "noKorcsopOt" : 100,
  "ffiKorcsopHat" : 100,
  "noKorcsopHat" : 100,
  "ffiKorcsopHet" : 100,
  "noKorcsopHet" : 100,
  "ffiKorcsopNyolc" : 100,
  "noKorcsopNyolc" : 100,
  "ffiKorcsopKilenc" : 100,
  "noKorcsopKilenc" : 100
}, {
  "ismetles" : 69,
  "ffiKorcsopEgy" : 99,
  "noKorcsopEgy" : 99,
  "ffiKorcsopKetto" : 94,
  "noKorcsopKetto" : 94,
  "ffiKorcsopHarom" : 99,
  "noKorcsopHarom" : 99,
  "ffiKorcsopNegy" : 100,
  "noKorcsopNegy" : 100,
  "ffiKorcsopOt" : 100,
  "noKorcsopOt" : 100,
  "ffiKorcsopHat" : 100,
  "noKorcsopHat" : 100,
  "ffiKorcsopHet" : 100,
  "noKorcsopHet" : 100,
  "ffiKorcsopNyolc" : 100,
  "noKorcsopNyolc" : 100,
  "ffiKorcsopKilenc" : 100,
  "noKorcsopKilenc" : 100
}, {
  "ismetles" : 68,
  "ffiKorcsopEgy" : 98,
  "noKorcsopEgy" : 98,
  "ffiKorcsopKetto" : 93,
  "noKorcsopKetto" : 93,
  "ffiKorcsopHarom" : 98,
  "noKorcsopHarom" : 98,
  "ffiKorcsopNegy" : 100,
  "noKorcsopNegy" : 100,
  "ffiKorcsopOt" : 100,
  "noKorcsopOt" : 100,
  "ffiKorcsopHat" : 100,
  "noKorcsopHat" : 100,
  "ffiKorcsopHet" : 100,
  "noKorcsopHet" : 100,
  "ffiKorcsopNyolc" : 100,
  "noKorcsopNyolc" : 100,
  "ffiKorcsopKilenc" : 100,
  "noKorcsopKilenc" : 100
}, {
  "ismetles" : 67,
  "ffiKorcsopEgy" : 97,
  "noKorcsopEgy" : 97,
  "ffiKorcsopKetto" : 92,
  "noKorcsopKetto" : 92,
  "ffiKorcsopHarom" : 97,
  "noKorcsopHarom" : 97,
  "ffiKorcsopNegy" : 100,
  "noKorcsopNegy" : 100,
  "ffiKorcsopOt" : 100,
  "noKorcsopOt" : 100,
  "ffiKorcsopHat" : 100,
  "noKorcsopHat" : 100,
  "ffiKorcsopHet" : 100,
  "noKorcsopHet" : 100,
  "ffiKorcsopNyolc" : 100,
  "noKorcsopNyolc" : 100,
  "ffiKorcsopKilenc" : 100,
  "noKorcsopKilenc" : 100
}, {
  "ismetles" : 66,
  "ffiKorcsopEgy" : 96,
  "noKorcsopEgy" : 96,
  "ffiKorcsopKetto" : 91,
  "noKorcsopKetto" : 91,
  "ffiKorcsopHarom" : 96,
  "noKorcsopHarom" : 96,
  "ffiKorcsopNegy" : 100,
  "noKorcsopNegy" : 100,
  "ffiKorcsopOt" : 100,
  "noKorcsopOt" : 100,
  "ffiKorcsopHat" : 100,
  "noKorcsopHat" : 100,
  "ffiKorcsopHet" : 100,
  "noKorcsopHet" : 100,
  "ffiKorcsopNyolc" : 100,
  "noKorcsopNyolc" : 100,
  "ffiKorcsopKilenc" : 100,
  "noKorcsopKilenc" : 100
}, {
  "ismetles" : 65,
  "ffiKorcsopEgy" : 95,
  "noKorcsopEgy" : 95,
  "ffiKorcsopKetto" : 90,
  "noKorcsopKetto" : 90,
  "ffiKorcsopHarom" : 95,
  "noKorcsopHarom" : 95,
  "ffiKorcsopNegy" : 100,
  "noKorcsopNegy" : 100,
  "ffiKorcsopOt" : 100,
  "noKorcsopOt" : 100,
  "ffiKorcsopHat" : 100,
  "noKorcsopHat" : 100,
  "ffiKorcsopHet" : 100,
  "noKorcsopHet" : 100,
  "ffiKorcsopNyolc" : 100,
  "noKorcsopNyolc" : 100,
  "ffiKorcsopKilenc" : 100,
  "noKorcsopKilenc" : 100
}, {
  "ismetles" : 64,
  "ffiKorcsopEgy" : 94,
  "noKorcsopEgy" : 94,
  "ffiKorcsopKetto" : 89,
  "noKorcsopKetto" : 89,
  "ffiKorcsopHarom" : 94,
  "noKorcsopHarom" : 94,
  "ffiKorcsopNegy" : 99,
  "noKorcsopNegy" : 99,
  "ffiKorcsopOt" : 100,
  "noKorcsopOt" : 100,
  "ffiKorcsopHat" : 100,
  "noKorcsopHat" : 100,
  "ffiKorcsopHet" : 100,
  "noKorcsopHet" : 100,
  "ffiKorcsopNyolc" : 100,
  "noKorcsopNyolc" : 100,
  "ffiKorcsopKilenc" : 100,
  "noKorcsopKilenc" : 100
}, {
  "ismetles" : 63,
  "ffiKorcsopEgy" : 93,
  "noKorcsopEgy" : 93,
  "ffiKorcsopKetto" : 88,
  "noKorcsopKetto" : 88,
  "ffiKorcsopHarom" : 93,
  "noKorcsopHarom" : 93,
  "ffiKorcsopNegy" : 98,
  "noKorcsopNegy" : 98,
  "ffiKorcsopOt" : 100,
  "noKorcsopOt" : 100,
  "ffiKorcsopHat" : 100,
  "noKorcsopHat" : 100,
  "ffiKorcsopHet" : 100,
  "noKorcsopHet" : 100,
  "ffiKorcsopNyolc" : 100,
  "noKorcsopNyolc" : 100,
  "ffiKorcsopKilenc" : 100,
  "noKorcsopKilenc" : 100
}, {
  "ismetles" : 62,
  "ffiKorcsopEgy" : 92,
  "noKorcsopEgy" : 92,
  "ffiKorcsopKetto" : 87,
  "noKorcsopKetto" : 87,
  "ffiKorcsopHarom" : 92,
  "noKorcsopHarom" : 92,
  "ffiKorcsopNegy" : 97,
  "noKorcsopNegy" : 97,
  "ffiKorcsopOt" : 100,
  "noKorcsopOt" : 100,
  "ffiKorcsopHat" : 100,
  "noKorcsopHat" : 100,
  "ffiKorcsopHet" : 100,
  "noKorcsopHet" : 100,
  "ffiKorcsopNyolc" : 100,
  "noKorcsopNyolc" : 100,
  "ffiKorcsopKilenc" : 100,
  "noKorcsopKilenc" : 100
}, {
  "ismetles" : 61,
  "ffiKorcsopEgy" : 91,
  "noKorcsopEgy" : 91,
  "ffiKorcsopKetto" : 86,
  "noKorcsopKetto" : 86,
  "ffiKorcsopHarom" : 91,
  "noKorcsopHarom" : 91,
  "ffiKorcsopNegy" : 96,
  "noKorcsopNegy" : 96,
  "ffiKorcsopOt" : 100,
  "noKorcsopOt" : 100,
  "ffiKorcsopHat" : 100,
  "noKorcsopHat" : 100,
  "ffiKorcsopHet" : 100,
  "noKorcsopHet" : 100,
  "ffiKorcsopNyolc" : 100,
  "noKorcsopNyolc" : 100,
  "ffiKorcsopKilenc" : 100,
  "noKorcsopKilenc" : 100
}, {
  "ismetles" : 60,
  "ffiKorcsopEgy" : 90,
  "noKorcsopEgy" : 90,
  "ffiKorcsopKetto" : 85,
  "noKorcsopKetto" : 85,
  "ffiKorcsopHarom" : 90,
  "noKorcsopHarom" : 90,
  "ffiKorcsopNegy" : 95,
  "noKorcsopNegy" : 95,
  "ffiKorcsopOt" : 100,
  "noKorcsopOt" : 100,
  "ffiKorcsopHat" : 100,
  "noKorcsopHat" : 100,
  "ffiKorcsopHet" : 100,
  "noKorcsopHet" : 100,
  "ffiKorcsopNyolc" : 100,
  "noKorcsopNyolc" : 100,
  "ffiKorcsopKilenc" : 100,
  "noKorcsopKilenc" : 100
}, {
  "ismetles" : 59,
  "ffiKorcsopEgy" : 89,
  "noKorcsopEgy" : 89,
  "ffiKorcsopKetto" : 84,
  "noKorcsopKetto" : 84,
  "ffiKorcsopHarom" : 89,
  "noKorcsopHarom" : 89,
  "ffiKorcsopNegy" : 94,
  "noKorcsopNegy" : 94,
  "ffiKorcsopOt" : 99,
  "noKorcsopOt" : 99,
  "ffiKorcsopHat" : 100,
  "noKorcsopHat" : 100,
  "ffiKorcsopHet" : 100,
  "noKorcsopHet" : 100,
  "ffiKorcsopNyolc" : 100,
  "noKorcsopNyolc" : 100,
  "ffiKorcsopKilenc" : 100,
  "noKorcsopKilenc" : 100
}, {
  "ismetles" : 58,
  "ffiKorcsopEgy" : 88,
  "noKorcsopEgy" : 88,
  "ffiKorcsopKetto" : 83,
  "noKorcsopKetto" : 83,
  "ffiKorcsopHarom" : 88,
  "noKorcsopHarom" : 88,
  "ffiKorcsopNegy" : 93,
  "noKorcsopNegy" : 93,
  "ffiKorcsopOt" : 98,
  "noKorcsopOt" : 98,
  "ffiKorcsopHat" : 100,
  "noKorcsopHat" : 100,
  "ffiKorcsopHet" : 100,
  "noKorcsopHet" : 100,
  "ffiKorcsopNyolc" : 100,
  "noKorcsopNyolc" : 100,
  "ffiKorcsopKilenc" : 100,
  "noKorcsopKilenc" : 100
}, {
  "ismetles" : 57,
  "ffiKorcsopEgy" : 87,
  "noKorcsopEgy" : 87,
  "ffiKorcsopKetto" : 82,
  "noKorcsopKetto" : 82,
  "ffiKorcsopHarom" : 87,
  "noKorcsopHarom" : 87,
  "ffiKorcsopNegy" : 92,
  "noKorcsopNegy" : 92,
  "ffiKorcsopOt" : 97,
  "noKorcsopOt" : 97,
  "ffiKorcsopHat" : 100,
  "noKorcsopHat" : 100,
  "ffiKorcsopHet" : 100,
  "noKorcsopHet" : 100,
  "ffiKorcsopNyolc" : 100,
  "noKorcsopNyolc" : 100,
  "ffiKorcsopKilenc" : 100,
  "noKorcsopKilenc" : 100
}, {
  "ismetles" : 56,
  "ffiKorcsopEgy" : 86,
  "noKorcsopEgy" : 86,
  "ffiKorcsopKetto" : 81,
  "noKorcsopKetto" : 81,
  "ffiKorcsopHarom" : 86,
  "noKorcsopHarom" : 86,
  "ffiKorcsopNegy" : 91,
  "noKorcsopNegy" : 91,
  "ffiKorcsopOt" : 96,
  "noKorcsopOt" : 96,
  "ffiKorcsopHat" : 100,
  "noKorcsopHat" : 100,
  "ffiKorcsopHet" : 100,
  "noKorcsopHet" : 100,
  "ffiKorcsopNyolc" : 100,
  "noKorcsopNyolc" : 100,
  "ffiKorcsopKilenc" : 100,
  "noKorcsopKilenc" : 100
}, {
  "ismetles" : 55,
  "ffiKorcsopEgy" : 85,
  "noKorcsopEgy" : 85,
  "ffiKorcsopKetto" : 80,
  "noKorcsopKetto" : 80,
  "ffiKorcsopHarom" : 85,
  "noKorcsopHarom" : 85,
  "ffiKorcsopNegy" : 90,
  "noKorcsopNegy" : 90,
  "ffiKorcsopOt" : 95,
  "noKorcsopOt" : 95,
  "ffiKorcsopHat" : 100,
  "noKorcsopHat" : 100,
  "ffiKorcsopHet" : 100,
  "noKorcsopHet" : 100,
  "ffiKorcsopNyolc" : 100,
  "noKorcsopNyolc" : 100,
  "ffiKorcsopKilenc" : 100,
  "noKorcsopKilenc" : 100
}, {
  "ismetles" : 54,
  "ffiKorcsopEgy" : 84,
  "noKorcsopEgy" : 84,
  "ffiKorcsopKetto" : 79,
  "noKorcsopKetto" : 79,
  "ffiKorcsopHarom" : 84,
  "noKorcsopHarom" : 84,
  "ffiKorcsopNegy" : 89,
  "noKorcsopNegy" : 89,
  "ffiKorcsopOt" : 94,
  "noKorcsopOt" : 94,
  "ffiKorcsopHat" : 100,
  "noKorcsopHat" : 100,
  "ffiKorcsopHet" : 100,
  "noKorcsopHet" : 100,
  "ffiKorcsopNyolc" : 100,
  "noKorcsopNyolc" : 100,
  "ffiKorcsopKilenc" : 100,
  "noKorcsopKilenc" : 100
}, {
  "ismetles" : 53,
  "ffiKorcsopEgy" : 83,
  "noKorcsopEgy" : 83,
  "ffiKorcsopKetto" : 78,
  "noKorcsopKetto" : 78,
  "ffiKorcsopHarom" : 83,
  "noKorcsopHarom" : 83,
  "ffiKorcsopNegy" : 88,
  "noKorcsopNegy" : 88,
  "ffiKorcsopOt" : 93,
  "noKorcsopOt" : 93,
  "ffiKorcsopHat" : 100,
  "noKorcsopHat" : 100,
  "ffiKorcsopHet" : 100,
  "noKorcsopHet" : 100,
  "ffiKorcsopNyolc" : 100,
  "noKorcsopNyolc" : 100,
  "ffiKorcsopKilenc" : 100,
  "noKorcsopKilenc" : 100
}, {
  "ismetles" : 52,
  "ffiKorcsopEgy" : 82,
  "noKorcsopEgy" : 82,
  "ffiKorcsopKetto" : 77,
  "noKorcsopKetto" : 77,
  "ffiKorcsopHarom" : 82,
  "noKorcsopHarom" : 82,
  "ffiKorcsopNegy" : 87,
  "noKorcsopNegy" : 87,
  "ffiKorcsopOt" : 92,
  "noKorcsopOt" : 92,
  "ffiKorcsopHat" : 99,
  "noKorcsopHat" : 99,
  "ffiKorcsopHet" : 100,
  "noKorcsopHet" : 100,
  "ffiKorcsopNyolc" : 100,
  "noKorcsopNyolc" : 100,
  "ffiKorcsopKilenc" : 100,
  "noKorcsopKilenc" : 100
}, {
  "ismetles" : 51,
  "ffiKorcsopEgy" : 81,
  "noKorcsopEgy" : 81,
  "ffiKorcsopKetto" : 76,
  "noKorcsopKetto" : 76,
  "ffiKorcsopHarom" : 81,
  "noKorcsopHarom" : 81,
  "ffiKorcsopNegy" : 86,
  "noKorcsopNegy" : 86,
  "ffiKorcsopOt" : 91,
  "noKorcsopOt" : 91,
  "ffiKorcsopHat" : 98,
  "noKorcsopHat" : 98,
  "ffiKorcsopHet" : 100,
  "noKorcsopHet" : 100,
  "ffiKorcsopNyolc" : 100,
  "noKorcsopNyolc" : 100,
  "ffiKorcsopKilenc" : 100,
  "noKorcsopKilenc" : 100
}, {
  "ismetles" : 50,
  "ffiKorcsopEgy" : 80,
  "noKorcsopEgy" : 80,
  "ffiKorcsopKetto" : 75,
  "noKorcsopKetto" : 75,
  "ffiKorcsopHarom" : 80,
  "noKorcsopHarom" : 80,
  "ffiKorcsopNegy" : 85,
  "noKorcsopNegy" : 85,
  "ffiKorcsopOt" : 90,
  "noKorcsopOt" : 90,
  "ffiKorcsopHat" : 97,
  "noKorcsopHat" : 97,
  "ffiKorcsopHet" : 100,
  "noKorcsopHet" : 100,
  "ffiKorcsopNyolc" : 100,
  "noKorcsopNyolc" : 100,
  "ffiKorcsopKilenc" : 100,
  "noKorcsopKilenc" : 100
}, {
  "ismetles" : 49,
  "ffiKorcsopEgy" : 79,
  "noKorcsopEgy" : 79,
  "ffiKorcsopKetto" : 74,
  "noKorcsopKetto" : 74,
  "ffiKorcsopHarom" : 79,
  "noKorcsopHarom" : 79,
  "ffiKorcsopNegy" : 84,
  "noKorcsopNegy" : 84,
  "ffiKorcsopOt" : 89,
  "noKorcsopOt" : 89,
  "ffiKorcsopHat" : 96,
  "noKorcsopHat" : 96,
  "ffiKorcsopHet" : 100,
  "noKorcsopHet" : 100,
  "ffiKorcsopNyolc" : 100,
  "noKorcsopNyolc" : 100,
  "ffiKorcsopKilenc" : 100,
  "noKorcsopKilenc" : 100
}, {
  "ismetles" : 48,
  "ffiKorcsopEgy" : 78,
  "noKorcsopEgy" : 78,
  "ffiKorcsopKetto" : 73,
  "noKorcsopKetto" : 73,
  "ffiKorcsopHarom" : 78,
  "noKorcsopHarom" : 78,
  "ffiKorcsopNegy" : 83,
  "noKorcsopNegy" : 83,
  "ffiKorcsopOt" : 88,
  "noKorcsopOt" : 88,
  "ffiKorcsopHat" : 95,
  "noKorcsopHat" : 95,
  "ffiKorcsopHet" : 100,
  "noKorcsopHet" : 100,
  "ffiKorcsopNyolc" : 100,
  "noKorcsopNyolc" : 100,
  "ffiKorcsopKilenc" : 100,
  "noKorcsopKilenc" : 100
}, {
  "ismetles" : 47,
  "ffiKorcsopEgy" : 77,
  "noKorcsopEgy" : 77,
  "ffiKorcsopKetto" : 72,
  "noKorcsopKetto" : 72,
  "ffiKorcsopHarom" : 77,
  "noKorcsopHarom" : 77,
  "ffiKorcsopNegy" : 82,
  "noKorcsopNegy" : 82,
  "ffiKorcsopOt" : 87,
  "noKorcsopOt" : 87,
  "ffiKorcsopHat" : 94,
  "noKorcsopHat" : 94,
  "ffiKorcsopHet" : 99,
  "noKorcsopHet" : 99,
  "ffiKorcsopNyolc" : 100,
  "noKorcsopNyolc" : 100,
  "ffiKorcsopKilenc" : 100,
  "noKorcsopKilenc" : 100
}, {
  "ismetles" : 46,
  "ffiKorcsopEgy" : 76,
  "noKorcsopEgy" : 76,
  "ffiKorcsopKetto" : 71,
  "noKorcsopKetto" : 71,
  "ffiKorcsopHarom" : 76,
  "noKorcsopHarom" : 76,
  "ffiKorcsopNegy" : 81,
  "noKorcsopNegy" : 81,
  "ffiKorcsopOt" : 86,
  "noKorcsopOt" : 86,
  "ffiKorcsopHat" : 93,
  "noKorcsopHat" : 93,
  "ffiKorcsopHet" : 98,
  "noKorcsopHet" : 98,
  "ffiKorcsopNyolc" : 100,
  "noKorcsopNyolc" : 100,
  "ffiKorcsopKilenc" : 100,
  "noKorcsopKilenc" : 100
}, {
  "ismetles" : 45,
  "ffiKorcsopEgy" : 75,
  "noKorcsopEgy" : 75,
  "ffiKorcsopKetto" : 70,
  "noKorcsopKetto" : 70,
  "ffiKorcsopHarom" : 75,
  "noKorcsopHarom" : 75,
  "ffiKorcsopNegy" : 80,
  "noKorcsopNegy" : 80,
  "ffiKorcsopOt" : 85,
  "noKorcsopOt" : 85,
  "ffiKorcsopHat" : 92,
  "noKorcsopHat" : 92,
  "ffiKorcsopHet" : 97,
  "noKorcsopHet" : 97,
  "ffiKorcsopNyolc" : 100,
  "noKorcsopNyolc" : 100,
  "ffiKorcsopKilenc" : 100,
  "noKorcsopKilenc" : 100
}, {
  "ismetles" : 44,
  "ffiKorcsopEgy" : 74,
  "noKorcsopEgy" : 74,
  "ffiKorcsopKetto" : 69,
  "noKorcsopKetto" : 69,
  "ffiKorcsopHarom" : 74,
  "noKorcsopHarom" : 74,
  "ffiKorcsopNegy" : 79,
  "noKorcsopNegy" : 79,
  "ffiKorcsopOt" : 84,
  "noKorcsopOt" : 84,
  "ffiKorcsopHat" : 91,
  "noKorcsopHat" : 91,
  "ffiKorcsopHet" : 96,
  "noKorcsopHet" : 96,
  "ffiKorcsopNyolc" : 100,
  "noKorcsopNyolc" : 100,
  "ffiKorcsopKilenc" : 100,
  "noKorcsopKilenc" : 100
}, {
  "ismetles" : 43,
  "ffiKorcsopEgy" : 73,
  "noKorcsopEgy" : 73,
  "ffiKorcsopKetto" : 68,
  "noKorcsopKetto" : 68,
  "ffiKorcsopHarom" : 73,
  "noKorcsopHarom" : 73,
  "ffiKorcsopNegy" : 78,
  "noKorcsopNegy" : 78,
  "ffiKorcsopOt" : 83,
  "noKorcsopOt" : 83,
  "ffiKorcsopHat" : 90,
  "noKorcsopHat" : 90,
  "ffiKorcsopHet" : 95,
  "noKorcsopHet" : 95,
  "ffiKorcsopNyolc" : 100,
  "noKorcsopNyolc" : 100,
  "ffiKorcsopKilenc" : 100,
  "noKorcsopKilenc" : 100
}, {
  "ismetles" : 42,
  "ffiKorcsopEgy" : 72,
  "noKorcsopEgy" : 72,
  "ffiKorcsopKetto" : 67,
  "noKorcsopKetto" : 67,
  "ffiKorcsopHarom" : 72,
  "noKorcsopHarom" : 72,
  "ffiKorcsopNegy" : 77,
  "noKorcsopNegy" : 77,
  "ffiKorcsopOt" : 82,
  "noKorcsopOt" : 82,
  "ffiKorcsopHat" : 89,
  "noKorcsopHat" : 89,
  "ffiKorcsopHet" : 94,
  "noKorcsopHet" : 94,
  "ffiKorcsopNyolc" : 100,
  "noKorcsopNyolc" : 100,
  "ffiKorcsopKilenc" : 100,
  "noKorcsopKilenc" : 100
}, {
  "ismetles" : 41,
  "ffiKorcsopEgy" : 71,
  "noKorcsopEgy" : 71,
  "ffiKorcsopKetto" : 66,
  "noKorcsopKetto" : 66,
  "ffiKorcsopHarom" : 71,
  "noKorcsopHarom" : 71,
  "ffiKorcsopNegy" : 76,
  "noKorcsopNegy" : 76,
  "ffiKorcsopOt" : 81,
  "noKorcsopOt" : 81,
  "ffiKorcsopHat" : 88,
  "noKorcsopHat" : 88,
  "ffiKorcsopHet" : 92,
  "noKorcsopHet" : 92,
  "ffiKorcsopNyolc" : 98,
  "noKorcsopNyolc" : 98,
  "ffiKorcsopKilenc" : 100,
  "noKorcsopKilenc" : 100
}, {
  "ismetles" : 40,
  "ffiKorcsopEgy" : 70,
  "noKorcsopEgy" : 70,
  "ffiKorcsopKetto" : 65,
  "noKorcsopKetto" : 65,
  "ffiKorcsopHarom" : 70,
  "noKorcsopHarom" : 70,
  "ffiKorcsopNegy" : 75,
  "noKorcsopNegy" : 75,
  "ffiKorcsopOt" : 80,
  "noKorcsopOt" : 80,
  "ffiKorcsopHat" : 87,
  "noKorcsopHat" : 87,
  "ffiKorcsopHet" : 90,
  "noKorcsopHet" : 90,
  "ffiKorcsopNyolc" : 96,
  "noKorcsopNyolc" : 96,
  "ffiKorcsopKilenc" : 100,
  "noKorcsopKilenc" : 100
}, {
  "ismetles" : 39,
  "ffiKorcsopEgy" : 69,
  "noKorcsopEgy" : 69,
  "ffiKorcsopKetto" : 64,
  "noKorcsopKetto" : 64,
  "ffiKorcsopHarom" : 69,
  "noKorcsopHarom" : 69,
  "ffiKorcsopNegy" : 74,
  "noKorcsopNegy" : 74,
  "ffiKorcsopOt" : 79,
  "noKorcsopOt" : 79,
  "ffiKorcsopHat" : 86,
  "noKorcsopHat" : 86,
  "ffiKorcsopHet" : 88,
  "noKorcsopHet" : 88,
  "ffiKorcsopNyolc" : 94,
  "noKorcsopNyolc" : 94,
  "ffiKorcsopKilenc" : 100,
  "noKorcsopKilenc" : 100
}, {
  "ismetles" : 38,
  "ffiKorcsopEgy" : 68,
  "noKorcsopEgy" : 68,
  "ffiKorcsopKetto" : 63,
  "noKorcsopKetto" : 63,
  "ffiKorcsopHarom" : 68,
  "noKorcsopHarom" : 68,
  "ffiKorcsopNegy" : 73,
  "noKorcsopNegy" : 73,
  "ffiKorcsopOt" : 78,
  "noKorcsopOt" : 78,
  "ffiKorcsopHat" : 84,
  "noKorcsopHat" : 84,
  "ffiKorcsopHet" : 86,
  "noKorcsopHet" : 86,
  "ffiKorcsopNyolc" : 92,
  "noKorcsopNyolc" : 92,
  "ffiKorcsopKilenc" : 100,
  "noKorcsopKilenc" : 100
}, {
  "ismetles" : 37,
  "ffiKorcsopEgy" : 67,
  "noKorcsopEgy" : 67,
  "ffiKorcsopKetto" : 62,
  "noKorcsopKetto" : 62,
  "ffiKorcsopHarom" : 67,
  "noKorcsopHarom" : 67,
  "ffiKorcsopNegy" : 72,
  "noKorcsopNegy" : 72,
  "ffiKorcsopOt" : 77,
  "noKorcsopOt" : 77,
  "ffiKorcsopHat" : 82,
  "noKorcsopHat" : 82,
  "ffiKorcsopHet" : 84,
  "noKorcsopHet" : 84,
  "ffiKorcsopNyolc" : 90,
  "noKorcsopNyolc" : 90,
  "ffiKorcsopKilenc" : 98,
  "noKorcsopKilenc" : 98
}, {
  "ismetles" : 36,
  "ffiKorcsopEgy" : 66,
  "noKorcsopEgy" : 66,
  "ffiKorcsopKetto" : 61,
  "noKorcsopKetto" : 61,
  "ffiKorcsopHarom" : 66,
  "noKorcsopHarom" : 66,
  "ffiKorcsopNegy" : 71,
  "noKorcsopNegy" : 71,
  "ffiKorcsopOt" : 76,
  "noKorcsopOt" : 76,
  "ffiKorcsopHat" : 80,
  "noKorcsopHat" : 80,
  "ffiKorcsopHet" : 82,
  "noKorcsopHet" : 82,
  "ffiKorcsopNyolc" : 88,
  "noKorcsopNyolc" : 88,
  "ffiKorcsopKilenc" : 96,
  "noKorcsopKilenc" : 96
}, {
  "ismetles" : 35,
  "ffiKorcsopEgy" : 65,
  "noKorcsopEgy" : 65,
  "ffiKorcsopKetto" : 60,
  "noKorcsopKetto" : 60,
  "ffiKorcsopHarom" : 65,
  "noKorcsopHarom" : 65,
  "ffiKorcsopNegy" : 70,
  "noKorcsopNegy" : 70,
  "ffiKorcsopOt" : 75,
  "noKorcsopOt" : 75,
  "ffiKorcsopHat" : 78,
  "noKorcsopHat" : 78,
  "ffiKorcsopHet" : 80,
  "noKorcsopHet" : 80,
  "ffiKorcsopNyolc" : 86,
  "noKorcsopNyolc" : 86,
  "ffiKorcsopKilenc" : 94,
  "noKorcsopKilenc" : 94
}, {
  "ismetles" : 34,
  "ffiKorcsopEgy" : 64,
  "noKorcsopEgy" : 64,
  "ffiKorcsopKetto" : 59,
  "noKorcsopKetto" : 59,
  "ffiKorcsopHarom" : 64,
  "noKorcsopHarom" : 64,
  "ffiKorcsopNegy" : 69,
  "noKorcsopNegy" : 69,
  "ffiKorcsopOt" : 74,
  "noKorcsopOt" : 74,
  "ffiKorcsopHat" : 76,
  "noKorcsopHat" : 76,
  "ffiKorcsopHet" : 78,
  "noKorcsopHet" : 78,
  "ffiKorcsopNyolc" : 84,
  "noKorcsopNyolc" : 84,
  "ffiKorcsopKilenc" : 92,
  "noKorcsopKilenc" : 92
}, {
  "ismetles" : 33,
  "ffiKorcsopEgy" : 63,
  "noKorcsopEgy" : 63,
  "ffiKorcsopKetto" : 58,
  "noKorcsopKetto" : 58,
  "ffiKorcsopHarom" : 63,
  "noKorcsopHarom" : 63,
  "ffiKorcsopNegy" : 68,
  "noKorcsopNegy" : 68,
  "ffiKorcsopOt" : 72,
  "noKorcsopOt" : 72,
  "ffiKorcsopHat" : 74,
  "noKorcsopHat" : 74,
  "ffiKorcsopHet" : 76,
  "noKorcsopHet" : 76,
  "ffiKorcsopNyolc" : 82,
  "noKorcsopNyolc" : 82,
  "ffiKorcsopKilenc" : 90,
  "noKorcsopKilenc" : 90
}, {
  "ismetles" : 32,
  "ffiKorcsopEgy" : 62,
  "noKorcsopEgy" : 62,
  "ffiKorcsopKetto" : 57,
  "noKorcsopKetto" : 57,
  "ffiKorcsopHarom" : 62,
  "noKorcsopHarom" : 62,
  "ffiKorcsopNegy" : 67,
  "noKorcsopNegy" : 67,
  "ffiKorcsopOt" : 70,
  "noKorcsopOt" : 70,
  "ffiKorcsopHat" : 72,
  "noKorcsopHat" : 72,
  "ffiKorcsopHet" : 74,
  "noKorcsopHet" : 74,
  "ffiKorcsopNyolc" : 80,
  "noKorcsopNyolc" : 80,
  "ffiKorcsopKilenc" : 88,
  "noKorcsopKilenc" : 88
}, {
  "ismetles" : 31,
  "ffiKorcsopEgy" : 61,
  "noKorcsopEgy" : 61,
  "ffiKorcsopKetto" : 56,
  "noKorcsopKetto" : 56,
  "ffiKorcsopHarom" : 61,
  "noKorcsopHarom" : 61,
  "ffiKorcsopNegy" : 66,
  "noKorcsopNegy" : 66,
  "ffiKorcsopOt" : 68,
  "noKorcsopOt" : 68,
  "ffiKorcsopHat" : 70,
  "noKorcsopHat" : 70,
  "ffiKorcsopHet" : 72,
  "noKorcsopHet" : 72,
  "ffiKorcsopNyolc" : 78,
  "noKorcsopNyolc" : 78,
  "ffiKorcsopKilenc" : 86,
  "noKorcsopKilenc" : 86
}, {
  "ismetles" : 30,
  "ffiKorcsopEgy" : 60,
  "noKorcsopEgy" : 60,
  "ffiKorcsopKetto" : 55,
  "noKorcsopKetto" : 55,
  "ffiKorcsopHarom" : 60,
  "noKorcsopHarom" : 60,
  "ffiKorcsopNegy" : 64,
  "noKorcsopNegy" : 64,
  "ffiKorcsopOt" : 66,
  "noKorcsopOt" : 66,
  "ffiKorcsopHat" : 68,
  "noKorcsopHat" : 68,
  "ffiKorcsopHet" : 70,
  "noKorcsopHet" : 70,
  "ffiKorcsopNyolc" : 76,
  "noKorcsopNyolc" : 76,
  "ffiKorcsopKilenc" : 84,
  "noKorcsopKilenc" : 84
}, {
  "ismetles" : 29,
  "ffiKorcsopEgy" : 59,
  "noKorcsopEgy" : 59,
  "ffiKorcsopKetto" : 54,
  "noKorcsopKetto" : 54,
  "ffiKorcsopHarom" : 59,
  "noKorcsopHarom" : 59,
  "ffiKorcsopNegy" : 62,
  "noKorcsopNegy" : 62,
  "ffiKorcsopOt" : 64,
  "noKorcsopOt" : 64,
  "ffiKorcsopHat" : 66,
  "noKorcsopHat" : 66,
  "ffiKorcsopHet" : 68,
  "noKorcsopHet" : 68,
  "ffiKorcsopNyolc" : 74,
  "noKorcsopNyolc" : 74,
  "ffiKorcsopKilenc" : 82,
  "noKorcsopKilenc" : 82
}, {
  "ismetles" : 28,
  "ffiKorcsopEgy" : 58,
  "noKorcsopEgy" : 58,
  "ffiKorcsopKetto" : 53,
  "noKorcsopKetto" : 53,
  "ffiKorcsopHarom" : 58,
  "noKorcsopHarom" : 58,
  "ffiKorcsopNegy" : 60,
  "noKorcsopNegy" : 60,
  "ffiKorcsopOt" : 62,
  "noKorcsopOt" : 62,
  "ffiKorcsopHat" : 64,
  "noKorcsopHat" : 64,
  "ffiKorcsopHet" : 66,
  "noKorcsopHet" : 66,
  "ffiKorcsopNyolc" : 72,
  "noKorcsopNyolc" : 72,
  "ffiKorcsopKilenc" : 80,
  "noKorcsopKilenc" : 80
}, {
  "ismetles" : 27,
  "ffiKorcsopEgy" : 56,
  "noKorcsopEgy" : 56,
  "ffiKorcsopKetto" : 52,
  "noKorcsopKetto" : 52,
  "ffiKorcsopHarom" : 56,
  "noKorcsopHarom" : 56,
  "ffiKorcsopNegy" : 58,
  "noKorcsopNegy" : 58,
  "ffiKorcsopOt" : 60,
  "noKorcsopOt" : 60,
  "ffiKorcsopHat" : 62,
  "noKorcsopHat" : 62,
  "ffiKorcsopHet" : 64,
  "noKorcsopHet" : 64,
  "ffiKorcsopNyolc" : 70,
  "noKorcsopNyolc" : 70,
  "ffiKorcsopKilenc" : 78,
  "noKorcsopKilenc" : 78
}, {
  "ismetles" : 26,
  "ffiKorcsopEgy" : 54,
  "noKorcsopEgy" : 54,
  "ffiKorcsopKetto" : 51,
  "noKorcsopKetto" : 51,
  "ffiKorcsopHarom" : 54,
  "noKorcsopHarom" : 54,
  "ffiKorcsopNegy" : 56,
  "noKorcsopNegy" : 56,
  "ffiKorcsopOt" : 58,
  "noKorcsopOt" : 58,
  "ffiKorcsopHat" : 60,
  "noKorcsopHat" : 60,
  "ffiKorcsopHet" : 62,
  "noKorcsopHet" : 62,
  "ffiKorcsopNyolc" : 68,
  "noKorcsopNyolc" : 68,
  "ffiKorcsopKilenc" : 75,
  "noKorcsopKilenc" : 75
}, {
  "ismetles" : 25,
  "ffiKorcsopEgy" : 52,
  "noKorcsopEgy" : 52,
  "ffiKorcsopKetto" : 50,
  "noKorcsopKetto" : 50,
  "ffiKorcsopHarom" : 52,
  "noKorcsopHarom" : 52,
  "ffiKorcsopNegy" : 54,
  "noKorcsopNegy" : 54,
  "ffiKorcsopOt" : 56,
  "noKorcsopOt" : 56,
  "ffiKorcsopHat" : 58,
  "noKorcsopHat" : 58,
  "ffiKorcsopHet" : 60,
  "noKorcsopHet" : 60,
  "ffiKorcsopNyolc" : 66,
  "noKorcsopNyolc" : 66,
  "ffiKorcsopKilenc" : 73,
  "noKorcsopKilenc" : 73
}, {
  "ismetles" : 24,
  "ffiKorcsopEgy" : 50,
  "noKorcsopEgy" : 50,
  "ffiKorcsopKetto" : 48,
  "noKorcsopKetto" : 48,
  "ffiKorcsopHarom" : 50,
  "noKorcsopHarom" : 50,
  "ffiKorcsopNegy" : 52,
  "noKorcsopNegy" : 52,
  "ffiKorcsopOt" : 54,
  "noKorcsopOt" : 54,
  "ffiKorcsopHat" : 56,
  "noKorcsopHat" : 56,
  "ffiKorcsopHet" : 58,
  "noKorcsopHet" : 58,
  "ffiKorcsopNyolc" : 64,
  "noKorcsopNyolc" : 64,
  "ffiKorcsopKilenc" : 70,
  "noKorcsopKilenc" : 70
}, {
  "ismetles" : 23,
  "ffiKorcsopEgy" : 48,
  "noKorcsopEgy" : 48,
  "ffiKorcsopKetto" : 46,
  "noKorcsopKetto" : 46,
  "ffiKorcsopHarom" : 48,
  "noKorcsopHarom" : 48,
  "ffiKorcsopNegy" : 50,
  "noKorcsopNegy" : 50,
  "ffiKorcsopOt" : 52,
  "noKorcsopOt" : 52,
  "ffiKorcsopHat" : 54,
  "noKorcsopHat" : 54,
  "ffiKorcsopHet" : 56,
  "noKorcsopHet" : 56,
  "ffiKorcsopNyolc" : 62,
  "noKorcsopNyolc" : 62,
  "ffiKorcsopKilenc" : 68,
  "noKorcsopKilenc" : 68
}, {
  "ismetles" : 22,
  "ffiKorcsopEgy" : 46,
  "noKorcsopEgy" : 46,
  "ffiKorcsopKetto" : 44,
  "noKorcsopKetto" : 44,
  "ffiKorcsopHarom" : 46,
  "noKorcsopHarom" : 46,
  "ffiKorcsopNegy" : 48,
  "noKorcsopNegy" : 48,
  "ffiKorcsopOt" : 50,
  "noKorcsopOt" : 50,
  "ffiKorcsopHat" : 52,
  "noKorcsopHat" : 52,
  "ffiKorcsopHet" : 54,
  "noKorcsopHet" : 54,
  "ffiKorcsopNyolc" : 60,
  "noKorcsopNyolc" : 60,
  "ffiKorcsopKilenc" : 65,
  "noKorcsopKilenc" : 65
}, {
  "ismetles" : 21,
  "ffiKorcsopEgy" : 44,
  "noKorcsopEgy" : 44,
  "ffiKorcsopKetto" : 42,
  "noKorcsopKetto" : 42,
  "ffiKorcsopHarom" : 44,
  "noKorcsopHarom" : 44,
  "ffiKorcsopNegy" : 46,
  "noKorcsopNegy" : 46,
  "ffiKorcsopOt" : 48,
  "noKorcsopOt" : 48,
  "ffiKorcsopHat" : 50,
  "noKorcsopHat" : 50,
  "ffiKorcsopHet" : 52,
  "noKorcsopHet" : 52,
  "ffiKorcsopNyolc" : 58,
  "noKorcsopNyolc" : 58,
  "ffiKorcsopKilenc" : 63,
  "noKorcsopKilenc" : 63
}, {
  "ismetles" : 20,
  "ffiKorcsopEgy" : 42,
  "noKorcsopEgy" : 42,
  "ffiKorcsopKetto" : 40,
  "noKorcsopKetto" : 40,
  "ffiKorcsopHarom" : 42,
  "noKorcsopHarom" : 42,
  "ffiKorcsopNegy" : 44,
  "noKorcsopNegy" : 44,
  "ffiKorcsopOt" : 46,
  "noKorcsopOt" : 46,
  "ffiKorcsopHat" : 48,
  "noKorcsopHat" : 48,
  "ffiKorcsopHet" : 50,
  "noKorcsopHet" : 50,
  "ffiKorcsopNyolc" : 56,
  "noKorcsopNyolc" : 56,
  "ffiKorcsopKilenc" : 60,
  "noKorcsopKilenc" : 60
}, {
  "ismetles" : 19,
  "ffiKorcsopEgy" : 40,
  "noKorcsopEgy" : 40,
  "ffiKorcsopKetto" : 38,
  "noKorcsopKetto" : 38,
  "ffiKorcsopHarom" : 40,
  "noKorcsopHarom" : 40,
  "ffiKorcsopNegy" : 42,
  "noKorcsopNegy" : 42,
  "ffiKorcsopOt" : 44,
  "noKorcsopOt" : 44,
  "ffiKorcsopHat" : 46,
  "noKorcsopHat" : 46,
  "ffiKorcsopHet" : 48,
  "noKorcsopHet" : 48,
  "ffiKorcsopNyolc" : 54,
  "noKorcsopNyolc" : 54,
  "ffiKorcsopKilenc" : 58,
  "noKorcsopKilenc" : 58
}, {
  "ismetles" : 18,
  "ffiKorcsopEgy" : 38,
  "noKorcsopEgy" : 38,
  "ffiKorcsopKetto" : 36,
  "noKorcsopKetto" : 36,
  "ffiKorcsopHarom" : 38,
  "noKorcsopHarom" : 38,
  "ffiKorcsopNegy" : 40,
  "noKorcsopNegy" : 40,
  "ffiKorcsopOt" : 42,
  "noKorcsopOt" : 42,
  "ffiKorcsopHat" : 44,
  "noKorcsopHat" : 44,
  "ffiKorcsopHet" : 46,
  "noKorcsopHet" : 46,
  "ffiKorcsopNyolc" : 52,
  "noKorcsopNyolc" : 52,
  "ffiKorcsopKilenc" : 55,
  "noKorcsopKilenc" : 55
}, {
  "ismetles" : 17,
  "ffiKorcsopEgy" : 36,
  "noKorcsopEgy" : 36,
  "ffiKorcsopKetto" : 34,
  "noKorcsopKetto" : 34,
  "ffiKorcsopHarom" : 36,
  "noKorcsopHarom" : 36,
  "ffiKorcsopNegy" : 38,
  "noKorcsopNegy" : 38,
  "ffiKorcsopOt" : 40,
  "noKorcsopOt" : 40,
  "ffiKorcsopHat" : 42,
  "noKorcsopHat" : 42,
  "ffiKorcsopHet" : 44,
  "noKorcsopHet" : 44,
  "ffiKorcsopNyolc" : 50,
  "noKorcsopNyolc" : 50,
  "ffiKorcsopKilenc" : 53,
  "noKorcsopKilenc" : 53
}, {
  "ismetles" : 16,
  "ffiKorcsopEgy" : 34,
  "noKorcsopEgy" : 34,
  "ffiKorcsopKetto" : 32,
  "noKorcsopKetto" : 32,
  "ffiKorcsopHarom" : 34,
  "noKorcsopHarom" : 34,
  "ffiKorcsopNegy" : 36,
  "noKorcsopNegy" : 36,
  "ffiKorcsopOt" : 38,
  "noKorcsopOt" : 38,
  "ffiKorcsopHat" : 40,
  "noKorcsopHat" : 40,
  "ffiKorcsopHet" : 42,
  "noKorcsopHet" : 42,
  "ffiKorcsopNyolc" : 48,
  "noKorcsopNyolc" : 48,
  "ffiKorcsopKilenc" : 50,
  "noKorcsopKilenc" : 50
}, {
  "ismetles" : 15,
  "ffiKorcsopEgy" : 32,
  "noKorcsopEgy" : 32,
  "ffiKorcsopKetto" : 30,
  "noKorcsopKetto" : 30,
  "ffiKorcsopHarom" : 32,
  "noKorcsopHarom" : 32,
  "ffiKorcsopNegy" : 34,
  "noKorcsopNegy" : 34,
  "ffiKorcsopOt" : 36,
  "noKorcsopOt" : 36,
  "ffiKorcsopHat" : 38,
  "noKorcsopHat" : 38,
  "ffiKorcsopHet" : 40,
  "noKorcsopHet" : 40,
  "ffiKorcsopNyolc" : 46,
  "noKorcsopNyolc" : 46,
  "ffiKorcsopKilenc" : 48,
  "noKorcsopKilenc" : 48
}, {
  "ismetles" : 14,
  "ffiKorcsopEgy" : 30,
  "noKorcsopEgy" : 30,
  "ffiKorcsopKetto" : 39,
  "noKorcsopKetto" : 39,
  "ffiKorcsopHarom" : 30,
  "noKorcsopHarom" : 30,
  "ffiKorcsopNegy" : 32,
  "noKorcsopNegy" : 32,
  "ffiKorcsopOt" : 34,
  "noKorcsopOt" : 34,
  "ffiKorcsopHat" : 36,
  "noKorcsopHat" : 36,
  "ffiKorcsopHet" : 38,
  "noKorcsopHet" : 38,
  "ffiKorcsopNyolc" : 44,
  "noKorcsopNyolc" : 44,
  "ffiKorcsopKilenc" : 46,
  "noKorcsopKilenc" : 46
}, {
  "ismetles" : 13,
  "ffiKorcsopEgy" : 0,
  "noKorcsopEgy" : 0,
  "ffiKorcsopKetto" : 0,
  "noKorcsopKetto" : 0,
  "ffiKorcsopHarom" : 0,
  "noKorcsopHarom" : 0,
  "ffiKorcsopNegy" : 30,
  "noKorcsopNegy" : 30,
  "ffiKorcsopOt" : 32,
  "noKorcsopOt" : 32,
  "ffiKorcsopHat" : 34,
  "noKorcsopHat" : 34,
  "ffiKorcsopHet" : 36,
  "noKorcsopHet" : 36,
  "ffiKorcsopNyolc" : 40,
  "noKorcsopNyolc" : 40,
  "ffiKorcsopKilenc" : 44,
  "noKorcsopKilenc" : 44
}, {
  "ismetles" : 12,
  "ffiKorcsopEgy" : 0,
  "noKorcsopEgy" : 0,
  "ffiKorcsopKetto" : 0,
  "noKorcsopKetto" : 0,
  "ffiKorcsopHarom" : 0,
  "noKorcsopHarom" : 0,
  "ffiKorcsopNegy" : 0,
  "noKorcsopNegy" : 0,
  "ffiKorcsopOt" : 30,
  "noKorcsopOt" : 30,
  "ffiKorcsopHat" : 32,
  "noKorcsopHat" : 32,
  "ffiKorcsopHet" : 34,
  "noKorcsopHet" : 34,
  "ffiKorcsopNyolc" : 38,
  "noKorcsopNyolc" : 38,
  "ffiKorcsopKilenc" : 40,
  "noKorcsopKilenc" : 40
}, {
  "ismetles" : 11,
  "ffiKorcsopEgy" : 0,
  "noKorcsopEgy" : 0,
  "ffiKorcsopKetto" : 0,
  "noKorcsopKetto" : 0,
  "ffiKorcsopHarom" : 0,
  "noKorcsopHarom" : 0,
  "ffiKorcsopNegy" : 0,
  "noKorcsopNegy" : 0,
  "ffiKorcsopOt" : 0,
  "noKorcsopOt" : 0,
  "ffiKorcsopHat" : 30,
  "noKorcsopHat" : 30,
  "ffiKorcsopHet" : 32,
  "noKorcsopHet" : 32,
  "ffiKorcsopNyolc" : 34,
  "noKorcsopNyolc" : 34,
  "ffiKorcsopKilenc" : 38,
  "noKorcsopKilenc" : 38
}, {
  "ismetles" : 10,
  "ffiKorcsopEgy" : 0,
  "noKorcsopEgy" : 0,
  "ffiKorcsopKetto" : 0,
  "noKorcsopKetto" : 0,
  "ffiKorcsopHarom" : 0,
  "noKorcsopHarom" : 0,
  "ffiKorcsopNegy" : 0,
  "noKorcsopNegy" : 0,
  "ffiKorcsopOt" : 0,
  "noKorcsopOt" : 0,
  "ffiKorcsopHat" : 0,
  "noKorcsopHat" : 0,
  "ffiKorcsopHet" : 30,
  "noKorcsopHet" : 30,
  "ffiKorcsopNyolc" : 32,
  "noKorcsopNyolc" : 32,
  "ffiKorcsopKilenc" : 34,
  "noKorcsopKilenc" : 34
}, {
  "ismetles" : 9,
  "ffiKorcsopEgy" : 0,
  "noKorcsopEgy" : 0,
  "ffiKorcsopKetto" : 0,
  "noKorcsopKetto" : 0,
  "ffiKorcsopHarom" : 0,
  "noKorcsopHarom" : 0,
  "ffiKorcsopNegy" : 0,
  "noKorcsopNegy" : 0,
  "ffiKorcsopOt" : 0,
  "noKorcsopOt" : 0,
  "ffiKorcsopHat" : 0,
  "noKorcsopHat" : 0,
  "ffiKorcsopHet" : 0,
  "noKorcsopHet" : 0,
  "ffiKorcsopNyolc" : 30,
  "noKorcsopNyolc" : 30,
  "ffiKorcsopKilenc" : 32,
  "noKorcsopKilenc" : 32
}, {
  "ismetles" : 8,
  "ffiKorcsopEgy" : 0,
  "noKorcsopEgy" : 0,
  "ffiKorcsopKetto" : 0,
  "noKorcsopKetto" : 0,
  "ffiKorcsopHarom" : 0,
  "noKorcsopHarom" : 0,
  "ffiKorcsopNegy" : 0,
  "noKorcsopNegy" : 0,
  "ffiKorcsopOt" : 0,
  "noKorcsopOt" : 0,
  "ffiKorcsopHat" : 0,
  "noKorcsopHat" : 0,
  "ffiKorcsopHet" : 0,
  "noKorcsopHet" : 0,
  "ffiKorcsopNyolc" : 0,
  "noKorcsopNyolc" : 0,
  "ffiKorcsopKilenc" : 30,
  "noKorcsopKilenc" : 30
}, {
  "ismetles" : 7,
  "ffiKorcsopEgy" : 0,
  "noKorcsopEgy" : 0,
  "ffiKorcsopKetto" : 0,
  "noKorcsopKetto" : 0,
  "ffiKorcsopHarom" : 0,
  "noKorcsopHarom" : 0,
  "ffiKorcsopNegy" : 0,
  "noKorcsopNegy" : 0,
  "ffiKorcsopOt" : 0,
  "noKorcsopOt" : 0,
  "ffiKorcsopHat" : 0,
  "noKorcsopHat" : 0,
  "ffiKorcsopHet" : 0,
  "noKorcsopHet" : 0,
  "ffiKorcsopNyolc" : 0,
  "noKorcsopNyolc" : 0,
  "ffiKorcsopKilenc" : 0,
  "noKorcsopKilenc" : 0
} ]