[ {
  "ismetles" : 20,
  "ffiKorcsopEgy" : 100,
  "noKorcsopEgy" : 100,
  "ffiKorcsopKetto" : 100,
  "noKorcsopKetto" : 100,
  "ffiKorcsopHarom" : 100,
  "noKorcsopHarom" : 100,
  "ffiKorcsopNegy" : 100,
  "noKorcsopNegy" : 100,
  "ffiKorcsopOt" : 100,
  "noKorcsopOt" : 100,
  "ffiKorcsopHat" : 100,
  "noKorcsopHat" : 100,
  "ffiKorcsopHet" : 100,
  "noKorcsopHet" : 100,
  "ffiKorcsopNyolc" : 100,
  "noKorcsopNyolc" : 100,
  "ffiKorcsopKilenc" : 100,
  "noKorcsopKilenc" : 100
}, {
  "ismetles" : 19,
  "ffiKorcsopEgy" : 95,
  "noKorcsopEgy" : 100,
  "ffiKorcsopKetto" : 95,
  "noKorcsopKetto" : 100,
  "ffiKorcsopHarom" : 100,
  "noKorcsopHarom" : 100,
  "ffiKorcsopNegy" : 100,
  "noKorcsopNegy" : 100,
  "ffiKorcsopOt" : 100,
  "noKorcsopOt" : 100,
  "ffiKorcsopHat" : 100,
  "noKorcsopHat" : 100,
  "ffiKorcsopHet" : 100,
  "noKorcsopHet" : 100,
  "ffiKorcsopNyolc" : 100,
  "noKorcsopNyolc" : 100,
  "ffiKorcsopKilenc" : 100,
  "noKorcsopKilenc" : 100
}, {
  "ismetles" : 18,
  "ffiKorcsopEgy" : 90,
  "noKorcsopEgy" : 100,
  "ffiKorcsopKetto" : 90,
  "noKorcsopKetto" : 100,
  "ffiKorcsopHarom" : 100,
  "noKorcsopHarom" : 100,
  "ffiKorcsopNegy" : 100,
  "noKorcsopNegy" : 100,
  "ffiKorcsopOt" : 100,
  "noKorcsopOt" : 100,
  "ffiKorcsopHat" : 100,
  "noKorcsopHat" : 100,
  "ffiKorcsopHet" : 100,
  "noKorcsopHet" : 100,
  "ffiKorcsopNyolc" : 100,
  "noKorcsopNyolc" : 100,
  "ffiKorcsopKilenc" : 100,
  "noKorcsopKilenc" : 100
}, {
  "ismetles" : 17,
  "ffiKorcsopEgy" : 85,
  "noKorcsopEgy" : 100,
  "ffiKorcsopKetto" : 85,
  "noKorcsopKetto" : 100,
  "ffiKorcsopHarom" : 95,
  "noKorcsopHarom" : 100,
  "ffiKorcsopNegy" : 100,
  "noKorcsopNegy" : 100,
  "ffiKorcsopOt" : 100,
  "noKorcsopOt" : 100,
  "ffiKorcsopHat" : 100,
  "noKorcsopHat" : 100,
  "ffiKorcsopHet" : 100,
  "noKorcsopHet" : 100,
  "ffiKorcsopNyolc" : 100,
  "noKorcsopNyolc" : 100,
  "ffiKorcsopKilenc" : 100,
  "noKorcsopKilenc" : 100
}, {
  "ismetles" : 16,
  "ffiKorcsopEgy" : 80,
  "noKorcsopEgy" : 100,
  "ffiKorcsopKetto" : 80,
  "noKorcsopKetto" : 100,
  "ffiKorcsopHarom" : 90,
  "noKorcsopHarom" : 100,
  "ffiKorcsopNegy" : 100,
  "noKorcsopNegy" : 100,
  "ffiKorcsopOt" : 100,
  "noKorcsopOt" : 100,
  "ffiKorcsopHat" : 100,
  "noKorcsopHat" : 100,
  "ffiKorcsopHet" : 100,
  "noKorcsopHet" : 100,
  "ffiKorcsopNyolc" : 100,
  "noKorcsopNyolc" : 100,
  "ffiKorcsopKilenc" : 100,
  "noKorcsopKilenc" : 100
}, {
  "ismetles" : 15,
  "ffiKorcsopEgy" : 75,
  "noKorcsopEgy" : 95,
  "ffiKorcsopKetto" : 75,
  "noKorcsopKetto" : 95,
  "ffiKorcsopHarom" : 85,
  "noKorcsopHarom" : 100,
  "ffiKorcsopNegy" : 95,
  "noKorcsopNegy" : 100,
  "ffiKorcsopOt" : 100,
  "noKorcsopOt" : 100,
  "ffiKorcsopHat" : 100,
  "noKorcsopHat" : 100,
  "ffiKorcsopHet" : 100,
  "noKorcsopHet" : 100,
  "ffiKorcsopNyolc" : 100,
  "noKorcsopNyolc" : 100,
  "ffiKorcsopKilenc" : 100,
  "noKorcsopKilenc" : 100
}, {
  "ismetles" : 14,
  "ffiKorcsopEgy" : 70,
  "noKorcsopEgy" : 90,
  "ffiKorcsopKetto" : 70,
  "noKorcsopKetto" : 90,
  "ffiKorcsopHarom" : 80,
  "noKorcsopHarom" : 100,
  "ffiKorcsopNegy" : 90,
  "noKorcsopNegy" : 100,
  "ffiKorcsopOt" : 100,
  "noKorcsopOt" : 100,
  "ffiKorcsopHat" : 100,
  "noKorcsopHat" : 100,
  "ffiKorcsopHet" : 100,
  "noKorcsopHet" : 100,
  "ffiKorcsopNyolc" : 100,
  "noKorcsopNyolc" : 100,
  "ffiKorcsopKilenc" : 100,
  "noKorcsopKilenc" : 100
}, {
  "ismetles" : 13,
  "ffiKorcsopEgy" : 65,
  "noKorcsopEgy" : 80,
  "ffiKorcsopKetto" : 65,
  "noKorcsopKetto" : 85,
  "ffiKorcsopHarom" : 75,
  "noKorcsopHarom" : 95,
  "ffiKorcsopNegy" : 85,
  "noKorcsopNegy" : 100,
  "ffiKorcsopOt" : 95,
  "noKorcsopOt" : 100,
  "ffiKorcsopHat" : 100,
  "noKorcsopHat" : 100,
  "ffiKorcsopHet" : 100,
  "noKorcsopHet" : 100,
  "ffiKorcsopNyolc" : 100,
  "noKorcsopNyolc" : 100,
  "ffiKorcsopKilenc" : 100,
  "noKorcsopKilenc" : 100
}, {
  "ismetles" : 12,
  "ffiKorcsopEgy" : 60,
  "noKorcsopEgy" : 70,
  "ffiKorcsopKetto" : 60,
  "noKorcsopKetto" : 80,
  "ffiKorcsopHarom" : 70,
  "noKorcsopHarom" : 90,
  "ffiKorcsopNegy" : 80,
  "noKorcsopNegy" : 100,
  "ffiKorcsopOt" : 90,
  "noKorcsopOt" : 100,
  "ffiKorcsopHat" : 100,
  "noKorcsopHat" : 100,
  "ffiKorcsopHet" : 100,
  "noKorcsopHet" : 100,
  "ffiKorcsopNyolc" : 100,
  "noKorcsopNyolc" : 100,
  "ffiKorcsopKilenc" : 100,
  "noKorcsopKilenc" : 100
}, {
  "ismetles" : 11,
  "ffiKorcsopEgy" : 50,
  "noKorcsopEgy" : 60,
  "ffiKorcsopKetto" : 55,
  "noKorcsopKetto" : 70,
  "ffiKorcsopHarom" : 65,
  "noKorcsopHarom" : 80,
  "ffiKorcsopNegy" : 75,
  "noKorcsopNegy" : 95,
  "ffiKorcsopOt" : 85,
  "noKorcsopOt" : 100,
  "ffiKorcsopHat" : 95,
  "noKorcsopHat" : 100,
  "ffiKorcsopHet" : 100,
  "noKorcsopHet" : 100,
  "ffiKorcsopNyolc" : 100,
  "noKorcsopNyolc" : 100,
  "ffiKorcsopKilenc" : 100,
  "noKorcsopKilenc" : 100
}, {
  "ismetles" : 10,
  "ffiKorcsopEgy" : 40,
  "noKorcsopEgy" : 50,
  "ffiKorcsopKetto" : 50,
  "noKorcsopKetto" : 60,
  "ffiKorcsopHarom" : 60,
  "noKorcsopHarom" : 70,
  "ffiKorcsopNegy" : 70,
  "noKorcsopNegy" : 90,
  "ffiKorcsopOt" : 80,
  "noKorcsopOt" : 100,
  "ffiKorcsopHat" : 90,
  "noKorcsopHat" : 100,
  "ffiKorcsopHet" : 100,
  "noKorcsopHet" : 100,
  "ffiKorcsopNyolc" : 100,
  "noKorcsopNyolc" : 100,
  "ffiKorcsopKilenc" : 100,
  "noKorcsopKilenc" : 100
}, {
  "ismetles" : 9,
  "ffiKorcsopEgy" : 30,
  "noKorcsopEgy" : 40,
  "ffiKorcsopKetto" : 40,
  "noKorcsopKetto" : 50,
  "ffiKorcsopHarom" : 50,
  "noKorcsopHarom" : 60,
  "ffiKorcsopNegy" : 60,
  "noKorcsopNegy" : 80,
  "ffiKorcsopOt" : 70,
  "noKorcsopOt" : 90,
  "ffiKorcsopHat" : 80,
  "noKorcsopHat" : 100,
  "ffiKorcsopHet" : 90,
  "noKorcsopHet" : 100,
  "ffiKorcsopNyolc" : 100,
  "noKorcsopNyolc" : 100,
  "ffiKorcsopKilenc" : 100,
  "noKorcsopKilenc" : 100
}, {
  "ismetles" : 8,
  "ffiKorcsopEgy" : 0,
  "noKorcsopEgy" : 30,
  "ffiKorcsopKetto" : 30,
  "noKorcsopKetto" : 40,
  "ffiKorcsopHarom" : 40,
  "noKorcsopHarom" : 50,
  "ffiKorcsopNegy" : 50,
  "noKorcsopNegy" : 70,
  "ffiKorcsopOt" : 60,
  "noKorcsopOt" : 80,
  "ffiKorcsopHat" : 70,
  "noKorcsopHat" : 100,
  "ffiKorcsopHet" : 80,
  "noKorcsopHet" : 100,
  "ffiKorcsopNyolc" : 100,
  "noKorcsopNyolc" : 100,
  "ffiKorcsopKilenc" : 100,
  "noKorcsopKilenc" : 100
}, {
  "ismetles" : 7,
  "ffiKorcsopEgy" : 0,
  "noKorcsopEgy" : 0,
  "ffiKorcsopKetto" : 0,
  "noKorcsopKetto" : 30,
  "ffiKorcsopHarom" : 30,
  "noKorcsopHarom" : 40,
  "ffiKorcsopNegy" : 40,
  "noKorcsopNegy" : 60,
  "ffiKorcsopOt" : 50,
  "noKorcsopOt" : 70,
  "ffiKorcsopHat" : 60,
  "noKorcsopHat" : 90,
  "ffiKorcsopHet" : 70,
  "noKorcsopHet" : 100,
  "ffiKorcsopNyolc" : 90,
  "noKorcsopNyolc" : 100,
  "ffiKorcsopKilenc" : 100,
  "noKorcsopKilenc" : 100
}, {
  "ismetles" : 6,
  "ffiKorcsopEgy" : 0,
  "noKorcsopEgy" : 0,
  "ffiKorcsopKetto" : 0,
  "noKorcsopKetto" : 0,
  "ffiKorcsopHarom" : 0,
  "noKorcsopHarom" : 30,
  "ffiKorcsopNegy" : 30,
  "noKorcsopNegy" : 50,
  "ffiKorcsopOt" : 40,
  "noKorcsopOt" : 60,
  "ffiKorcsopHat" : 50,
  "noKorcsopHat" : 80,
  "ffiKorcsopHet" : 60,
  "noKorcsopHet" : 90,
  "ffiKorcsopNyolc" : 80,
  "noKorcsopNyolc" : 100,
  "ffiKorcsopKilenc" : 100,
  "noKorcsopKilenc" : 100
}, {
  "ismetles" : 5,
  "ffiKorcsopEgy" : 0,
  "noKorcsopEgy" : 0,
  "ffiKorcsopKetto" : 0,
  "noKorcsopKetto" : 0,
  "ffiKorcsopHarom" : 0,
  "noKorcsopHarom" : 0,
  "ffiKorcsopNegy" : 0,
  "noKorcsopNegy" : 40,
  "ffiKorcsopOt" : 30,
  "noKorcsopOt" : 50,
  "ffiKorcsopHat" : 40,
  "noKorcsopHat" : 60,
  "ffiKorcsopHet" : 50,
  "noKorcsopHet" : 80,
  "ffiKorcsopNyolc" : 60,
  "noKorcsopNyolc" : 100,
  "ffiKorcsopKilenc" : 90,
  "noKorcsopKilenc" : 100
}, {
  "ismetles" : 4,
  "ffiKorcsopEgy" : 0,
  "noKorcsopEgy" : 0,
  "ffiKorcsopKetto" : 0,
  "noKorcsopKetto" : 0,
  "ffiKorcsopHarom" : 0,
  "noKorcsopHarom" : 0,
  "ffiKorcsopNegy" : 0,
  "noKorcsopNegy" : 30,
  "ffiKorcsopOt" : 0,
  "noKorcsopOt" : 30,
  "ffiKorcsopHat" : 30,
  "noKorcsopHat" : 50,
  "ffiKorcsopHet" : 30,
  "noKorcsopHet" : 60,
  "ffiKorcsopNyolc" : 50,
  "noKorcsopNyolc" : 80,
  "ffiKorcsopKilenc" : 80,
  "noKorcsopKilenc" : 100
}, {
  "ismetles" : 3,
  "ffiKorcsopEgy" : 0,
  "noKorcsopEgy" : 0,
  "ffiKorcsopKetto" : 0,
  "noKorcsopKetto" : 0,
  "ffiKorcsopHarom" : 0,
  "noKorcsopHarom" : 0,
  "ffiKorcsopNegy" : 0,
  "noKorcsopNegy" : 0,
  "ffiKorcsopOt" : 0,
  "noKorcsopOt" : 0,
  "ffiKorcsopHat" : 0,
  "noKorcsopHat" : 30,
  "ffiKorcsopHet" : 0,
  "noKorcsopHet" : 30,
  "ffiKorcsopNyolc" : 30,
  "noKorcsopNyolc" : 60,
  "ffiKorcsopKilenc" : 60,
  "noKorcsopKilenc" : 90
}, {
  "ismetles" : 2,
  "ffiKorcsopEgy" : 0,
  "noKorcsopEgy" : 0,
  "ffiKorcsopKetto" : 0,
  "noKorcsopKetto" : 0,
  "ffiKorcsopHarom" : 0,
  "noKorcsopHarom" : 0,
  "ffiKorcsopNegy" : 0,
  "noKorcsopNegy" : 0,
  "ffiKorcsopOt" : 0,
  "noKorcsopOt" : 0,
  "ffiKorcsopHat" : 0,
  "noKorcsopHat" : 0,
  "ffiKorcsopHet" : 0,
  "noKorcsopHet" : 0,
  "ffiKorcsopNyolc" : 0,
  "noKorcsopNyolc" : 30,
  "ffiKorcsopKilenc" : 30,
  "noKorcsopKilenc" : 60
}, {
  "ismetles" : 1,
  "ffiKorcsopEgy" : 0,
  "noKorcsopEgy" : 0,
  "ffiKorcsopKetto" : 0,
  "noKorcsopKetto" : 0,
  "ffiKorcsopHarom" : 0,
  "noKorcsopHarom" : 0,
  "ffiKorcsopNegy" : 0,
  "noKorcsopNegy" : 0,
  "ffiKorcsopOt" : 0,
  "noKorcsopOt" : 0,
  "ffiKorcsopHat" : 0,
  "noKorcsopHat" : 0,
  "ffiKorcsopHet" : 0,
  "noKorcsopHet" : 0,
  "ffiKorcsopNyolc" : 0,
  "noKorcsopNyolc" : 0,
  "ffiKorcsopKilenc" : 0,
  "noKorcsopKilenc" : 30
} ]