-------------------------------------------------------------------------------
Test set: fafszamolo.szemely.dao.impl.tests.SzemelyRepositoryJDBCImplTest
-------------------------------------------------------------------------------
Tests run: 3, Failures: 0, Errors: 0, Skipped: 0, Time elapsed: 0.254 sec
