fafszamolo\controller\tests\PontszamoloTest.class
fafszamolo\model\tests\SzemelyTest.class
fafszamolo\szemely\dao\impl\tests\SzemelyRepositoryJDBCImplTest.class
fafszamolo\model\tests\FizikaiAllapotFelmeresTest.class
