ismetles#ffiKorcsopEgy#noKorcsopEgy#ffiKorcsopKetto#noKorcsopKetto#ffiKorcsopHarom#noKorcsopHarom#ffiKorcsopNegy#noKorcsopNegy#ffiKorcsopOt#noKorcsopOt#ffiKorcsopHat#noKorcsopHat#ffiKorcsopHet#noKorcsopHet#ffiKorcsopNyolc#noKorcsopNyolc#ffiKorcsopKilenc#noKorcsopKilenc
51;80;80;80;80;80;80;80;80;80;80;80;80;80;80;80;80;80;80
50;80;80;79;79;80;80;80;80;80;80;80;80;80;80;80;80;80;80
49;80;80;78;78;80;80;80;80;80;80;80;80;80;80;80;80;80;80
48;78;78;76;76;80;80;80;80;80;80;80;80;80;80;80;80;80;80
47;76;76;74;74;80;80;80;80;80;80;80;80;80;80;80;80;80;80
46;74;74;70;70;78;78;80;80;80;80;80;80;80;80;80;80;80;80
45;70;70;68;68;76;76;80;80;80;80;80;80;80;80;80;80;80;80
44;68;68;67;67;74;74;80;80;80;80;80;80;80;80;80;80;80;80
43;67;67;65;65;70;70;79;79;80;80;80;80;80;80;80;80;80;80
42;65;65;62;62;68;68;76;76;80;80;80;80;80;80;80;80;80;80
41;62;62;59;59;67;67;74;74;80;80;80;80;80;80;80;80;80;80
40;59;59;58;58;65;65;70;70;80;80;80;80;80;80;80;80;80;80
39;58;58;56;56;62;62;68;68;79;79;80;80;80;80;80;80;80;80
38;56;56;55;55;59;59;67;67;76;76;80;80;80;80;80;80;80;80
37;55;55;54;54;58;58;65;65;74;74;80;80;80;80;80;80;80;80
36;54;54;50;50;56;56;62;62;70;70;80;80;80;80;80;80;80;80
35;50;50;48;48;55;55;59;59;68;68;80;80;80;80;80;80;80;80
34;48;48;46;46;54;54;58;58;67;67;76;76;80;80;80;80;80;80
33;46;46;45;45;50;50;56;56;65;65;70;70;80;80;80;80;80;80
32;45;45;43;43;48;48;54;54;59;59;68;68;80;80;80;80;80;80
31;43;43;42;42;46;46;50;50;58;58;67;67;78;78;80;80;80;80
30;42;42;40;40;45;45;48;48;56;56;65;65;74;74;80;80;80;80
29;40;40;38;38;43;43;46;46;54;54;62;62;70;70;80;80;80;80
28;38;38;37;37;42;42;45;45;50;50;58;58;67;67;80;80;80;80
27;37;37;35;35;40;40;43;43;48;48;56;56;65;65;76;76;80;80
26;35;35;34;34;38;38;42;42;45;45;54;54;62;62;70;70;80;80
25;34;34;32;32;37;37;40;40;43;43;50;50;58;58;68;68;80;80
24;32;32;30;30;35;35;38;38;42;42;48;48;56;56;65;65;80;80
23;30;30;0;0;34;34;37;37;40;40;46;46;50;50;62;62;76;76
22;0;0;0;0;32;32;35;35;38;38;45;45;48;48;58;58;70;70
21;0;0;0;0;30;30;34;34;37;37;43;43;46;46;56;56;67;67
20;0;0;0;0;0;0;32;32;35;35;40;40;45;45;54;54;65;65
19;0;0;0;0;0;0;30;30;34;34;38;38;43;43;48;48;58;58
18;0;0;0;0;0;0;0;0;30;30;37;37;38;38;46;46;56;56
17;0;0;0;0;0;0;0;0;0;0;35;35;37;37;43;43;54;54
16;0;0;0;0;0;0;0;0;0;0;30;30;35;35;40;40;48;48
15;0;0;0;0;0;0;0;0;0;0;0;0;32;32;38;38;45;45
14;0;0;0;0;0;0;0;0;0;0;0;0;30;30;35;35;43;43
13;0;0;0;0;0;0;0;0;0;0;0;0;0;0;34;34;37;37
12;0;0;0;0;0;0;0;0;0;0;0;0;0;0;30;30;34;34
11;0;0;0;0;0;0;0;0;0;0;0;0;0;0;0;0;30;30
10;0;0;0;0;0;0;0;0;0;0;0;0;0;0;0;0;0;0
